﻿Date,Price,Open,High,Low,Vol.,Change %,Coin
25-Dec-19,0.03347,0.03388,0.03401,0.03288,242.93M,-1.20%,ADA
24-Dec-19,0.03388,0.03312,0.03451,0.03284,341.10M,2.28%,ADA
23-Dec-19,0.03312,0.03438,0.03454,0.0329,396.35M,-3.66%,ADA
22-Dec-19,0.03438,0.03305,0.03449,0.03298,218.15M,4.04%,ADA
21-Dec-19,0.03305,0.03388,0.0339,0.03285,169.62M,-2.44%,ADA
20-Dec-19,0.03387,0.03303,0.0339,0.03257,257.04M,2.57%,ADA
19-Dec-19,0.03303,0.03434,0.03471,0.03288,400.61M,-3.83%,ADA
18-Dec-19,0.03434,0.03166,0.0346,0.03036,549.02M,8.48%,ADA
17-Dec-19,0.03166,0.03411,0.03415,0.0312,500.28M,-7.19%,ADA
16-Dec-19,0.03411,0.03647,0.03654,0.03327,312.31M,-6.51%,ADA
15-Dec-19,0.03648,0.03624,0.03664,0.03584,188.09M,0.66%,ADA
14-Dec-19,0.03624,0.03719,0.03731,0.03575,312.63M,-2.54%,ADA
13-Dec-19,0.03719,0.03652,0.0374,0.0364,287.93M,1.82%,ADA
12-Dec-19,0.03652,0.03663,0.03691,0.03597,402.50M,-0.29%,ADA
11-Dec-19,0.03663,0.03634,0.03713,0.0361,566.25M,0.79%,ADA
10-Dec-19,0.03634,0.03723,0.03742,0.03605,290.58M,-2.37%,ADA
9-Dec-19,0.03723,0.03874,0.03878,0.03704,255.14M,-3.91%,ADA
8-Dec-19,0.03874,0.03845,0.03887,0.03795,166.10M,0.77%,ADA
7-Dec-19,0.03844,0.03825,0.03908,0.03797,212.59M,0.49%,ADA
6-Dec-19,0.03826,0.03758,0.03828,0.03716,212.55M,1.79%,ADA
5-Dec-19,0.03758,0.03709,0.03807,0.03676,268.21M,1.33%,ADA
4-Dec-19,0.03709,0.03774,0.03858,0.03624,390.48M,-1.72%,ADA
3-Dec-19,0.03774,0.03797,0.03872,0.03737,230.95M,-0.61%,ADA
2-Dec-19,0.03797,0.03954,0.03956,0.03741,287.19M,-3.98%,ADA
1-Dec-19,0.03954,0.04035,0.04035,0.03822,363.35M,-2.01%,ADA
30-Nov-19,0.04035,0.04127,0.04209,0.03983,411.33M,-2.22%,ADA
29-Nov-19,0.04127,0.03903,0.04196,0.03898,619.74M,5.70%,ADA
28-Nov-19,0.03904,0.03901,0.03979,0.03829,342.32M,0.08%,ADA
27-Nov-19,0.03901,0.03667,0.0398,0.03517,435.82M,6.40%,ADA
26-Nov-19,0.03667,0.03589,0.03712,0.03542,353.85M,2.15%,ADA
25-Nov-19,0.03589,0.03501,0.03728,0.03296,643.27M,2.54%,ADA
24-Nov-19,0.03501,0.0379,0.03864,0.03492,451.52M,-7.61%,ADA
23-Nov-19,0.03789,0.037,0.03829,0.03648,344.92M,2.40%,ADA
22-Nov-19,0.037,0.03837,0.03863,0.03425,646.32M,-3.55%,ADA
21-Nov-19,0.03837,0.04088,0.04108,0.03734,353.35M,-6.15%,ADA
20-Nov-19,0.04088,0.04215,0.04235,0.04034,361.21M,-3.02%,ADA
19-Nov-19,0.04215,0.04317,0.04342,0.04108,447.03M,-2.35%,ADA
18-Nov-19,0.04317,0.045,0.04614,0.04291,544.27M,-4.08%,ADA
17-Nov-19,0.045,0.04388,0.04579,0.04312,324.44M,2.56%,ADA
16-Nov-19,0.04388,0.04392,0.04449,0.04321,300.38M,-0.09%,ADA
15-Nov-19,0.04392,0.0428,0.04443,0.04184,346.75M,2.61%,ADA
14-Nov-19,0.0428,0.04329,0.04342,0.04201,199.31M,-1.13%,ADA
13-Nov-19,0.04329,0.0437,0.04387,0.04309,164.09M,-0.93%,ADA
12-Nov-19,0.0437,0.04318,0.04453,0.04298,302.44M,1.18%,ADA
11-Nov-19,0.04319,0.04383,0.044,0.04233,206.41M,-1.47%,ADA
10-Nov-19,0.04383,0.0424,0.04413,0.04226,251.38M,3.35%,ADA
9-Nov-19,0.04241,0.04217,0.04278,0.04199,134.43M,0.58%,ADA
8-Nov-19,0.04217,0.04341,0.04381,0.04121,291.88M,-2.87%,ADA
7-Nov-19,0.04341,0.04478,0.04489,0.04255,295.29M,-3.07%,ADA
6-Nov-19,0.04478,0.04413,0.04598,0.04357,322.19M,1.48%,ADA
5-Nov-19,0.04413,0.04317,0.04476,0.043,384.40M,2.26%,ADA
4-Nov-19,0.04316,0.0417,0.04332,0.04138,274.97M,3.50%,ADA
3-Nov-19,0.0417,0.04238,0.04254,0.04134,182.08M,-1.59%,ADA
2-Nov-19,0.04237,0.04211,0.04254,0.04174,257.23M,0.61%,ADA
1-Nov-19,0.04212,0.04129,0.04256,0.04091,342.69M,2.13%,ADA
31-Oct-19,0.04124,0.0417,0.04222,0.04013,455.57M,-1.12%,ADA
30-Oct-19,0.0417,0.04338,0.04439,0.04113,505.89M,-3.86%,ADA
29-Oct-19,0.04338,0.04219,0.04393,0.04211,521.44M,2.83%,ADA
28-Oct-19,0.04219,0.04218,0.04479,0.0419,642.42M,0.00%,ADA
27-Oct-19,0.04218,0.04048,0.0433,0.03951,883.66M,4.20%,ADA
26-Oct-19,0.04048,0.04117,0.04312,0.03935,893.91M,-1.66%,ADA
25-Oct-19,0.04117,0.03731,0.0419,0.03724,536.17M,10.35%,ADA
24-Oct-19,0.03731,0.03631,0.03787,0.03591,260.37M,2.73%,ADA
23-Oct-19,0.03631,0.03859,0.03881,0.03536,316.69M,-5.89%,ADA
22-Oct-19,0.03859,0.03912,0.03996,0.03856,222.17M,-1.36%,ADA
21-Oct-19,0.03912,0.0395,0.0395,0.03848,194.05M,-0.95%,ADA
20-Oct-19,0.03949,0.03899,0.03951,0.03817,179.56M,1.30%,ADA
19-Oct-19,0.03899,0.03793,0.03953,0.03759,236.65M,2.78%,ADA
18-Oct-19,0.03793,0.03934,0.03945,0.03744,222.44M,-3.59%,ADA
17-Oct-19,0.03934,0.03841,0.03943,0.03782,198.74M,2.43%,ADA
16-Oct-19,0.03841,0.03959,0.0398,0.03761,246.41M,-2.99%,ADA
15-Oct-19,0.03959,0.04166,0.04186,0.03913,261.20M,-4.96%,ADA
14-Oct-19,0.04166,0.04125,0.04199,0.04083,240.19M,1.01%,ADA
13-Oct-19,0.04125,0.04041,0.04162,0.04029,192.66M,2.07%,ADA
12-Oct-19,0.04041,0.04008,0.04091,0.04002,190.00M,0.80%,ADA
11-Oct-19,0.04009,0.0416,0.04218,0.04002,348.12M,-3.63%,ADA
10-Oct-19,0.0416,0.04239,0.04255,0.04064,310.91M,-1.87%,ADA
9-Oct-19,0.04239,0.04122,0.04339,0.04076,401.89M,2.83%,ADA
8-Oct-19,0.04123,0.04139,0.04214,0.04033,375.15M,-0.40%,ADA
7-Oct-19,0.04139,0.03886,0.04176,0.03816,492.98M,6.53%,ADA
6-Oct-19,0.03886,0.03965,0.04,0.03815,247.92M,-2.00%,ADA
5-Oct-19,0.03965,0.03931,0.03973,0.03864,246.76M,0.86%,ADA
4-Oct-19,0.03931,0.03816,0.04017,0.03747,317.59M,3.04%,ADA
3-Oct-19,0.03815,0.03922,0.03958,0.03755,273.51M,-2.72%,ADA
2-Oct-19,0.03922,0.03823,0.03939,0.03766,221.97M,2.50%,ADA
1-Oct-19,0.03827,0.03886,0.03988,0.03814,282.95M,-1.54%,ADA
30-Sep-19,0.03886,0.03723,0.03925,0.03599,394.71M,4.38%,ADA
29-Sep-19,0.03723,0.03863,0.03872,0.0361,313.46M,-3.63%,ADA
28-Sep-19,0.03863,0.03911,0.03955,0.03795,326.49M,-1.23%,ADA
27-Sep-19,0.03911,0.03815,0.0397,0.037,589.12M,2.52%,ADA
26-Sep-19,0.03815,0.03913,0.04006,0.03503,899.92M,-2.50%,ADA
25-Sep-19,0.03913,0.03723,0.04018,0.03595,1.02B,5.10%,ADA
24-Sep-19,0.03723,0.04624,0.04654,0.03488,1.04B,-19.49%,ADA
23-Sep-19,0.04624,0.04888,0.04939,0.04604,504.21M,-5.41%,ADA
22-Sep-19,0.04888,0.05178,0.05183,0.04771,584.70M,-5.60%,ADA
21-Sep-19,0.05178,0.05243,0.0533,0.05117,387.24M,-1.23%,ADA
20-Sep-19,0.05243,0.05232,0.05246,0.05028,497.15M,0.21%,ADA
19-Sep-19,0.05232,0.05309,0.05448,0.04952,801.63M,-1.45%,ADA
18-Sep-19,0.05309,0.04888,0.05549,0.04886,847.50M,8.63%,ADA
17-Sep-19,0.04887,0.04703,0.05068,0.04691,505.25M,3.91%,ADA
16-Sep-19,0.04703,0.04664,0.04754,0.04572,249.11M,0.82%,ADA
15-Sep-19,0.04665,0.04642,0.04698,0.04612,212.27M,0.50%,ADA
14-Sep-19,0.04642,0.04568,0.04706,0.04476,297.11M,1.62%,ADA
13-Sep-19,0.04568,0.04538,0.04582,0.04489,181.24M,0.65%,ADA
12-Sep-19,0.04538,0.04488,0.04624,0.04425,219.10M,1.10%,ADA
11-Sep-19,0.04489,0.04647,0.04691,0.04441,295.49M,-3.43%,ADA
10-Sep-19,0.04648,0.04682,0.04813,0.04569,274.02M,-0.72%,ADA
9-Sep-19,0.04682,0.04651,0.04715,0.04534,335.45M,0.65%,ADA
8-Sep-19,0.04652,0.04597,0.04746,0.04596,268.55M,1.18%,ADA
7-Sep-19,0.04597,0.04424,0.04649,0.04369,215.41M,3.93%,ADA
6-Sep-19,0.04424,0.04443,0.04462,0.04355,270.76M,-0.43%,ADA
5-Sep-19,0.04443,0.04537,0.04541,0.0438,273.32M,-2.06%,ADA
4-Sep-19,0.04537,0.04665,0.04665,0.04503,257.33M,-2.77%,ADA
3-Sep-19,0.04666,0.04532,0.04739,0.04459,339.73M,2.95%,ADA
2-Sep-19,0.04532,0.04435,0.04615,0.04333,286.87M,2.18%,ADA
1-Sep-19,0.04435,0.04478,0.04515,0.04361,183.40M,-0.94%,ADA
31-Aug-19,0.04478,0.04475,0.04542,0.04375,368.90M,0.07%,ADA
30-Aug-19,0.04474,0.04452,0.04578,0.04412,514.26M,0.50%,ADA
29-Aug-19,0.04452,0.04589,0.04589,0.04326,424.73M,-3.00%,ADA
28-Aug-19,0.0459,0.04986,0.05034,0.04527,566.68M,-7.95%,ADA
27-Aug-19,0.04986,0.04965,0.04991,0.04816,247.97M,0.44%,ADA
26-Aug-19,0.04965,0.0495,0.05083,0.04876,964.57M,0.28%,ADA
25-Aug-19,0.04951,0.0501,0.05262,0.04849,1.18B,-1.18%,ADA
24-Aug-19,0.0501,0.04966,0.05143,0.04812,996.81M,0.87%,ADA
23-Aug-19,0.04966,0.04929,0.0502,0.04887,332.55M,0.74%,ADA
22-Aug-19,0.0493,0.04731,0.05108,0.04681,338.80M,4.20%,ADA
21-Aug-19,0.04731,0.04917,0.04921,0.04606,251.86M,-3.78%,ADA
20-Aug-19,0.04917,0.05004,0.05028,0.04863,246.95M,-1.71%,ADA
19-Aug-19,0.05003,0.0506,0.05069,0.04951,173.20M,-1.13%,ADA
18-Aug-19,0.0506,0.04736,0.05117,0.04698,298.10M,6.85%,ADA
17-Aug-19,0.04736,0.04667,0.04799,0.04637,302.08M,1.43%,ADA
16-Aug-19,0.04669,0.04733,0.04743,0.0446,371.15M,-1.36%,ADA
15-Aug-19,0.04734,0.04716,0.04817,0.04557,305.40M,0.38%,ADA
14-Aug-19,0.04716,0.05264,0.0537,0.04668,423.01M,-10.41%,ADA
13-Aug-19,0.05264,0.05304,0.05323,0.04997,324.83M,-0.76%,ADA
12-Aug-19,0.05304,0.05495,0.05495,0.05259,237.93M,-3.50%,ADA
11-Aug-19,0.05496,0.05198,0.05588,0.05177,397.38M,5.74%,ADA
10-Aug-19,0.05198,0.04771,0.05336,0.04768,417.61M,8.96%,ADA
9-Aug-19,0.04771,0.05216,0.05229,0.04742,314.93M,-8.53%,ADA
8-Aug-19,0.05216,0.05193,0.05316,0.05046,342.96M,0.43%,ADA
7-Aug-19,0.05194,0.05354,0.0543,0.0514,289.10M,-3.00%,ADA
6-Aug-19,0.05354,0.05647,0.05655,0.05311,288.72M,-5.19%,ADA
5-Aug-19,0.05647,0.05612,0.05812,0.0561,311.20M,0.64%,ADA
4-Aug-19,0.05612,0.05774,0.05826,0.05604,245.65M,-2.81%,ADA
3-Aug-19,0.05774,0.05738,0.05825,0.05691,208.11M,0.62%,ADA
2-Aug-19,0.05738,0.05864,0.05883,0.05621,312.43M,-2.14%,ADA
1-Aug-19,0.05864,0.06005,0.06024,0.05793,266.54M,-2.35%,ADA
31-Jul-19,0.06005,0.05982,0.06102,0.05918,313.61M,0.39%,ADA
30-Jul-19,0.05982,0.06043,0.06139,0.05884,238.45M,-1.02%,ADA
29-Jul-19,0.06043,0.05934,0.06237,0.05822,273.84M,1.84%,ADA
28-Jul-19,0.05934,0.0599,0.06005,0.05692,210.54M,-0.93%,ADA
27-Jul-19,0.0599,0.06261,0.06349,0.05721,362.40M,-4.33%,ADA
26-Jul-19,0.06261,0.05849,0.06274,0.05689,332.08M,7.04%,ADA
25-Jul-19,0.05849,0.05882,0.06049,0.05812,285.81M,-0.56%,ADA
24-Jul-19,0.05882,0.05574,0.05899,0.05397,439.73M,5.53%,ADA
23-Jul-19,0.05574,0.05951,0.05955,0.05525,478.50M,-6.34%,ADA
22-Jul-19,0.05951,0.06112,0.06202,0.0582,336.81M,-2.61%,ADA
21-Jul-19,0.06111,0.06264,0.064,0.05944,352.39M,-2.43%,ADA
20-Jul-19,0.06263,0.05958,0.06502,0.05934,449.80M,5.13%,ADA
19-Jul-19,0.05958,0.05843,0.06063,0.056,442.66M,1.97%,ADA
18-Jul-19,0.05843,0.05506,0.05952,0.0532,618.01M,6.12%,ADA
17-Jul-19,0.05506,0.05181,0.05775,0.05001,793.27M,6.27%,ADA
16-Jul-19,0.05181,0.05902,0.06066,0.05021,988.67M,-12.21%,ADA
15-Jul-19,0.05901,0.05911,0.06013,0.05464,1.07B,-0.20%,ADA
14-Jul-19,0.05913,0.06677,0.06712,0.05891,938.82M,-11.44%,ADA
13-Jul-19,0.06677,0.06937,0.07081,0.06447,889.44M,-3.75%,ADA
12-Jul-19,0.06937,0.06518,0.07049,0.06336,996.39M,6.43%,ADA
11-Jul-19,0.06518,0.07179,0.07179,0.06249,1.07B,-9.20%,ADA
10-Jul-19,0.07179,0.07787,0.07828,0.06922,851.52M,-7.82%,ADA
9-Jul-19,0.07788,0.08017,0.08064,0.07708,869.97M,-2.85%,ADA
8-Jul-19,0.08016,0.07967,0.08179,0.07875,808.96M,0.57%,ADA
7-Jul-19,0.07971,0.07748,0.07993,0.07678,820.20M,2.88%,ADA
6-Jul-19,0.07748,0.07638,0.08046,0.07627,967.94M,1.44%,ADA
5-Jul-19,0.07638,0.07749,0.0781,0.07576,843.19M,-1.44%,ADA
4-Jul-19,0.07749,0.08239,0.08242,0.07719,989.09M,-5.95%,ADA
3-Jul-19,0.08239,0.08053,0.08314,0.07923,1.05B,2.32%,ADA
2-Jul-19,0.08052,0.0836,0.08423,0.07679,1.24B,-3.67%,ADA
1-Jul-19,0.0836,0.08223,0.08597,0.08025,144.03M,1.89%,ADA
30-Jun-19,0.08204,0.08998,0.09073,0.08202,173.50M,-8.82%,ADA
29-Jun-19,0.08998,0.08873,0.09094,0.08452,157.92M,1.41%,ADA
28-Jun-19,0.08873,0.08634,0.08883,0.08507,207.64M,2.77%,ADA
27-Jun-19,0.08634,0.09804,0.0992,0.084,356.10M,-11.93%,ADA
26-Jun-19,0.09804,0.09653,0.10667,0.09601,529.26M,1.77%,ADA
25-Jun-19,0.09633,0.09782,0.09827,0.09374,153.95M,-1.52%,ADA
24-Jun-19,0.09782,0.09699,0.09943,0.09421,205.69M,0.86%,ADA
23-Jun-19,0.09699,0.09472,0.10332,0.09449,421.15M,2.39%,ADA
22-Jun-19,0.09472,0.0891,0.09739,0.08823,340.96M,6.32%,ADA
21-Jun-19,0.08909,0.08733,0.0908,0.08732,156.78M,2.02%,ADA
20-Jun-19,0.08733,0.08959,0.09,0.08523,134.38M,-2.53%,ADA
19-Jun-19,0.08959,0.08905,0.09158,0.08851,66.91M,0.61%,ADA
18-Jun-19,0.08905,0.09322,0.09352,0.0882,112.51M,-4.47%,ADA
17-Jun-19,0.09322,0.09189,0.09362,0.09112,101.98M,1.46%,ADA
16-Jun-19,0.09188,0.09126,0.094,0.08996,188.79M,0.68%,ADA
15-Jun-19,0.09126,0.09009,0.09253,0.08972,124.10M,1.29%,ADA
14-Jun-19,0.09009,0.08954,0.09091,0.08559,203.24M,0.61%,ADA
13-Jun-19,0.08954,0.09606,0.09653,0.0883,255.75M,-6.78%,ADA
12-Jun-19,0.09606,0.0874,0.09615,0.08586,337.76M,9.90%,ADA
11-Jun-19,0.0874,0.08507,0.08907,0.08184,181.53M,2.74%,ADA
10-Jun-19,0.08507,0.07895,0.08509,0.07782,124.44M,7.75%,ADA
9-Jun-19,0.07895,0.08357,0.08384,0.07705,96.68M,-5.52%,ADA
8-Jun-19,0.08357,0.08503,0.08609,0.08154,68.15M,-1.72%,ADA
7-Jun-19,0.08503,0.08302,0.08701,0.08202,118.17M,2.41%,ADA
6-Jun-19,0.08302,0.08253,0.08379,0.07801,145.77M,0.60%,ADA
5-Jun-19,0.08253,0.0826,0.08427,0.07966,119.11M,-0.08%,ADA
4-Jun-19,0.0826,0.08753,0.08824,0.07949,299.38M,-5.63%,ADA
3-Jun-19,0.08753,0.09631,0.09814,0.0871,343.22M,-9.10%,ADA
2-Jun-19,0.09629,0.09046,0.09742,0.09029,316.40M,6.45%,ADA
1-Jun-19,0.09046,0.0891,0.09268,0.08553,174.91M,1.52%,ADA
31-May-19,0.0891,0.08389,0.08968,0.08139,178.43M,6.21%,ADA
30-May-19,0.08389,0.09085,0.0967,0.08048,374.94M,-7.66%,ADA
29-May-19,0.09085,0.09285,0.09359,0.08561,191.70M,-2.15%,ADA
28-May-19,0.09285,0.0904,0.09341,0.08706,208.91M,2.71%,ADA
27-May-19,0.0904,0.08531,0.09333,0.08446,246.56M,5.97%,ADA
26-May-19,0.08531,0.08013,0.08667,0.07821,140.38M,6.47%,ADA
25-May-19,0.08013,0.08068,0.08218,0.07921,92.29M,-0.68%,ADA
24-May-19,0.08068,0.08035,0.08302,0.07796,148.20M,0.40%,ADA
23-May-19,0.08035,0.07747,0.08035,0.07394,163.71M,3.72%,ADA
22-May-19,0.07747,0.08395,0.08529,0.07707,151.45M,-7.72%,ADA
21-May-19,0.08395,0.08447,0.086,0.08197,141.37M,-0.58%,ADA
20-May-19,0.08443,0.08623,0.08667,0.07925,239.52M,-2.08%,ADA
19-May-19,0.08623,0.07882,0.08778,0.07843,270.20M,9.40%,ADA
18-May-19,0.07882,0.08276,0.08491,0.07847,174.82M,-5.42%,ADA
17-May-19,0.08333,0.08798,0.09045,0.07576,397.02M,-5.19%,ADA
16-May-19,0.0879,0.09389,0.10063,0.08359,509.93M,-6.38%,ADA
15-May-19,0.09389,0.08449,0.09525,0.08338,279.69M,11.09%,ADA
14-May-19,0.08451,0.07265,0.08453,0.07241,396.80M,16.34%,ADA
13-May-19,0.07265,0.07022,0.0763,0.06961,243.18M,3.45%,ADA
12-May-19,0.07022,0.0741,0.077,0.06786,321.47M,-6.01%,ADA
11-May-19,0.07472,0.06316,0.07852,0.06301,386.88M,18.30%,ADA
10-May-19,0.06316,0.06165,0.06501,0.05923,178.67M,2.44%,ADA
9-May-19,0.06165,0.06467,0.06521,0.06038,105.98M,-4.66%,ADA
8-May-19,0.06467,0.06417,0.06542,0.06204,75.60M,0.78%,ADA
7-May-19,0.06417,0.06693,0.06878,0.06396,101.23M,-4.13%,ADA
6-May-19,0.06693,0.06604,0.06876,0.06349,109.16M,1.36%,ADA
5-May-19,0.06604,0.06693,0.06811,0.06577,59.76M,-1.34%,ADA
4-May-19,0.06693,0.06995,0.07225,0.06571,133.78M,-4.31%,ADA
3-May-19,0.06995,0.06855,0.07166,0.06773,168.78M,2.03%,ADA
2-May-19,0.06855,0.06888,0.06971,0.06801,61.96M,-0.48%,ADA
1-May-19,0.06888,0.07007,0.07054,0.0673,74.73M,-1.69%,ADA
30-Apr-19,0.07007,0.06482,0.07016,0.06471,85.44M,8.10%,ADA
29-Apr-19,0.06482,0.06883,0.06921,0.06425,101.06M,-5.83%,ADA
28-Apr-19,0.06883,0.07051,0.07121,0.06805,60.58M,-2.38%,ADA
27-Apr-19,0.07051,0.06984,0.07233,0.0688,82.06M,0.97%,ADA
26-Apr-19,0.06984,0.06959,0.07232,0.0671,179.14M,0.34%,ADA
25-Apr-19,0.0696,0.07215,0.07561,0.0682,212.39M,-3.53%,ADA
24-Apr-19,0.07215,0.07349,0.07518,0.06776,242.99M,-1.82%,ADA
23-Apr-19,0.07349,0.07784,0.0797,0.07336,231.44M,-5.59%,ADA
22-Apr-19,0.07784,0.07328,0.07875,0.07136,196.25M,6.23%,ADA
21-Apr-19,0.07328,0.07594,0.07742,0.07083,193.34M,-3.50%,ADA
20-Apr-19,0.07594,0.07889,0.07899,0.07469,147.25M,-3.74%,ADA
19-Apr-19,0.07889,0.08125,0.08125,0.07767,171.05M,-2.90%,ADA
18-Apr-19,0.08125,0.08244,0.08344,0.08075,116.62M,-1.44%,ADA
17-Apr-19,0.08244,0.08275,0.08387,0.08119,87.66M,-0.38%,ADA
16-Apr-19,0.08275,0.08152,0.08305,0.07973,87.79M,1.51%,ADA
15-Apr-19,0.08152,0.08415,0.08525,0.08043,114.28M,-3.12%,ADA
14-Apr-19,0.08415,0.08285,0.08478,0.08056,113.36M,1.57%,ADA
13-Apr-19,0.08285,0.0825,0.08475,0.08203,94.51M,0.43%,ADA
12-Apr-19,0.0825,0.0828,0.08473,0.07914,188.02M,-0.37%,ADA
11-Apr-19,0.0828,0.08938,0.09021,0.0761,349.02M,-7.36%,ADA
10-Apr-19,0.08938,0.0829,0.09153,0.08269,245.26M,7.81%,ADA
9-Apr-19,0.0829,0.08609,0.08611,0.08008,236.85M,-3.70%,ADA
8-Apr-19,0.08609,0.0898,0.09145,0.08171,292.70M,-4.27%,ADA
7-Apr-19,0.08993,0.08988,0.09104,0.08804,160.86M,0.06%,ADA
6-Apr-19,0.08988,0.09042,0.09358,0.0873,193.76M,-0.60%,ADA
5-Apr-19,0.09042,0.08709,0.09197,0.08688,240.69M,3.82%,ADA
4-Apr-19,0.08709,0.09054,0.09385,0.08253,524.45M,-3.81%,ADA
3-Apr-19,0.09054,0.08549,0.09968,0.08326,810.57M,5.91%,ADA
2-Apr-19,0.08549,0.07214,0.08549,0.07062,508.22M,18.50%,ADA
1-Apr-19,0.07214,0.06989,0.07264,0.06897,166.18M,3.12%,ADA
31-Mar-19,0.06996,0.07205,0.07247,0.06964,126.82M,-2.91%,ADA
30-Mar-19,0.07205,0.07131,0.07287,0.06863,232.84M,1.04%,ADA
29-Mar-19,0.07131,0.06551,0.073,0.0654,337.85M,8.86%,ADA
28-Mar-19,0.06551,0.06698,0.06698,0.06403,198.23M,-2.19%,ADA
27-Mar-19,0.06698,0.06169,0.06779,0.06064,385.61M,8.56%,ADA
26-Mar-19,0.06169,0.05861,0.06185,0.05854,273.77M,5.27%,ADA
25-Mar-19,0.05861,0.0615,0.06153,0.05685,321.20M,-4.70%,ADA
24-Mar-19,0.0615,0.06351,0.06444,0.05904,422.93M,-3.16%,ADA
23-Mar-19,0.06351,0.05781,0.06452,0.05673,544.32M,9.86%,ADA
22-Mar-19,0.05781,0.05233,0.05882,0.05195,433.11M,10.47%,ADA
21-Mar-19,0.05233,0.05354,0.05464,0.04966,293.88M,-2.27%,ADA
20-Mar-19,0.05354,0.05205,0.05365,0.05081,192.70M,2.88%,ADA
19-Mar-19,0.05205,0.04997,0.05303,0.04921,160.85M,4.23%,ADA
18-Mar-19,0.04993,0.04983,0.0509,0.04908,105.38M,0.22%,ADA
17-Mar-19,0.04983,0.0512,0.05132,0.0495,120.87M,-2.69%,ADA
16-Mar-19,0.0512,0.04981,0.05185,0.04903,213.87M,2.81%,ADA
15-Mar-19,0.04981,0.04765,0.05065,0.04761,211.75M,4.53%,ADA
14-Mar-19,0.04765,0.04622,0.04807,0.04591,127.28M,3.08%,ADA
13-Mar-19,0.04622,0.04721,0.04844,0.04578,130.24M,-2.08%,ADA
12-Mar-19,0.04721,0.04734,0.04812,0.0457,171.51M,-0.27%,ADA
11-Mar-19,0.04734,0.04556,0.04842,0.04466,244.65M,3.89%,ADA
10-Mar-19,0.04556,0.04681,0.04688,0.0443,153.80M,-2.67%,ADA
9-Mar-19,0.04681,0.0424,0.0471,0.04235,243.96M,10.40%,ADA
8-Mar-19,0.0424,0.04275,0.04366,0.04207,114.52M,-0.81%,ADA
7-Mar-19,0.04275,0.04251,0.04335,0.04208,91.66M,0.56%,ADA
6-Mar-19,0.04251,0.04289,0.04323,0.04192,77.70M,-0.88%,ADA
5-Mar-19,0.04289,0.04022,0.04325,0.04001,124.46M,6.62%,ADA
4-Mar-19,0.04022,0.04205,0.04229,0.03909,100.69M,-4.35%,ADA
3-Mar-19,0.04205,0.04242,0.04274,0.04175,44.49M,-0.86%,ADA
2-Mar-19,0.04242,0.04301,0.04337,0.04204,56.54M,-1.38%,ADA
1-Mar-19,0.04301,0.04285,0.04376,0.04279,52.66M,0.37%,ADA
28-Feb-19,0.04285,0.04294,0.04367,0.04253,79.20M,-0.20%,ADA
27-Feb-19,0.04294,0.04289,0.0434,0.04158,100.79M,0.11%,ADA
26-Feb-19,0.04289,0.04351,0.04357,0.04228,104.75M,-1.43%,ADA
25-Feb-19,0.04351,0.04158,0.0443,0.04158,165.47M,4.65%,ADA
24-Feb-19,0.04158,0.04846,0.05045,0.04124,355.85M,-14.20%,ADA
23-Feb-19,0.04846,0.04581,0.04896,0.04545,179.76M,5.80%,ADA
22-Feb-19,0.04581,0.04504,0.04604,0.04467,109.33M,1.71%,ADA
21-Feb-19,0.04504,0.04744,0.04807,0.04417,151.69M,-5.07%,ADA
20-Feb-19,0.04744,0.04592,0.04765,0.04477,171.74M,3.31%,ADA
19-Feb-19,0.04592,0.04563,0.04823,0.04545,282.98M,0.65%,ADA
18-Feb-19,0.04563,0.04156,0.04672,0.04143,258.15M,9.77%,ADA
17-Feb-19,0.04156,0.04101,0.04224,0.04056,70.37M,1.35%,ADA
16-Feb-19,0.04101,0.04057,0.04145,0.04053,42.27M,1.08%,ADA
15-Feb-19,0.04057,0.04036,0.0415,0.04002,55.45M,0.54%,ADA
14-Feb-19,0.04036,0.04106,0.04139,0.03997,59.80M,-1.71%,ADA
13-Feb-19,0.04106,0.04174,0.04243,0.04089,61.80M,-1.62%,ADA
12-Feb-19,0.04174,0.04174,0.04205,0.04057,90.18M,0.00%,ADA
11-Feb-19,0.04174,0.04289,0.04298,0.04135,104.84M,-2.70%,ADA
10-Feb-19,0.04289,0.04118,0.04303,0.03987,124.91M,4.17%,ADA
9-Feb-19,0.04118,0.04071,0.0422,0.0405,125.98M,1.14%,ADA
8-Feb-19,0.04071,0.03645,0.04215,0.03621,186.44M,11.69%,ADA
7-Feb-19,0.03645,0.03669,0.03731,0.03633,55.09M,-0.65%,ADA
6-Feb-19,0.03669,0.03804,0.03822,0.03599,108.30M,-3.55%,ADA
5-Feb-19,0.03804,0.038,0.03859,0.03761,56.30M,0.09%,ADA
4-Feb-19,0.038,0.03822,0.03879,0.0378,50.59M,-0.57%,ADA
3-Feb-19,0.03822,0.03927,0.03945,0.03772,64.60M,-2.65%,ADA
2-Feb-19,0.03927,0.03858,0.03939,0.03804,54.37M,1.77%,ADA
1-Feb-19,0.03858,0.0382,0.03909,0.03701,82.55M,0.99%,ADA
31-Jan-19,0.0382,0.03952,0.04026,0.03777,107.13M,-3.34%,ADA
30-Jan-19,0.03952,0.03795,0.04011,0.03742,156.20M,4.10%,ADA
29-Jan-19,0.03797,0.03854,0.03943,0.03667,135.67M,-1.49%,ADA
28-Jan-19,0.03854,0.04087,0.04117,0.0367,197.09M,-5.70%,ADA
27-Jan-19,0.04087,0.04239,0.04246,0.04038,102.85M,-3.57%,ADA
26-Jan-19,0.04239,0.0424,0.04331,0.04229,60.74M,-0.05%,ADA
25-Jan-19,0.04241,0.04284,0.04301,0.0421,44.52M,-1.00%,ADA
24-Jan-19,0.04284,0.04267,0.04335,0.0422,65.09M,0.40%,ADA
23-Jan-19,0.04267,0.04332,0.04388,0.04212,94.26M,-1.50%,ADA
22-Jan-19,0.04332,0.04252,0.04399,0.04114,131.48M,1.89%,ADA
21-Jan-19,0.04252,0.04285,0.04334,0.04187,92.64M,-0.77%,ADA
20-Jan-19,0.04285,0.04514,0.04546,0.04142,155.39M,-5.09%,ADA
19-Jan-19,0.04514,0.04373,0.04591,0.04336,113.46M,3.22%,ADA
18-Jan-19,0.04373,0.04467,0.04474,0.0432,100.22M,-2.11%,ADA
17-Jan-19,0.04467,0.04414,0.0457,0.04326,249.02M,1.21%,ADA
16-Jan-19,0.04414,0.04204,0.04464,0.04171,203.79M,4.99%,ADA
15-Jan-19,0.04204,0.04341,0.04382,0.04103,165.76M,-3.14%,ADA
14-Jan-19,0.04341,0.03944,0.04393,0.03943,205.49M,10.06%,ADA
13-Jan-19,0.03944,0.04288,0.04311,0.03892,161.03M,-8.03%,ADA
12-Jan-19,0.04288,0.0433,0.0438,0.0421,120.06M,-0.96%,ADA
11-Jan-19,0.0433,0.04364,0.0443,0.04173,252.62M,-0.79%,ADA
10-Jan-19,0.04364,0.05142,0.05401,0.04137,515.47M,-15.13%,ADA
9-Jan-19,0.05142,0.0478,0.05212,0.04771,288.62M,7.59%,ADA
8-Jan-19,0.0478,0.04755,0.04932,0.04618,217.62M,0.53%,ADA
7-Jan-19,0.04755,0.04826,0.04995,0.04653,290.94M,-1.47%,ADA
6-Jan-19,0.04826,0.04403,0.04875,0.04381,310.30M,9.59%,ADA
5-Jan-19,0.04403,0.04308,0.04501,0.04243,180.80M,2.20%,ADA
4-Jan-19,0.04308,0.042,0.04361,0.04165,110.05M,2.58%,ADA
3-Jan-19,0.042,0.04434,0.04459,0.04162,163.66M,-5.26%,ADA
2-Jan-19,0.04434,0.04198,0.04502,0.04136,173.27M,5.62%,ADA
1-Jan-19,0.04198,0.04053,0.04198,0.03971,117.45M,3.56%,ADA
31-Dec-18,0.04053,0.04261,0.04273,0.0398,156.99M,-4.87%,ADA
30-Dec-18,0.04261,0.04033,0.04305,0.0396,211.19M,5.65%,ADA
29-Dec-18,0.04033,0.04115,0.04332,0.04004,248.36M,-1.98%,ADA
28-Dec-18,0.04115,0.03611,0.0419,0.03564,190.11M,13.96%,ADA
27-Dec-18,0.03611,0.04057,0.04113,0.03546,180.34M,-11.00%,ADA
26-Dec-18,0.04057,0.04106,0.04259,0.03812,205.25M,-1.20%,ADA
25-Dec-18,0.04106,0.04503,0.04518,0.03827,301.79M,-8.82%,ADA
24-Dec-18,0.04503,0.04371,0.04895,0.0437,368.39M,3.02%,ADA
23-Dec-18,0.04371,0.04158,0.04441,0.0411,257.81M,5.11%,ADA
22-Dec-18,0.04158,0.04033,0.04165,0.03816,229.51M,3.11%,ADA
21-Dec-18,0.04033,0.03873,0.04484,0.0379,518.81M,4.13%,ADA
20-Dec-18,0.03873,0.03369,0.03945,0.03334,347.70M,14.90%,ADA
19-Dec-18,0.03371,0.03425,0.03801,0.03371,354.59M,-1.57%,ADA
18-Dec-18,0.03424,0.03244,0.03448,0.03134,242.76M,5.45%,ADA
17-Dec-18,0.03247,0.02897,0.03359,0.02895,223.08M,12.07%,ADA
16-Dec-18,0.02897,0.02806,0.02976,0.02805,99.29M,3.18%,ADA
15-Dec-18,0.02808,0.02832,0.02856,0.02767,70.97M,-0.82%,ADA
14-Dec-18,0.02831,0.02911,0.02948,0.02773,87.51M,-2.72%,ADA
13-Dec-18,0.02911,0.03029,0.03059,0.02875,102.03M,-3.90%,ADA
12-Dec-18,0.03029,0.02923,0.03086,0.02903,98.62M,2.75%,ADA
11-Dec-18,0.02948,0.02975,0.03011,0.02863,100.95M,-0.92%,ADA
10-Dec-18,0.02975,0.03112,0.03176,0.02924,131.37M,-4.40%,ADA
9-Dec-18,0.03112,0.03021,0.03237,0.02968,164.89M,3.01%,ADA
8-Dec-18,0.03021,0.02973,0.03199,0.02829,189.03M,1.64%,ADA
7-Dec-18,0.02973,0.0307,0.03098,0.02721,301.98M,-3.17%,ADA
6-Dec-18,0.0307,0.03428,0.03559,0.03056,229.65M,-10.45%,ADA
5-Dec-18,0.03428,0.0375,0.03763,0.03415,259.54M,-8.57%,ADA
4-Dec-18,0.0375,0.03849,0.04008,0.03703,176.99M,-2.57%,ADA
3-Dec-18,0.03849,0.04185,0.04208,0.03793,160.11M,-7.78%,ADA
2-Dec-18,0.04173,0.04136,0.04338,0.04069,154.38M,0.91%,ADA
1-Dec-18,0.04136,0.03905,0.04234,0.03805,136.82M,5.90%,ADA
30-Nov-18,0.03905,0.04197,0.0424,0.03768,205.09M,-6.94%,ADA
29-Nov-18,0.04197,0.04222,0.04484,0.03965,264.98M,-0.59%,ADA
28-Nov-18,0.04222,0.03692,0.04405,0.03691,377.93M,14.35%,ADA
27-Nov-18,0.03692,0.0365,0.03765,0.03421,164.60M,1.12%,ADA
26-Nov-18,0.03651,0.03832,0.04016,0.03455,295.67M,-4.72%,ADA
25-Nov-18,0.03832,0.03901,0.03959,0.0332,298.35M,-1.76%,ADA
24-Nov-18,0.03901,0.04399,0.04537,0.0371,194.28M,-11.33%,ADA
23-Nov-18,0.04399,0.04403,0.0451,0.04179,156.39M,-0.10%,ADA
22-Nov-18,0.04403,0.0484,0.04912,0.04393,112.99M,-9.01%,ADA
21-Nov-18,0.0484,0.04588,0.04919,0.04354,230.26M,5.49%,ADA
20-Nov-18,0.04588,0.05277,0.05332,0.04279,403.78M,-13.06%,ADA
19-Nov-18,0.05277,0.06234,0.0624,0.05153,236.31M,-15.35%,ADA
18-Nov-18,0.06234,0.06122,0.0635,0.06116,61.77M,1.82%,ADA
17-Nov-18,0.06122,0.06145,0.06151,0.05961,59.04M,-0.37%,ADA
16-Nov-18,0.06145,0.06436,0.06488,0.06032,99.79M,-4.52%,ADA
15-Nov-18,0.06436,0.06649,0.06672,0.05826,216.36M,-3.14%,ADA
14-Nov-18,0.06645,0.07467,0.07471,0.06261,189.26M,-11.00%,ADA
13-Nov-18,0.07467,0.07691,0.0771,0.07445,52.55M,-2.92%,ADA
12-Nov-18,0.07691,0.07702,0.0778,0.07552,54.08M,-0.14%,ADA
11-Nov-18,0.07702,0.07543,0.07792,0.07462,56.63M,2.14%,ADA
10-Nov-18,0.07541,0.07463,0.07645,0.07421,39.00M,1.04%,ADA
9-Nov-18,0.07463,0.07691,0.07817,0.07402,67.23M,-2.97%,ADA
8-Nov-18,0.07691,0.07898,0.07995,0.0765,105.98M,-2.62%,ADA
7-Nov-18,0.07898,0.08168,0.08246,0.07821,113.91M,-3.30%,ADA
6-Nov-18,0.08168,0.07673,0.08175,0.07673,119.34M,6.34%,ADA
5-Nov-18,0.07682,0.07729,0.07927,0.07501,74.16M,-0.61%,ADA
4-Nov-18,0.07729,0.07174,0.07846,0.07122,131.25M,7.73%,ADA
3-Nov-18,0.07174,0.0731,0.0733,0.07088,38.73M,-1.85%,ADA
2-Nov-18,0.0731,0.07137,0.07376,0.0709,43.45M,2.42%,ADA
1-Nov-18,0.07137,0.0706,0.07166,0.06969,32.99M,1.09%,ADA
31-Oct-18,0.0706,0.07008,0.07088,0.06791,49.18M,0.75%,ADA
30-Oct-18,0.07008,0.0702,0.07077,0.06972,32.35M,-0.18%,ADA
29-Oct-18,0.0702,0.07364,0.07378,0.06904,69.12M,-4.67%,ADA
28-Oct-18,0.07364,0.07351,0.07377,0.07292,28.16M,0.18%,ADA
27-Oct-18,0.07351,0.07469,0.07483,0.07333,29.57M,-1.58%,ADA
26-Oct-18,0.07469,0.07482,0.07538,0.07374,34.11M,-0.27%,ADA
25-Oct-18,0.07489,0.07539,0.07564,0.07415,36.55M,-0.67%,ADA
24-Oct-18,0.07539,0.07592,0.07697,0.07532,44.66M,-0.69%,ADA
23-Oct-18,0.07592,0.07729,0.07754,0.07365,62.25M,-1.77%,ADA
22-Oct-18,0.07729,0.07726,0.07783,0.07618,70.69M,0.04%,ADA
21-Oct-18,0.07726,0.07764,0.07903,0.07693,102.74M,-0.49%,ADA
20-Oct-18,0.07764,0.07687,0.07875,0.07613,101.34M,1.00%,ADA
19-Oct-18,0.07687,0.0767,0.07786,0.07578,83.73M,0.22%,ADA
18-Oct-18,0.0767,0.07994,0.08062,0.0757,135.77M,-4.13%,ADA
17-Oct-18,0.08001,0.07779,0.08121,0.07708,141.93M,2.85%,ADA
16-Oct-18,0.07779,0.07671,0.07878,0.07574,124.70M,1.40%,ADA
15-Oct-18,0.07671,0.07173,0.08477,0.07012,348.04M,6.95%,ADA
14-Oct-18,0.07173,0.07374,0.07454,0.07109,139.15M,-2.73%,ADA
13-Oct-18,0.07374,0.07323,0.07544,0.0726,118.01M,0.69%,ADA
12-Oct-18,0.07323,0.07072,0.07657,0.0696,180.02M,3.55%,ADA
11-Oct-18,0.07072,0.08548,0.08548,0.06925,302.27M,-17.27%,ADA
10-Oct-18,0.08548,0.08662,0.08689,0.08368,142.96M,-1.31%,ADA
9-Oct-18,0.08662,0.087,0.08793,0.08481,148.51M,-0.42%,ADA
8-Oct-18,0.08698,0.08464,0.08876,0.08352,200.56M,2.68%,ADA
7-Oct-18,0.08471,0.08158,0.08545,0.08054,138.55M,3.84%,ADA
6-Oct-18,0.08158,0.08342,0.08408,0.08083,120.08M,-2.21%,ADA
5-Oct-18,0.08342,0.08153,0.08403,0.0805,122.61M,2.31%,ADA
4-Oct-18,0.08153,0.0809,0.08307,0.08044,130.09M,0.79%,ADA
3-Oct-18,0.0809,0.08223,0.08248,0.07832,158.97M,-1.63%,ADA
2-Oct-18,0.08224,0.08461,0.08504,0.0817,145.84M,-2.80%,ADA
1-Oct-18,0.0846,0.08508,0.086,0.0821,163.79M,-0.56%,ADA
30-Sep-18,0.08508,0.08434,0.08721,0.08302,207.84M,0.88%,ADA
29-Sep-18,0.08434,0.08394,0.08678,0.0813,225.83M,0.49%,ADA
28-Sep-18,0.08393,0.08638,0.08842,0.0815,352.50M,-2.84%,ADA
27-Sep-18,0.08638,0.07916,0.08883,0.07784,384.41M,9.12%,ADA
26-Sep-18,0.07916,0.08109,0.083,0.07653,283.30M,-2.38%,ADA
25-Sep-18,0.08109,0.08247,0.08247,0.07445,370.53M,-1.67%,ADA
24-Sep-18,0.08247,0.08968,0.09187,0.08179,359.83M,-8.04%,ADA
23-Sep-18,0.08969,0.08341,0.09379,0.08287,479.17M,7.52%,ADA
22-Sep-18,0.08341,0.08753,0.0889,0.0796,264.58M,-4.94%,ADA
21-Sep-18,0.08775,0.08084,0.09019,0.08067,633.72M,8.29%,ADA
20-Sep-18,0.08103,0.07212,0.08358,0.0711,389.84M,12.30%,ADA
19-Sep-18,0.07215,0.06901,0.07442,0.06656,414.02M,4.27%,ADA
18-Sep-18,0.0692,0.06331,0.07006,0.06197,271.68M,9.33%,ADA
17-Sep-18,0.06329,0.06989,0.07022,0.06274,237.62M,-9.45%,ADA
16-Sep-18,0.06989,0.06891,0.0699,0.06593,154.85M,1.43%,ADA
15-Sep-18,0.06891,0.06759,0.07081,0.06733,171.31M,1.94%,ADA
14-Sep-18,0.06759,0.06955,0.07064,0.06544,264.46M,-2.81%,ADA
13-Sep-18,0.06955,0.0662,0.07097,0.06508,356.21M,5.07%,ADA
12-Sep-18,0.0662,0.0701,0.07027,0.06101,365.82M,-5.57%,ADA
11-Sep-18,0.0701,0.07347,0.07461,0.0658,213.59M,-4.56%,ADA
10-Sep-18,0.07344,0.07593,0.07804,0.07146,195.54M,-3.27%,ADA
9-Sep-18,0.07593,0.07738,0.08096,0.07386,185.78M,-2.06%,ADA
8-Sep-18,0.07753,0.08291,0.08438,0.07663,152.18M,-6.16%,ADA
7-Sep-18,0.08261,0.08837,0.08945,0.0817,149.74M,-6.47%,ADA
6-Sep-18,0.08833,0.08646,0.08871,0.08103,207.38M,2.17%,ADA
5-Sep-18,0.08646,0.10527,0.10617,0.08597,287.03M,-17.87%,ADA
4-Sep-18,0.10527,0.10352,0.10701,0.10336,155.06M,1.62%,ADA
3-Sep-18,0.10359,0.10476,0.10549,0.10233,123.76M,-1.11%,ADA
2-Sep-18,0.10476,0.10699,0.10744,0.10223,184.62M,-2.09%,ADA
1-Sep-18,0.10699,0.10178,0.11005,0.10155,228.87M,5.12%,ADA
31-Aug-18,0.10178,0.10068,0.10329,0.09854,166.22M,1.09%,ADA
30-Aug-18,0.10068,0.10545,0.10753,0.09674,215.23M,-4.52%,ADA
29-Aug-18,0.10545,0.10552,0.1091,0.10148,249.12M,-0.07%,ADA
28-Aug-18,0.10552,0.10049,0.10732,0.09978,252.60M,5.10%,ADA
27-Aug-18,0.1004,0.09308,0.10142,0.09208,184.93M,7.81%,ADA
26-Aug-18,0.09313,0.09414,0.09459,0.0906,114.84M,-0.97%,ADA
25-Aug-18,0.09404,0.09382,0.09475,0.09177,131.76M,0.24%,ADA
24-Aug-18,0.09382,0.09231,0.09447,0.09056,133.65M,1.66%,ADA
23-Aug-18,0.09229,0.08952,0.09366,0.08845,144.52M,3.09%,ADA
22-Aug-18,0.08952,0.09473,0.10084,0.087,216.22M,-5.50%,ADA
21-Aug-18,0.09473,0.09202,0.09533,0.09078,143.77M,2.94%,ADA
20-Aug-18,0.09202,0.10144,0.10297,0.09184,148.71M,-9.29%,ADA
19-Aug-18,0.10144,0.09833,0.10352,0.09658,132.47M,3.16%,ADA
18-Aug-18,0.09833,0.10993,0.11234,0.09544,237.96M,-10.55%,ADA
17-Aug-18,0.10993,0.09454,0.10993,0.09399,254.73M,16.28%,ADA
16-Aug-18,0.09454,0.09357,0.09819,0.09173,137.32M,1.02%,ADA
15-Aug-18,0.09359,0.09382,0.10098,0.0934,211.56M,-0.24%,ADA
14-Aug-18,0.09382,0.10111,0.10117,0.08434,208.86M,-7.21%,ADA
13-Aug-18,0.10111,0.11188,0.114,0.10107,130.02M,-9.62%,ADA
12-Aug-18,0.11188,0.11028,0.11417,0.10903,91.00M,1.45%,ADA
11-Aug-18,0.11028,0.11463,0.11602,0.10745,149.60M,-3.80%,ADA
10-Aug-18,0.11463,0.12194,0.12364,0.11162,176.64M,-6.00%,ADA
9-Aug-18,0.12194,0.11277,0.12618,0.11277,196.66M,8.13%,ADA
8-Aug-18,0.11277,0.12381,0.12384,0.10924,191.10M,-8.91%,ADA
7-Aug-18,0.12381,0.12954,0.13225,0.12278,132.06M,-4.43%,ADA
6-Aug-18,0.12954,0.13062,0.13582,0.12685,114.58M,-0.82%,ADA
5-Aug-18,0.13062,0.12642,0.13125,0.1245,106.72M,3.32%,ADA
4-Aug-18,0.12642,0.12958,0.13365,0.12367,115.20M,-2.44%,ADA
3-Aug-18,0.12958,0.13077,0.13443,0.12333,161.89M,-0.98%,ADA
2-Aug-18,0.13087,0.1399,0.14143,0.1286,148.35M,-6.46%,ADA
1-Aug-18,0.1399,0.14149,0.14418,0.13539,144.14M,-1.21%,ADA
31-Jul-18,0.14161,0.1534,0.15359,0.13915,161.22M,-7.68%,ADA
30-Jul-18,0.1534,0.16249,0.16293,0.14779,135.76M,-5.60%,ADA
29-Jul-18,0.16249,0.16435,0.16527,0.1596,96.65M,-1.08%,ADA
28-Jul-18,0.16427,0.16607,0.16658,0.15929,100.08M,-1.09%,ADA
27-Jul-18,0.16607,0.16444,0.16917,0.15599,184.98M,0.99%,ADA
26-Jul-18,0.16445,0.17274,0.17541,0.16177,165.75M,-4.80%,ADA
25-Jul-18,0.17274,0.17381,0.17743,0.16673,199.18M,-0.62%,ADA
24-Jul-18,0.17381,0.16451,0.17833,0.16045,276.60M,5.65%,ADA
23-Jul-18,0.16451,0.16943,0.18031,0.16451,218.13M,-2.86%,ADA
22-Jul-18,0.16936,0.16358,0.17867,0.16203,213.09M,3.53%,ADA
21-Jul-18,0.16358,0.16154,0.16948,0.15422,204.02M,1.26%,ADA
20-Jul-18,0.16154,0.18178,0.18316,0.15993,295.44M,-11.13%,ADA
19-Jul-18,0.18178,0.18037,0.192,0.17229,318.23M,0.78%,ADA
18-Jul-18,0.18037,0.17145,0.19581,0.17121,492.34M,5.20%,ADA
17-Jul-18,0.17145,0.1567,0.17619,0.15013,262.50M,9.46%,ADA
16-Jul-18,0.15664,0.14232,0.15826,0.14075,187.62M,10.05%,ADA
15-Jul-18,0.14233,0.13653,0.1459,0.13471,123.83M,4.24%,ADA
14-Jul-18,0.13653,0.13747,0.14056,0.13316,137.98M,-0.68%,ADA
13-Jul-18,0.13747,0.12736,0.14336,0.12479,180.44M,7.95%,ADA
12-Jul-18,0.12735,0.13137,0.1314,0.12221,94.96M,-3.06%,ADA
11-Jul-18,0.13137,0.12801,0.13355,0.12499,115.26M,2.63%,ADA
10-Jul-18,0.12801,0.13926,0.13985,0.12734,138.89M,-8.08%,ADA
9-Jul-18,0.13926,0.14498,0.14584,0.13892,85.24M,-3.95%,ADA
8-Jul-18,0.14498,0.14781,0.14944,0.14417,104.18M,-1.91%,ADA
7-Jul-18,0.14781,0.14511,0.14845,0.13722,101.47M,1.86%,ADA
6-Jul-18,0.14511,0.14754,0.14771,0.13829,114.94M,-1.65%,ADA
5-Jul-18,0.14754,0.15139,0.15562,0.14363,147.16M,-2.54%,ADA
4-Jul-18,0.15139,0.1498,0.16008,0.14619,124.63M,1.06%,ADA
3-Jul-18,0.1498,0.15441,0.16069,0.14835,214.39M,-2.98%,ADA
2-Jul-18,0.15441,0.14207,0.15991,0.13775,225.30M,8.69%,ADA
1-Jul-18,0.14207,0.13813,0.14572,0.13319,171.94M,2.99%,ADA
30-Jun-18,0.13795,0.12537,0.13815,0.12537,196.01M,10.05%,ADA
29-Jun-18,0.12535,0.1184,0.12701,0.11392,146.98M,5.87%,ADA
28-Jun-18,0.1184,0.12763,0.12851,0.11757,109.01M,-7.23%,ADA
27-Jun-18,0.12762,0.12554,0.12821,0.12301,103.44M,1.65%,ADA
26-Jun-18,0.12555,0.13533,0.13576,0.12516,73.76M,-7.22%,ADA
25-Jun-18,0.13533,0.13099,0.13886,0.12709,130.05M,3.31%,ADA
24-Jun-18,0.13099,0.13744,0.13822,0.11997,172.18M,-4.67%,ADA
23-Jun-18,0.13741,0.13838,0.14211,0.13371,100.45M,-0.69%,ADA
22-Jun-18,0.13838,0.15822,0.15871,0.13477,161.45M,-12.56%,ADA
21-Jun-18,0.15825,0.16181,0.16364,0.15697,90.63M,-2.31%,ADA
20-Jun-18,0.16198,0.167,0.16717,0.15749,119.58M,-3.01%,ADA
19-Jun-18,0.167,0.16392,0.17118,0.16146,108.47M,1.89%,ADA
18-Jun-18,0.16391,0.16027,0.16817,0.15566,120.63M,2.27%,ADA
17-Jun-18,0.16027,0.16257,0.16409,0.16002,88.70M,-1.28%,ADA
16-Jun-18,0.16235,0.16121,0.16445,0.15841,88.36M,0.70%,ADA
15-Jun-18,0.16122,0.17072,0.17101,0.16026,128.41M,-5.57%,ADA
14-Jun-18,0.17072,0.15804,0.17542,0.15335,239.78M,8.00%,ADA
13-Jun-18,0.15808,0.16347,0.16589,0.14593,151.72M,-3.30%,ADA
12-Jun-18,0.16347,0.17962,0.18119,0.15871,116.57M,-8.95%,ADA
11-Jun-18,0.17953,0.17402,0.18087,0.16488,114.06M,3.17%,ADA
10-Jun-18,0.17402,0.20102,0.20102,0.16898,180.52M,-13.40%,ADA
9-Jun-18,0.20094,0.20482,0.21041,0.20069,84.39M,-1.96%,ADA
8-Jun-18,0.20497,0.21053,0.21101,0.20102,102.35M,-2.85%,ADA
7-Jun-18,0.21098,0.21494,0.21913,0.20876,104.69M,-1.84%,ADA
6-Jun-18,0.21493,0.21896,0.21996,0.20887,113.95M,-1.86%,ADA
5-Jun-18,0.21899,0.2128,0.22148,0.20283,152.50M,2.91%,ADA
4-Jun-18,0.2128,0.22704,0.2312,0.20973,140.21M,-6.28%,ADA
3-Jun-18,0.22705,0.22754,0.23754,0.22347,138.62M,-0.21%,ADA
2-Jun-18,0.22754,0.22093,0.22932,0.21738,129.86M,2.90%,ADA
1-Jun-18,0.22112,0.224,0.22824,0.21476,139.37M,-1.28%,ADA
31-May-18,0.224,0.20875,0.22886,0.20413,201.74M,7.30%,ADA
30-May-18,0.20875,0.2019,0.2166,0.19811,201.90M,3.38%,ADA
29-May-18,0.20192,0.17323,0.20854,0.17166,187.91M,16.56%,ADA
28-May-18,0.17323,0.19303,0.19483,0.17235,122.56M,-10.31%,ADA
27-May-18,0.19315,0.19582,0.19601,0.19111,86.32M,-1.36%,ADA
26-May-18,0.19581,0.19894,0.20467,0.19478,92.17M,-1.57%,ADA
25-May-18,0.19894,0.20806,0.2093,0.19497,92.64M,-4.29%,ADA
24-May-18,0.20785,0.19894,0.21115,0.19018,112.11M,4.47%,ADA
23-May-18,0.19895,0.22162,0.22421,0.19338,149.15M,-10.24%,ADA
22-May-18,0.22164,0.24741,0.24862,0.2203,66.40M,-10.41%,ADA
21-May-18,0.24741,0.25647,0.26072,0.2458,55.33M,-3.54%,ADA
20-May-18,0.25647,0.24338,0.26143,0.24025,61.87M,5.39%,ADA
19-May-18,0.24336,0.24427,0.24863,0.23732,42.06M,-0.37%,ADA
18-May-18,0.24427,0.24103,0.24567,0.23227,57.25M,1.35%,ADA
17-May-18,0.24103,0.25302,0.26099,0.23889,61.00M,-4.75%,ADA
16-May-18,0.25304,0.25573,0.25743,0.23983,71.62M,-1.11%,ADA
15-May-18,0.25588,0.26669,0.27541,0.25364,61.06M,-4.05%,ADA
14-May-18,0.26669,0.2774,0.27827,0.25306,123.40M,-3.86%,ADA
13-May-18,0.2774,0.26595,0.28347,0.2575,104.59M,4.38%,ADA
12-May-18,0.26576,0.25643,0.27869,0.23423,193.24M,3.64%,ADA
11-May-18,0.25643,0.29593,0.29686,0.24875,214.87M,-13.35%,ADA
10-May-18,0.29593,0.32187,0.32502,0.29498,66.05M,-7.75%,ADA
9-May-18,0.32079,0.32556,0.3271,0.30216,90.54M,-1.31%,ADA
8-May-18,0.32505,0.34014,0.341,0.31992,66.12M,-4.37%,ADA
7-May-18,0.33991,0.35001,0.35071,0.31954,88.71M,-2.95%,ADA
6-May-18,0.35023,0.36861,0.37055,0.33847,100.03M,-4.97%,ADA
5-May-18,0.36857,0.3615,0.37882,0.36103,70.72M,1.96%,ADA
4-May-18,0.3615,0.37074,0.37127,0.34999,87.41M,-2.36%,ADA
3-May-18,0.37023,0.37599,0.39347,0.36901,123.33M,-1.54%,ADA
2-May-18,0.37602,0.35775,0.38028,0.34775,104.21M,5.11%,ADA
1-May-18,0.35773,0.34316,0.36151,0.32111,168.66M,4.24%,ADA
30-Apr-18,0.34319,0.36687,0.3677,0.33413,147.25M,-6.29%,ADA
29-Apr-18,0.36624,0.35963,0.39029,0.34465,248.83M,1.95%,ADA
28-Apr-18,0.35924,0.28587,0.36737,0.28378,254.48M,25.66%,ADA
27-Apr-18,0.28587,0.2952,0.3066,0.28493,106.05M,-3.15%,ADA
26-Apr-18,0.29518,0.26988,0.29532,0.25826,101.91M,9.38%,ADA
25-Apr-18,0.26988,0.31438,0.31751,0.25997,189.98M,-14.63%,ADA
24-Apr-18,0.31612,0.2944,0.32481,0.29079,49.39M,8.05%,ADA
23-Apr-18,0.29256,0.28565,0.2945,0.28553,17.35M,2.42%,ADA
22-Apr-18,0.28565,0.28585,0.30039,0.2791,30.91M,-0.07%,ADA
21-Apr-18,0.28585,0.30521,0.30936,0.26828,51.22M,-6.34%,ADA
20-Apr-18,0.30522,0.27141,0.3087,0.24983,57.07M,12.52%,ADA
19-Apr-18,0.27125,0.26316,0.2749,0.26123,38.45M,3.08%,ADA
18-Apr-18,0.26316,0.24365,0.26392,0.24365,24.19M,7.93%,ADA
17-Apr-18,0.24383,0.26236,0.27411,0.24376,100.36M,-7.06%,ADA
16-Apr-18,0.26236,0.22775,0.26353,0.21265,103.48M,15.20%,ADA
15-Apr-18,0.22775,0.2074,0.23051,0.20731,40.13M,9.81%,ADA
14-Apr-18,0.2074,0.20313,0.21498,0.19658,35.88M,2.10%,ADA
13-Apr-18,0.20314,0.21941,0.22603,0.19568,84.00M,-7.42%,ADA
12-Apr-18,0.21941,0.16849,0.222,0.16764,113.40M,30.22%,ADA
11-Apr-18,0.16849,0.1566,0.16899,0.15496,41.58M,7.60%,ADA
10-Apr-18,0.1566,0.15066,0.15867,0.14762,14.69M,3.94%,ADA
9-Apr-18,0.15066,0.15694,0.16598,0.14556,56.75M,-4.00%,ADA
8-Apr-18,0.15694,0.14666,0.15944,0.14666,15.81M,7.01%,ADA
7-Apr-18,0.14666,0.14258,0.15159,0.14255,37.45M,2.86%,ADA
6-Apr-18,0.14258,0.14843,0.15081,0.14127,23.13M,-3.94%,ADA
5-Apr-18,0.14843,0.152,0.15426,0.14111,30.18M,-2.35%,ADA
4-Apr-18,0.152,0.17054,0.1765,0.14889,65.14M,-10.67%,ADA
3-Apr-18,0.17016,0.15305,0.17139,0.15256,44.26M,11.18%,ADA
2-Apr-18,0.15305,0.14826,0.15605,0.14642,15.48M,3.23%,ADA
1-Apr-18,0.14826,0.15065,0.15682,0.13863,22.53M,-1.59%,ADA
31-Mar-18,0.15065,0.14492,0.15817,0.14088,21.76M,3.95%,ADA
30-Mar-18,0.14492,0.14359,0.15073,0.13336,33.08M,0.93%,ADA
29-Mar-18,0.14359,0.15989,0.16314,0.14138,40.68M,-10.20%,ADA
28-Mar-18,0.15989,0.15315,0.16432,0.15309,18.37M,4.37%,ADA
27-Mar-18,0.15319,0.16569,0.1678,0.14871,27.84M,-7.54%,ADA
26-Mar-18,0.16569,0.18345,0.18569,0.15714,36.92M,-9.68%,ADA
25-Mar-18,0.18345,0.18688,0.18893,0.18067,14.65M,-1.83%,ADA
24-Mar-18,0.18688,0.18856,0.2019,0.18211,44.43M,-0.89%,ADA
23-Mar-18,0.18856,0.19945,0.19954,0.18001,31.12M,-5.24%,ADA
22-Mar-18,0.19899,0.20783,0.21853,0.18579,56.69M,-4.14%,ADA
21-Mar-18,0.20759,0.19937,0.2252,0.19762,45.64M,4.12%,ADA
20-Mar-18,0.19937,0.19066,0.21114,0.17519,47.96M,4.70%,ADA
19-Mar-18,0.19042,0.15378,0.19042,0.15353,84.41M,23.27%,ADA
18-Mar-18,0.15448,0.15495,0.16301,0.12373,82.44M,-0.30%,ADA
17-Mar-18,0.15495,0.17455,0.17788,0.1507,18.98M,-11.23%,ADA
16-Mar-18,0.17455,0.18414,0.18423,0.17151,25.26M,-5.21%,ADA
15-Mar-18,0.18414,0.19364,0.19741,0.16804,31.26M,-4.91%,ADA
14-Mar-18,0.19364,0.21776,0.22972,0.18817,20.51M,-11.01%,ADA
13-Mar-18,0.21759,0.21814,0.22515,0.21043,9.08M,-0.25%,ADA
12-Mar-18,0.21814,0.2192,0.23248,0.20926,22.05M,-0.48%,ADA
11-Mar-18,0.2192,0.20075,0.22309,0.19027,16.63M,9.19%,ADA
10-Mar-18,0.20075,0.21616,0.22219,0.19659,20.05M,-7.13%,ADA
9-Mar-18,0.21616,0.21432,0.22173,0.18418,25.23M,0.86%,ADA
8-Mar-18,0.21432,0.24084,0.24921,0.2132,19.03M,-11.01%,ADA
7-Mar-18,0.24084,0.27899,0.28503,0.22794,20.14M,-13.67%,ADA
6-Mar-18,0.27899,0.29665,0.30104,0.27811,14.70M,-5.95%,ADA
5-Mar-18,0.29665,0.30197,0.31957,0.29342,12.32M,-1.76%,ADA
4-Mar-18,0.30197,0.29351,0.30437,0.28483,9.43M,2.88%,ADA
3-Mar-18,0.29351,0.2925,0.30743,0.28952,9.00M,0.35%,ADA
2-Mar-18,0.2925,0.30235,0.30788,0.28709,12.39M,-3.26%,ADA
1-Mar-18,0.30235,0.30561,0.31219,0.28692,18.55M,-1.40%,ADA
28-Feb-18,0.30663,0.33018,0.33509,0.30557,9.78M,-7.13%,ADA
27-Feb-18,0.33018,0.32435,0.3358,0.3193,8.13M,1.80%,ADA
26-Feb-18,0.32435,0.32351,0.33179,0.30457,12.40M,0.26%,ADA
25-Feb-18,0.32351,0.29907,0.33652,0.29693,12.94M,8.17%,ADA
24-Feb-18,0.29907,0.32601,0.33279,0.29245,11.08M,-8.26%,ADA
23-Feb-18,0.32601,0.31368,0.33607,0.30539,12.20M,3.93%,ADA
22-Feb-18,0.31368,0.33438,0.35334,0.30725,13.54M,-6.19%,ADA
21-Feb-18,0.33438,0.34827,0.35588,0.32648,16.72M,-4.24%,ADA
20-Feb-18,0.34917,0.37908,0.3895,0.34722,17.32M,-7.89%,ADA
19-Feb-18,0.37908,0.36794,0.39086,0.36757,12.32M,2.90%,ADA
18-Feb-18,0.36839,0.41715,0.41715,0.36617,14.85M,-11.69%,ADA
17-Feb-18,0.41715,0.39599,0.4206,0.39125,12.43M,5.34%,ADA
16-Feb-18,0.39599,0.39187,0.39888,0.37408,8.14M,1.05%,ADA
15-Feb-18,0.39187,0.3948,0.40574,0.3727,11.27M,-0.92%,ADA
14-Feb-18,0.39551,0.3649,0.39752,0.3593,14.75M,8.39%,ADA
13-Feb-18,0.3649,0.37893,0.38115,0.35145,6.71M,-3.64%,ADA
12-Feb-18,0.37868,0.35607,0.39001,0.35604,9.08M,6.35%,ADA
11-Feb-18,0.35607,0.38363,0.38382,0.34734,16.19M,-6.54%,ADA
10-Feb-18,0.381,0.37899,0.4384,0.358,47.74M,1.20%,ADA
9-Feb-18,0.3765,0.345,0.38495,0.32001,16.90M,9.13%,ADA
8-Feb-18,0.345,0.331,0.36097,0.32346,20.62M,4.23%,ADA
7-Feb-18,0.331,0.359,0.38,0.32,30.36M,-7.80%,ADA
6-Feb-18,0.359,0.317,0.3692,0.262,53.75M,13.25%,ADA
5-Feb-18,0.317,0.382,0.39621,0.29154,37.06M,-17.02%,ADA
4-Feb-18,0.382,0.458,0.485,0.364,50.16M,-17.67%,ADA
3-Feb-18,0.464,0.40468,0.51854,0.34529,21.04M,16.00%,ADA
2-Feb-18,0.4,0.42171,0.42171,0.2958,41.52M,-5.15%,ADA
1-Feb-18,0.42171,0.50898,0.5217,0.389,13.42M,-16.85%,ADA
31-Jan-18,0.50719,0.51357,0.517,0.463,8.36M,-0.55%,ADA
30-Jan-18,0.51,0.591,0.603,0.5,11.15M,-15.28%,ADA
29-Jan-18,0.602,0.64227,0.64648,0.588,5.84M,-6.27%,ADA
28-Jan-18,0.64227,0.62132,0.66727,0.6131,6.47M,3.37%,ADA
27-Jan-18,0.62132,0.62679,0.642,0.595,5.54M,-0.87%,ADA
26-Jan-18,0.62679,0.642,0.655,0.5611,18.15M,-2.37%,ADA
25-Jan-18,0.642,0.628,0.684,0.62,7.76M,2.07%,ADA
24-Jan-18,0.629,0.56195,0.649,0.537,8.79M,12.36%,ADA
23-Jan-18,0.5598,0.56785,0.58967,0.51665,8.77M,-1.35%,ADA
22-Jan-18,0.56748,0.61646,0.64,0.515,10.80M,-7.94%,ADA
21-Jan-18,0.61646,0.70486,0.70486,0.58,10.41M,-12.54%,ADA
20-Jan-18,0.70486,0.64793,0.72,0.64,7.22M,9.14%,ADA
19-Jan-18,0.6458,0.65,0.69145,0.59,14.52M,-0.65%,ADA
18-Jan-18,0.65,0.626,0.6986,0.582,17.86M,4.13%,ADA
17-Jan-18,0.6242,0.6,0.6837,0.4353,36.73M,3.82%,ADA
16-Jan-18,0.60124,0.7724,0.78624,0.45,31.97M,-22.02%,ADA
15-Jan-18,0.771,0.79999,0.86663,0.76727,6.27M,-3.62%,ADA
14-Jan-18,0.79999,0.879,0.879,0.729,9.25M,-8.99%,ADA
13-Jan-18,0.879,0.89826,0.95785,0.8329,9.33M,-1.24%,ADA
12-Jan-18,0.89,0.679,0.92212,0.631,13.17M,31.27%,ADA
11-Jan-18,0.678,0.78288,0.78288,0.523,17.30M,-12.69%,ADA
10-Jan-18,0.7765,0.81,0.82904,0.65593,12.11M,-4.14%,ADA
9-Jan-18,0.81,0.9,0.929,0.7729,7.89M,-10.00%,ADA
8-Jan-18,0.9,1.013,1.013,0.752,10.97M,-10.54%,ADA
7-Jan-18,1.006,1.02,1.05343,0.98,4.81M,-2.88%,ADA
6-Jan-18,1.03579,1.0099,1.083,0.9229,9.12M,4.11%,ADA
5-Jan-18,0.9949,1.18,1.3,0.90701,18.53M,-9.91%,ADA
4-Jan-18,1.1043,1.1,1.35,1.05,19.60M,2.25%,ADA
3-Jan-18,1.08,0.97818,1.09,0.88821,20.23M,41.73%,ADA
2-Jan-18,0.762,0.7022,0.8,0.675,10.97M,8.52%,ADA
1-Jan-18,0.7022,0.71,0.715,0.632,17.95M,-1.10%,ADA
31-Dec-17,0.71,0.59,0.74,0.59,17.22M,20.34%,ADA
