﻿Date,Price,Open,High,Low,Vol.,Change %,Coin
25-Dec-19,0.0344,0.0348,0.035,0.0342,36.89M,-1.15%,CRO
24-Dec-19,0.0348,0.0349,0.0372,0.0343,48.69M,-0.28%,CRO
23-Dec-19,0.0349,0.0359,0.0376,0.0347,61.02M,-2.79%,CRO
22-Dec-19,0.0359,0.0343,0.0359,0.034,72.35M,4.66%,CRO
21-Dec-19,0.0343,0.0354,0.0354,0.0334,78.21M,-3.11%,CRO
20-Dec-19,0.0354,0.0333,0.0363,0.0322,121.53M,6.35%,CRO
19-Dec-19,0.0333,0.0329,0.0336,0.0321,24.90M,1.31%,CRO
18-Dec-19,0.0329,0.0309,0.0337,0.0297,3.81M,6.37%,CRO
17-Dec-19,0.0309,0.0307,0.0324,0.0304,36.42M,0.61%,CRO
16-Dec-19,0.0307,0.0305,0.032,0.0299,60.06M,0.66%,CRO
15-Dec-19,0.0305,0.0296,0.031,0.0294,103.73M,3.04%,CRO
14-Dec-19,0.0296,0.0295,0.0304,0.0294,91.13M,0.36%,CRO
13-Dec-19,0.0295,0.0291,0.0299,0.029,20.37M,1.23%,CRO
12-Dec-19,0.0291,0.0289,0.0295,0.0287,1.16M,0.81%,CRO
11-Dec-19,0.0289,0.029,0.0292,0.0287,36.62M,-0.33%,CRO
10-Dec-19,0.029,0.0294,0.0298,0.0288,27.35M,-1.37%,CRO
9-Dec-19,0.0294,0.0297,0.03,0.0292,38.56M,-1.01%,CRO
8-Dec-19,0.0297,0.0297,0.03,0.029,35.65M,0.00%,CRO
7-Dec-19,0.0297,0.0298,0.0299,0.0292,40.56M,-0.43%,CRO
6-Dec-19,0.0298,0.0295,0.0299,0.0289,43.89M,1.20%,CRO
5-Dec-19,0.0295,0.0264,0.0303,0.0262,39.27M,11.63%,CRO
4-Dec-19,0.0264,0.0259,0.0274,0.025,8.89M,1.96%,CRO
3-Dec-19,0.0259,0.026,0.0263,0.0256,42.10M,-0.39%,CRO
2-Dec-19,0.026,0.0263,0.0266,0.0255,19.28M,-1.15%,CRO
1-Dec-19,0.0263,0.0271,0.0271,0.0259,21.37M,-2.94%,CRO
30-Nov-19,0.0271,0.0281,0.0284,0.0267,21.28M,-3.53%,CRO
29-Nov-19,0.0281,0.0273,0.0288,0.027,20.63M,2.95%,CRO
28-Nov-19,0.0273,0.0281,0.029,0.0272,32.32M,-2.90%,CRO
27-Nov-19,0.0281,0.0272,0.0287,0.0261,41.75M,3.31%,CRO
26-Nov-19,0.0272,0.028,0.0285,0.0267,30.80M,-2.83%,CRO
25-Nov-19,0.028,0.0277,0.0291,0.0247,4.15M,0.89%,CRO
24-Nov-19,0.0277,0.0293,0.0299,0.0277,2.21M,-5.38%,CRO
23-Nov-19,0.0293,0.0298,0.0298,0.0287,1.49M,-1.46%,CRO
22-Nov-19,0.0298,0.0317,0.0326,0.0277,5.42M,-6.05%,CRO
21-Nov-19,0.0317,0.0338,0.0343,0.031,2.80M,-6.18%,CRO
20-Nov-19,0.0338,0.035,0.0362,0.0334,3.60M,-3.56%,CRO
19-Nov-19,0.035,0.0342,0.0355,0.034,3.40M,2.43%,CRO
18-Nov-19,0.0342,0.0355,0.0359,0.0335,5.81M,-3.75%,CRO
17-Nov-19,0.0355,0.0349,0.0357,0.034,4.41M,1.72%,CRO
16-Nov-19,0.0349,0.0344,0.0352,0.0341,13.35M,1.45%,CRO
15-Nov-19,0.0344,0.036,0.0388,0.034,73.27M,-4.36%,CRO
14-Nov-19,0.036,0.0353,0.0418,0.0346,48.55M,1.91%,CRO
13-Nov-19,0.0353,0.0346,0.0353,0.0341,23.37M,2.00%,CRO
12-Nov-19,0.0346,0.0346,0.0349,0.0339,24.28M,0.00%,CRO
11-Nov-19,0.0346,0.0354,0.0358,0.034,21.10M,-2.24%,CRO
10-Nov-19,0.0354,0.0351,0.0359,0.0347,30.77M,0.84%,CRO
9-Nov-19,0.0351,0.0358,0.0366,0.0347,47.00M,-1.83%,CRO
8-Nov-19,0.0358,0.0381,0.0383,0.0345,73.98M,-6.24%,CRO
7-Nov-19,0.0381,0.036,0.0415,0.0356,62.14M,5.89%,CRO
6-Nov-19,0.036,0.0364,0.0371,0.0358,124.77M,-1.20%,CRO
5-Nov-19,0.0364,0.0371,0.0371,0.0361,62.94M,-1.76%,CRO
4-Nov-19,0.0371,0.0367,0.038,0.0363,54.21M,1.09%,CRO
3-Nov-19,0.0367,0.0377,0.0379,0.036,70.07M,-2.75%,CRO
2-Nov-19,0.0377,0.0385,0.0405,0.0374,51.15M,-1.95%,CRO
1-Nov-19,0.0385,0.0368,0.0386,0.0353,114.13M,4.62%,CRO
31-Oct-19,0.0368,0.0358,0.0372,0.0352,89.44M,2.79%,CRO
30-Oct-19,0.0358,0.0366,0.0366,0.035,128.18M,-2.18%,CRO
29-Oct-19,0.0366,0.0356,0.0368,0.0356,57.30M,2.78%,CRO
28-Oct-19,0.0356,0.0352,0.0374,0.0352,118.42M,1.01%,CRO
27-Oct-19,0.0352,0.0364,0.037,0.0351,67.37M,-3.15%,CRO
26-Oct-19,0.0364,0.0347,0.0403,0.0345,132.63M,4.93%,CRO
25-Oct-19,0.0347,0.0306,0.0352,0.0302,80.29M,13.33%,CRO
24-Oct-19,0.0306,0.0304,0.0311,0.0303,57.18M,0.57%,CRO
23-Oct-19,0.0304,0.0338,0.0338,0.0303,99.40M,-9.98%,CRO
22-Oct-19,0.0338,0.0336,0.0343,0.0328,84.96M,0.61%,CRO
21-Oct-19,0.0336,0.0334,0.0341,0.0324,110.43M,0.60%,CRO
20-Oct-19,0.0334,0.0327,0.0341,0.0326,93.73M,2.09%,CRO
19-Oct-19,0.0327,0.033,0.0332,0.0323,71.16M,-0.88%,CRO
18-Oct-19,0.033,0.0333,0.0336,0.0325,62.96M,-0.88%,CRO
17-Oct-19,0.0333,0.0332,0.0336,0.0327,72.39M,0.30%,CRO
16-Oct-19,0.0332,0.0339,0.0342,0.0322,94.96M,-2.09%,CRO
15-Oct-19,0.0339,0.0341,0.0348,0.0337,100.15M,-0.63%,CRO
14-Oct-19,0.0341,0.0345,0.0349,0.0336,81.90M,-1.12%,CRO
13-Oct-19,0.0345,0.0345,0.0351,0.0336,70.62M,0.00%,CRO
12-Oct-19,0.0345,0.0341,0.0348,0.034,96.72M,1.11%,CRO
11-Oct-19,0.0341,0.0364,0.0364,0.0341,111.98M,-6.31%,CRO
10-Oct-19,0.0364,0.0359,0.0367,0.035,101.11M,1.39%,CRO
9-Oct-19,0.0359,0.0349,0.0364,0.0344,40.24M,2.79%,CRO
8-Oct-19,0.0349,0.0353,0.0358,0.034,24.97M,-1.02%,CRO
7-Oct-19,0.0353,0.034,0.0359,0.0334,21.02M,3.81%,CRO
6-Oct-19,0.034,0.035,0.0356,0.0334,26.62M,-2.88%,CRO
5-Oct-19,0.035,0.0361,0.0362,0.0348,26.33M,-3.02%,CRO
4-Oct-19,0.0361,0.0356,0.0364,0.0351,28.63M,1.38%,CRO
3-Oct-19,0.0356,0.0355,0.0359,0.0348,37.55M,0.28%,CRO
2-Oct-19,0.0355,0.0347,0.036,0.0329,44.79M,2.18%,CRO
1-Oct-19,0.0347,0.0358,0.0374,0.0339,43.91M,-2.95%,CRO
30-Sep-19,0.0358,0.0351,0.0359,0.0339,51.31M,2.06%,CRO
29-Sep-19,0.0351,0.035,0.0359,0.0346,39.30M,0.26%,CRO
28-Sep-19,0.035,0.0352,0.0354,0.0341,33.34M,-0.49%,CRO
27-Sep-19,0.0352,0.034,0.0352,0.0334,30.70M,3.41%,CRO
26-Sep-19,0.034,0.0347,0.0361,0.0338,46.31M,-2.02%,CRO
25-Sep-19,0.0347,0.0344,0.0358,0.0329,8.75M,0.85%,CRO
24-Sep-19,0.0344,0.0378,0.0379,0.0318,26.51M,-8.89%,CRO
23-Sep-19,0.0378,0.039,0.039,0.0375,35.19M,-3.19%,CRO
22-Sep-19,0.039,0.0385,0.0393,0.038,8.39M,1.32%,CRO
21-Sep-19,0.0385,0.0398,0.0398,0.0384,52.31M,-3.26%,CRO
20-Sep-19,0.0398,0.0404,0.0405,0.0393,61.62M,-1.42%,CRO
19-Sep-19,0.0404,0.0391,0.0409,0.0381,69.73M,3.30%,CRO
18-Sep-19,0.0391,0.038,0.04,0.0371,61.75M,2.90%,CRO
17-Sep-19,0.038,0.0388,0.0393,0.0371,68.23M,-2.11%,CRO
16-Sep-19,0.0388,0.0385,0.0398,0.0378,62.71M,0.77%,CRO
15-Sep-19,0.0385,0.0395,0.0403,0.0384,64.39M,-2.50%,CRO
14-Sep-19,0.0395,0.0391,0.0401,0.0386,50.20M,1.00%,CRO
13-Sep-19,0.0391,0.0403,0.0406,0.0385,54.84M,-2.92%,CRO
12-Sep-19,0.0403,0.0372,0.0408,0.0372,71.54M,8.25%,CRO
11-Sep-19,0.0372,0.038,0.0385,0.0372,31.96M,-2.09%,CRO
10-Sep-19,0.038,0.0393,0.0395,0.0378,48.03M,-3.31%,CRO
9-Sep-19,0.0393,0.0392,0.0396,0.0383,48.73M,0.28%,CRO
8-Sep-19,0.0392,0.041,0.0415,0.0388,57.85M,-4.39%,CRO
7-Sep-19,0.041,0.0423,0.0425,0.0402,37.89M,-3.10%,CRO
6-Sep-19,0.0423,0.041,0.0444,0.0404,120.85M,3.17%,CRO
5-Sep-19,0.041,0.0381,0.0424,0.037,91.73M,7.50%,CRO
4-Sep-19,0.0381,0.0354,0.0386,0.0352,43.36M,7.74%,CRO
3-Sep-19,0.0354,0.041,0.0412,0.0348,53.91M,-13.66%,CRO
2-Sep-19,0.041,0.039,0.0414,0.0381,23.40M,5.25%,CRO
1-Sep-19,0.039,0.0392,0.0395,0.0384,64.78M,-0.59%,CRO
31-Aug-19,0.0392,0.0391,0.0395,0.0386,81.64M,0.22%,CRO
30-Aug-19,0.0391,0.0394,0.0396,0.0378,72.67M,-0.78%,CRO
29-Aug-19,0.0394,0.04,0.0405,0.0394,59.62M,-1.48%,CRO
28-Aug-19,0.04,0.0409,0.041,0.0397,69.34M,-2.19%,CRO
27-Aug-19,0.0409,0.0419,0.042,0.0406,77.35M,-2.38%,CRO
26-Aug-19,0.0419,0.0417,0.0425,0.0416,57.54M,0.48%,CRO
25-Aug-19,0.0417,0.0429,0.043,0.0417,70.27M,-2.82%,CRO
24-Aug-19,0.0429,0.0428,0.043,0.0426,107.78M,0.22%,CRO
23-Aug-19,0.0428,0.0428,0.0433,0.0425,77.64M,0.00%,CRO
22-Aug-19,0.0428,0.0423,0.0435,0.0422,16.91M,1.37%,CRO
21-Aug-19,0.0423,0.0442,0.0444,0.0419,38.89M,-4.43%,CRO
20-Aug-19,0.0442,0.0464,0.0472,0.0433,44.30M,-4.69%,CRO
19-Aug-19,0.0464,0.0451,0.0466,0.0449,43.78M,2.88%,CRO
18-Aug-19,0.0451,0.0444,0.0473,0.0442,75.51M,1.58%,CRO
17-Aug-19,0.0444,0.0437,0.0445,0.0426,57.58M,1.52%,CRO
16-Aug-19,0.0437,0.0449,0.0461,0.0426,28.24M,-2.53%,CRO
15-Aug-19,0.0449,0.0466,0.0483,0.0425,42.21M,-3.77%,CRO
14-Aug-19,0.0466,0.0475,0.049,0.046,236.32M,-1.75%,CRO
13-Aug-19,0.0475,0.0472,0.0489,0.0468,143.86M,0.48%,CRO
12-Aug-19,0.0472,0.0489,0.049,0.0468,132.88M,-3.41%,CRO
11-Aug-19,0.0489,0.051,0.0524,0.0486,177.18M,-4.15%,CRO
10-Aug-19,0.051,0.0508,0.0568,0.0505,183.74M,0.43%,CRO
9-Aug-19,0.0508,0.0474,0.0576,0.0464,186.93M,7.27%,CRO
8-Aug-19,0.0474,0.0444,0.0485,0.0441,122.23M,6.73%,CRO
7-Aug-19,0.0444,0.051,0.0528,0.044,139.62M,-13.05%,CRO
6-Aug-19,0.051,0.0533,0.0542,0.0507,21.52M,-4.29%,CRO
5-Aug-19,0.0533,0.0551,0.0555,0.0528,4.60M,-3.27%,CRO
4-Aug-19,0.0551,0.0549,0.0557,0.0537,3.65M,0.37%,CRO
3-Aug-19,0.0549,0.0554,0.0559,0.054,2.14M,-0.84%,CRO
2-Aug-19,0.0554,0.0557,0.0562,0.0541,4.00M,-0.53%,CRO
1-Aug-19,0.0557,0.0576,0.0582,0.0553,3.00M,-3.38%,CRO
31-Jul-19,0.0576,0.0569,0.059,0.0556,5.83M,1.25%,CRO
30-Jul-19,0.0569,0.054,0.0719,0.0538,27.31M,5.40%,CRO
29-Jul-19,0.054,0.0557,0.0562,0.0536,4.66M,-3.25%,CRO
28-Jul-19,0.0558,0.0566,0.0585,0.0538,8.44M,-1.43%,CRO
27-Jul-19,0.0566,0.0623,0.0625,0.0545,9.72M,-9.08%,CRO
26-Jul-19,0.0623,0.06,0.0627,0.0559,14.41M,3.80%,CRO
25-Jul-19,0.06,0.0618,0.0629,0.0589,13.55M,-2.92%,CRO
24-Jul-19,0.0618,0.0706,0.0771,0.0616,42.35M,-12.47%,CRO
23-Jul-19,0.0706,0.0656,0.0785,0.0656,45.72M,7.91%,CRO
22-Jul-19,0.0654,0.0546,0.0667,0.0545,27.40M,19.71%,CRO
21-Jul-19,0.0547,0.0589,0.0589,0.053,7.48M,-7.18%,CRO
20-Jul-19,0.0589,0.0574,0.0589,0.0567,-,2.67%,CRO
19-Jul-19,0.0574,0.0581,0.0604,0.0553,-,-1.27%,CRO
18-Jul-19,0.0581,0.0577,0.0638,0.0514,-,0.74%,CRO
17-Jul-19,0.0577,0.0631,0.0635,0.0575,-,-8.60%,CRO
16-Jul-19,0.0631,0.0784,0.0786,0.0607,-,-19.49%,CRO
15-Jul-19,0.0784,0.0828,0.0828,0.0729,-,-5.33%,CRO
14-Jul-19,0.0828,0.084,0.0878,0.0777,-,-1.52%,CRO
13-Jul-19,0.084,0.0905,0.1019,0.084,-,-7.09%,CRO
12-Jul-19,0.0905,0.0971,0.1578,0.082,-,-6.83%,CRO
11-Jul-19,0.0971,0.1013,0.1039,0.0929,-,-4.16%,CRO
10-Jul-19,0.1013,0.074,0.1013,0.074,-,36.81%,CRO
9-Jul-19,0.074,0.0771,0.0831,0.0733,-,-3.99%,CRO
8-Jul-19,0.0771,0.0682,0.0878,0.0682,-,13.06%,CRO
7-Jul-19,0.0682,0.07,0.0778,0.0681,-,-2.61%,CRO
6-Jul-19,0.07,0.0677,0.0701,0.0677,-,3.46%,CRO
5-Jul-19,0.0677,0.0698,0.0752,0.0667,-,-3.01%,CRO
4-Jul-19,0.0698,0.0665,0.0725,0.0663,-,5.03%,CRO
3-Jul-19,0.0665,0.0602,0.0665,0.0596,-,10.32%,CRO
2-Jul-19,0.0602,0.061,0.0637,0.0562,-,-1.24%,CRO
1-Jul-19,0.061,0.0675,0.068,0.0602,-,-9.69%,CRO
30-Jun-19,0.0675,0.0675,0.0685,0.0638,-,0.09%,CRO
29-Jun-19,0.0675,0.0698,0.0698,0.0674,-,-3.31%,CRO
28-Jun-19,0.0698,0.0645,0.0715,0.0644,-,8.22%,CRO
27-Jun-19,0.0645,0.0739,0.0739,0.0645,-,-12.72%,CRO
26-Jun-19,0.0739,0.0741,0.0831,0.071,-,-0.34%,CRO
25-Jun-19,0.0741,0.0614,0.0808,0.0611,-,20.78%,CRO
24-Jun-19,0.0614,0.0616,0.0618,0.0594,-,-0.31%,CRO
23-Jun-19,0.0616,0.0612,0.0616,0.0611,-,0.56%,CRO
22-Jun-19,0.0612,0.0645,0.0645,0.0612,-,-5.12%,CRO
21-Jun-19,0.0645,0.0651,0.0651,0.0643,-,-0.80%,CRO
20-Jun-19,0.0651,0.0651,0.0672,0.065,-,-0.13%,CRO
19-Jun-19,0.0651,0.0664,0.0665,0.0651,-,-1.85%,CRO
18-Jun-19,0.0664,0.0656,0.0664,0.0655,-,1.14%,CRO
17-Jun-19,0.0656,0.0656,0.0657,0.0655,-,0.00%,CRO
16-Jun-19,0.0656,0.0655,0.0656,0.0655,-,0.10%,CRO
15-Jun-19,0.0655,0.0665,0.0665,0.0655,-,-1.39%,CRO
14-Jun-19,0.0665,0.0689,0.0689,0.0653,-,-3.49%,CRO
13-Jun-19,0.0689,0.069,0.0692,0.0688,-,-0.18%,CRO
12-Jun-19,0.069,0.0699,0.0699,0.0681,-,-1.28%,CRO
11-Jun-19,0.0699,0.0705,0.0709,0.0697,-,-0.82%,CRO
10-Jun-19,0.0705,0.0708,0.0709,0.0695,-,-0.52%,CRO
9-Jun-19,0.0708,0.0694,0.0708,0.0694,-,2.10%,CRO
8-Jun-19,0.0694,0.0719,0.0719,0.0694,-,-3.57%,CRO
7-Jun-19,0.0719,0.0722,0.0729,0.0716,-,-0.42%,CRO
6-Jun-19,0.0722,0.0732,0.0732,0.0721,-,-1.28%,CRO
5-Jun-19,0.0732,0.079,0.079,0.0695,-,-7.31%,CRO
4-Jun-19,0.079,0.0791,0.0791,0.0785,-,-0.19%,CRO
3-Jun-19,0.0791,0.0757,0.0792,0.0712,-,4.46%,CRO
2-Jun-19,0.0757,0.0683,0.076,0.0683,-,10.94%,CRO
1-Jun-19,0.0683,0.0691,0.0697,0.0672,-,-1.28%,CRO
31-May-19,0.0691,0.0694,0.0694,0.0633,-,-0.39%,CRO
30-May-19,0.0694,0.0694,0.0718,0.0684,-,0.09%,CRO
29-May-19,0.0694,0.0648,0.0704,0.062,-,7.04%,CRO
28-May-19,0.0648,0.0665,0.0674,0.0623,-,-2.51%,CRO
27-May-19,0.0665,0.0672,0.0686,0.0665,-,-1.06%,CRO
26-May-19,0.0672,0.0656,0.0681,0.0656,-,2.38%,CRO
25-May-19,0.0656,0.0665,0.0665,0.0646,-,-1.27%,CRO
24-May-19,0.0665,0.0639,0.0665,0.0638,-,3.97%,CRO
23-May-19,0.0639,0.0655,0.0665,0.0639,-,-2.46%,CRO
22-May-19,0.0655,0.0673,0.0673,0.0648,-,-2.56%,CRO
21-May-19,0.0673,0.0661,0.0681,0.0661,-,1.80%,CRO
20-May-19,0.0661,0.0638,0.0668,0.0629,-,3.58%,CRO
19-May-19,0.0638,0.0692,0.0692,0.062,-,-7.86%,CRO
18-May-19,0.0692,0.0737,0.0739,0.0672,-,-6.02%,CRO
17-May-19,0.0737,0.065,0.0745,0.0617,-,13.31%,CRO
16-May-19,0.065,0.0649,0.0693,0.061,-,0.15%,CRO
15-May-19,0.0649,0.064,0.0671,0.0624,-,1.45%,CRO
14-May-19,0.064,0.0631,0.0684,0.0594,-,1.44%,CRO
13-May-19,0.0631,0.0598,0.0647,0.0588,-,5.43%,CRO
12-May-19,0.0598,0.0681,0.0681,0.0598,-,-12.12%,CRO
11-May-19,0.0681,0.0604,0.0681,0.0562,-,12.68%,CRO
10-May-19,0.0604,0.058,0.0608,0.0579,-,4.08%,CRO
9-May-19,0.058,0.0583,0.0702,0.0577,-,-0.52%,CRO
8-May-19,0.0583,0.0631,0.0635,0.0583,-,-7.56%,CRO
7-May-19,0.0631,0.0667,0.0709,0.06,-,-5.42%,CRO
6-May-19,0.0667,0.0713,0.0713,0.061,-,-6.37%,CRO
5-May-19,0.0713,0.07,0.0713,0.07,-,1.78%,CRO
4-May-19,0.07,0.0753,0.0753,0.07,-,-6.92%,CRO
3-May-19,0.0753,0.0716,0.0753,0.0714,-,5.06%,CRO
2-May-19,0.0716,0.0695,0.0717,0.0686,-,3.00%,CRO
1-May-19,0.0695,0.0675,0.0711,0.0671,-,3.08%,CRO
30-Apr-19,0.0675,0.071,0.0713,0.058,-,-5.01%,CRO
29-Apr-19,0.071,0.0732,0.0739,0.07,-,-2.96%,CRO
28-Apr-19,0.0732,0.0724,0.0732,0.0724,-,1.10%,CRO
27-Apr-19,0.0724,0.0715,0.0742,0.0714,-,1.24%,CRO
26-Apr-19,0.0715,0.0772,0.0773,0.0699,-,-7.37%,CRO
25-Apr-19,0.0772,0.0726,0.0829,0.07,-,6.39%,CRO
24-Apr-19,0.0726,0.0795,0.0796,0.069,-,-8.78%,CRO
23-Apr-19,0.0795,0.0818,0.0823,0.0781,-,-2.79%,CRO
22-Apr-19,0.0818,0.0844,0.0844,0.0766,-,-3.04%,CRO
21-Apr-19,0.0844,0.0937,0.0966,0.0831,-,-9.94%,CRO
20-Apr-19,0.0937,0.0837,0.0971,0.0833,-,11.96%,CRO
19-Apr-19,0.0837,0.0852,0.0859,0.0811,-,-1.74%,CRO
18-Apr-19,0.0852,0.084,0.0875,0.082,-,1.45%,CRO
17-Apr-19,0.084,0.0847,0.087,0.0815,-,-0.84%,CRO
16-Apr-19,0.0847,0.0798,0.0893,0.0764,-,6.09%,CRO
15-Apr-19,0.0798,0.0849,0.0862,0.0798,-,-6.03%,CRO
14-Apr-19,0.0849,0.0833,0.0851,0.0808,-,1.98%,CRO
13-Apr-19,0.0833,0.0788,0.0862,0.0714,-,5.70%,CRO
12-Apr-19,0.0788,0.0865,0.1043,0.0788,-,-8.89%,CRO
11-Apr-19,0.0865,0.0759,0.0996,0.0649,-,13.88%,CRO
10-Apr-19,0.0759,0.0573,0.0759,0.0558,-,32.48%,CRO
9-Apr-19,0.0573,0.0549,0.0582,0.0536,-,4.32%,CRO
8-Apr-19,0.0549,0.0515,0.0554,0.0515,-,6.66%,CRO
7-Apr-19,0.0515,0.0489,0.0525,0.0489,-,5.30%,CRO
6-Apr-19,0.0489,0.0508,0.0512,0.0483,-,-3.80%,CRO
5-Apr-19,0.0508,0.0451,0.052,0.045,-,12.74%,CRO
4-Apr-19,0.0451,0.0473,0.0481,0.0451,-,-4.62%,CRO
3-Apr-19,0.0473,0.048,0.051,0.0458,-,-1.59%,CRO
2-Apr-19,0.048,0.0444,0.0494,0.0444,-,8.19%,CRO
1-Apr-19,0.0444,0.0447,0.0462,0.0433,-,-0.54%,CRO
31-Mar-19,0.0447,0.0462,0.0462,0.0444,-,-3.26%,CRO
30-Mar-19,0.0462,0.0465,0.0475,0.0459,-,-0.66%,CRO
29-Mar-19,0.0465,0.0503,0.0536,0.0454,-,-7.53%,CRO
28-Mar-19,0.0503,0.0534,0.0547,0.0497,-,-5.98%,CRO
27-Mar-19,0.0534,0.0496,0.0566,0.0496,-,7.74%,CRO
26-Mar-19,0.0496,0.0551,0.0555,0.0495,-,-9.92%,CRO
25-Mar-19,0.0551,0.0636,0.0638,0.0533,-,-13.40%,CRO
24-Mar-19,0.0636,0.0665,0.0665,0.0635,-,-4.31%,CRO
23-Mar-19,0.0665,0.0663,0.0699,0.0646,-,0.27%,CRO
22-Mar-19,0.0663,0.0665,0.0677,0.0631,-,-0.39%,CRO
21-Mar-19,0.0665,0.0704,0.0709,0.064,-,-5.48%,CRO
20-Mar-19,0.0704,0.0784,0.0784,0.0681,-,-10.16%,CRO
19-Mar-19,0.0784,0.0688,0.0784,0.0649,-,13.81%,CRO
18-Mar-19,0.0688,0.0668,0.0821,0.0662,-,3.04%,CRO
17-Mar-19,0.0668,0.0818,0.0818,0.0655,-,-18.28%,CRO
16-Mar-19,0.0818,0.103,0.1043,0.0759,-,-20.61%,CRO
15-Mar-19,0.103,0.0601,0.1259,0.0601,-,71.31%,CRO
14-Mar-19,0.0601,0.0582,0.0643,0.0582,-,3.22%,CRO
13-Mar-19,0.0582,0.0528,0.0768,0.0521,-,10.23%,CRO
12-Mar-19,0.0528,0.0234,0.0798,0.0234,-,126.10%,CRO
11-Mar-19,0.0234,0.0211,0.0241,0.0204,-,10.48%,CRO
10-Mar-19,0.0211,0.0205,0.0217,0.0205,-,3.37%,CRO
9-Mar-19,0.0205,0.0187,0.0218,0.0185,-,9.69%,CRO
8-Mar-19,0.0187,0.0147,0.0234,0.0143,-,26.67%,CRO
7-Mar-19,0.0147,0.0128,0.015,0.0127,-,15.32%,CRO
6-Mar-19,0.0128,0.0129,0.0129,0.0127,-,-1.11%,CRO
5-Mar-19,0.0129,0.0121,0.014,0.0119,-,6.81%,CRO
4-Mar-19,0.0121,0.0124,0.0124,0.012,-,-2.32%,CRO
3-Mar-19,0.0124,0.0124,0.0125,0.0124,-,0.00%,CRO
2-Mar-19,0.0124,0.0124,0.0124,0.0123,-,0.00%,CRO
1-Mar-19,0.0124,0.0125,0.0125,0.0123,-,-0.58%,CRO
28-Feb-19,0.0125,0.0125,0.0126,0.0124,-,0.00%,CRO
27-Feb-19,0.0125,0.0127,0.0127,0.0124,-,-1.31%,CRO
26-Feb-19,0.0127,0.0127,0.0128,0.0126,-,-0.67%,CRO
25-Feb-19,0.0127,0.0124,0.0127,0.0123,-,2.63%,CRO
24-Feb-19,0.0124,0.0128,0.013,0.0124,-,-2.88%,CRO
23-Feb-19,0.0128,0.0129,0.0129,0.0126,-,-0.71%,CRO
22-Feb-19,0.0129,0.0128,0.013,0.0127,-,0.93%,CRO
21-Feb-19,0.0128,0.013,0.0131,0.0126,-,-1.56%,CRO
20-Feb-19,0.013,0.0129,0.0132,0.0129,-,0.00%,CRO
19-Feb-19,0.0129,0.0128,0.0133,0.0127,-,1.28%,CRO
18-Feb-19,0.0128,0.0122,0.0128,0.0122,-,4.49%,CRO
17-Feb-19,0.0122,0.0123,0.0124,0.0121,-,-1.09%,CRO
16-Feb-19,0.0123,0.0123,0.0124,0.0123,-,0.00%,CRO
15-Feb-19,0.0123,0.0123,0.0125,0.0123,-,0.62%,CRO
14-Feb-19,0.0123,0.0122,0.0126,0.0122,-,0.00%,CRO
13-Feb-19,0.0122,0.0124,0.0125,0.0122,-,-1.11%,CRO
12-Feb-19,0.0124,0.0125,0.0126,0.0123,-,-1.34%,CRO
11-Feb-19,0.0125,0.0125,0.0127,0.0123,-,0.51%,CRO
10-Feb-19,0.0125,0.0127,0.0129,0.0123,-,-2.04%,CRO
9-Feb-19,0.0127,0.0128,0.0129,0.0125,-,0.00%,CRO
8-Feb-19,0.0128,0.0121,0.0133,0.0121,-,5.19%,CRO
7-Feb-19,0.0121,0.0122,0.0124,0.012,-,-0.60%,CRO
6-Feb-19,0.0122,0.0124,0.0126,0.0121,-,-1.96%,CRO
5-Feb-19,0.0124,0.0124,0.0128,0.0123,-,0.52%,CRO
4-Feb-19,0.0124,0.0126,0.0127,0.0123,-,-2.06%,CRO
3-Feb-19,0.0126,0.0125,0.0127,0.0124,-,1.46%,CRO
2-Feb-19,0.0125,0.0125,0.013,0.0123,-,0.00%,CRO
1-Feb-19,0.0125,0.0128,0.0128,0.0121,-,-2.36%,CRO
31-Jan-19,0.0128,0.013,0.0134,0.0126,-,-1.95%,CRO
30-Jan-19,0.013,0.0127,0.0135,0.0126,-,2.09%,CRO
29-Jan-19,0.0127,0.0123,0.0131,0.0123,-,3.99%,CRO
28-Jan-19,0.0123,0.0136,0.0137,0.0121,-,-9.75%,CRO
27-Jan-19,0.0136,0.0137,0.0142,0.0135,-,-0.67%,CRO
26-Jan-19,0.0137,0.0134,0.0146,0.0132,-,2.34%,CRO
25-Jan-19,0.0134,0.0129,0.0148,0.0129,-,3.22%,CRO
24-Jan-19,0.0129,0.0134,0.0134,0.0128,-,-3.33%,CRO
23-Jan-19,0.0134,0.0134,0.0136,0.0131,-,0.00%,CRO
22-Jan-19,0.0134,0.0137,0.0138,0.013,-,-2.07%,CRO
21-Jan-19,0.0137,0.0142,0.0143,0.0133,-,-3.99%,CRO
20-Jan-19,0.0142,0.0147,0.015,0.0138,-,-3.08%,CRO
19-Jan-19,0.0147,0.0146,0.0151,0.0146,-,0.61%,CRO
18-Jan-19,0.0146,0.0152,0.0152,0.0146,-,-3.66%,CRO
17-Jan-19,0.0152,0.015,0.0157,0.0149,-,1.05%,CRO
16-Jan-19,0.015,0.0153,0.0154,0.0147,-,-1.99%,CRO
15-Jan-19,0.0153,0.0159,0.0165,0.0153,-,-3.41%,CRO
14-Jan-19,0.0159,0.0164,0.0164,0.0155,-,-3.60%,CRO
13-Jan-19,0.0164,0.0172,0.0172,0.016,-,-4.49%,CRO
12-Jan-19,0.0172,0.0176,0.0178,0.017,-,-2.04%,CRO
11-Jan-19,0.0176,0.0179,0.018,0.0173,-,-1.56%,CRO
