﻿Date,Price,Open,High,Low,Vol.,Change %,Coin
25-Dec-19,2.4824,2.5418,2.5473,2.4562,213.57M,-2.35%,EOS
24-Dec-19,2.542,2.5138,2.5692,2.4795,259.48M,1.10%,EOS
23-Dec-19,2.5142,2.534,2.5989,2.4977,277.47M,-0.75%,EOS
22-Dec-19,2.5332,2.4427,2.5475,2.4355,209.25M,3.72%,EOS
21-Dec-19,2.4424,2.4874,2.4876,2.4296,131.95M,-1.81%,EOS
20-Dec-19,2.4874,2.45,2.5418,2.4205,186.28M,1.53%,EOS
19-Dec-19,2.45,2.4579,2.4971,2.3998,256.43M,-0.32%,EOS
18-Dec-19,2.458,2.1947,2.5047,2.1622,381.65M,12.00%,EOS
17-Dec-19,2.1946,2.3703,2.3708,2.154,392.17M,-7.42%,EOS
16-Dec-19,2.3704,2.5629,2.5662,2.2926,299.84M,-7.51%,EOS
15-Dec-19,2.563,2.5654,2.5908,2.5394,136.05M,-0.09%,EOS
14-Dec-19,2.5652,2.6248,2.6295,2.5495,151.87M,-2.27%,EOS
13-Dec-19,2.6248,2.5827,2.641,2.5737,154.75M,1.63%,EOS
12-Dec-19,2.5827,2.5767,2.6144,2.5127,205.30M,0.23%,EOS
11-Dec-19,2.5767,2.6033,2.6207,2.5489,142.51M,-1.03%,EOS
10-Dec-19,2.6034,2.6567,2.664,2.5761,169.70M,-2.00%,EOS
9-Dec-19,2.6567,2.7399,2.7484,2.6156,166.41M,-3.04%,EOS
8-Dec-19,2.7398,2.7196,2.7661,2.6912,118.00M,0.74%,EOS
7-Dec-19,2.7196,2.7256,2.7495,2.7067,123.02M,-0.22%,EOS
6-Dec-19,2.7256,2.6823,2.7409,2.6619,164.47M,1.61%,EOS
5-Dec-19,2.6824,2.6278,2.7027,2.6199,176.42M,2.06%,EOS
4-Dec-19,2.6284,2.6941,2.7527,2.568,292.44M,-2.44%,EOS
3-Dec-19,2.6941,2.6748,2.7381,2.6486,170.20M,0.72%,EOS
2-Dec-19,2.6748,2.7742,2.7919,2.6506,197.22M,-3.58%,EOS
1-Dec-19,2.7742,2.7478,2.8483,2.6597,214.01M,0.96%,EOS
30-Nov-19,2.7478,2.7922,2.8148,2.7199,159.90M,-1.59%,EOS
29-Nov-19,2.7922,2.6253,2.8244,2.6209,234.06M,6.36%,EOS
28-Nov-19,2.6253,2.6766,2.6931,2.5966,168.67M,-1.92%,EOS
27-Nov-19,2.6767,2.6111,2.7391,2.4894,297.64M,2.51%,EOS
26-Nov-19,2.6112,2.5177,2.6318,2.5164,250.96M,3.70%,EOS
25-Nov-19,2.5179,2.4125,2.6122,2.3326,381.83M,4.36%,EOS
24-Nov-19,2.4127,2.6759,2.6972,2.3686,293.61M,-9.84%,EOS
23-Nov-19,2.6759,2.6249,2.7146,2.5739,217.09M,1.94%,EOS
22-Nov-19,2.6249,2.8188,2.845,2.46,464.65M,-6.88%,EOS
21-Nov-19,2.8188,3.08,3.1187,2.7576,288.19M,-8.51%,EOS
20-Nov-19,3.081,3.1203,3.1501,3.0481,174.67M,-1.25%,EOS
19-Nov-19,3.1201,3.1829,3.1954,3.0281,218.06M,-1.98%,EOS
18-Nov-19,3.1832,3.3935,3.4003,3.0295,210.15M,-6.19%,EOS
17-Nov-19,3.3934,3.3736,3.4368,3.3196,127.17M,0.58%,EOS
16-Nov-19,3.3738,3.3312,3.3998,3.317,115.10M,1.28%,EOS
15-Nov-19,3.3312,3.3958,3.4904,3.2832,188.68M,-1.91%,EOS
14-Nov-19,3.3959,3.469,3.4798,3.3509,150.59M,-2.11%,EOS
13-Nov-19,3.469,3.4803,3.4966,3.4189,182.37M,-0.32%,EOS
12-Nov-19,3.4801,3.438,3.5216,3.4015,229.94M,1.25%,EOS
11-Nov-19,3.4371,3.5802,3.5945,3.4126,187.11M,-4.00%,EOS
10-Nov-19,3.5801,3.4894,3.6366,3.4512,196.43M,2.60%,EOS
9-Nov-19,3.4893,3.4111,3.4986,3.4057,185.61M,2.29%,EOS
8-Nov-19,3.4111,3.4676,3.5462,3.354,253.62M,-1.63%,EOS
7-Nov-19,3.4675,3.6037,3.6311,3.4303,209.24M,-3.77%,EOS
6-Nov-19,3.6033,3.6166,3.6718,3.5567,204.68M,-0.35%,EOS
5-Nov-19,3.616,3.4401,3.682,3.4143,274.27M,5.11%,EOS
4-Nov-19,3.4401,3.27,3.489,3.2382,264.14M,5.20%,EOS
3-Nov-19,3.27,3.3202,3.3402,3.198,166.63M,-1.51%,EOS
2-Nov-19,3.3202,3.3428,3.378,3.2952,182.31M,-0.68%,EOS
1-Nov-19,3.3428,3.2506,3.3815,3.202,235.50M,2.83%,EOS
31-Oct-19,3.2508,3.2677,3.3171,3.1691,243.38M,-0.52%,EOS
30-Oct-19,3.2677,3.4016,3.4194,3.1937,269.23M,-3.94%,EOS
29-Oct-19,3.4016,3.281,3.4543,3.2775,254.79M,3.68%,EOS
28-Oct-19,3.2809,3.3273,3.5365,3.2532,301.58M,-1.39%,EOS
27-Oct-19,3.3273,3.1331,3.4731,3.0694,326.70M,6.20%,EOS
26-Oct-19,3.1331,3.1776,3.4742,2.7698,460.90M,-1.40%,EOS
25-Oct-19,3.1776,2.7225,3.3106,2.7181,402.03M,16.73%,EOS
24-Oct-19,2.7222,2.7161,2.7782,2.6552,204.25M,0.18%,EOS
23-Oct-19,2.7174,2.893,2.9077,2.5439,328.87M,-6.07%,EOS
22-Oct-19,2.8931,2.9206,3.0173,2.8685,204.33M,-0.96%,EOS
21-Oct-19,2.921,2.9211,2.9646,2.8749,143.59M,0.00%,EOS
20-Oct-19,2.9209,2.8674,2.934,2.8261,137.45M,1.92%,EOS
19-Oct-19,2.866,2.8774,2.9177,2.8391,141.44M,-0.40%,EOS
18-Oct-19,2.8776,2.946,2.9511,2.7348,177.69M,-2.32%,EOS
17-Oct-19,2.946,2.9255,2.9603,2.8835,138.78M,0.70%,EOS
16-Oct-19,2.9255,2.9615,2.9845,2.8575,174.39M,-1.22%,EOS
15-Oct-19,2.9616,3.1619,3.1688,2.8569,179.87M,-6.33%,EOS
14-Oct-19,3.1619,3.1026,3.1874,3.095,156.27M,1.91%,EOS
13-Oct-19,3.1025,3.0659,3.1317,3.0479,153.96M,1.19%,EOS
12-Oct-19,3.066,3.0584,3.1388,3.0426,127.86M,0.25%,EOS
11-Oct-19,3.0584,3.1062,3.1827,3.0375,145.58M,-1.54%,EOS
10-Oct-19,3.1062,3.236,3.2442,3.0442,148.53M,-4.01%,EOS
9-Oct-19,3.236,3.1588,3.301,3.116,178.45M,2.43%,EOS
8-Oct-19,3.1592,3.1799,3.243,3.1142,142.73M,-0.66%,EOS
7-Oct-19,3.1802,2.9076,3.2433,2.8956,194.62M,9.37%,EOS
6-Oct-19,2.9077,2.9863,2.9949,2.8517,124.37M,-2.63%,EOS
5-Oct-19,2.9863,3.0017,3.0316,2.9245,121.06M,-0.50%,EOS
4-Oct-19,3.0013,2.9255,3.0789,2.8763,127.53M,2.59%,EOS
3-Oct-19,2.9256,3.0013,3.012,2.8225,134.19M,-2.52%,EOS
2-Oct-19,3.0014,2.9382,3.0343,2.8873,148.48M,2.16%,EOS
1-Oct-19,2.938,2.9604,3.0952,2.8706,216.34M,-0.75%,EOS
30-Sep-19,2.9602,2.7776,3.0184,2.7196,216.25M,6.58%,EOS
29-Sep-19,2.7775,2.8392,2.8481,2.6857,133.60M,-2.19%,EOS
28-Sep-19,2.8397,2.8373,2.8711,2.782,119.44M,0.09%,EOS
27-Sep-19,2.8373,2.7931,2.8887,2.7093,177.68M,1.59%,EOS
26-Sep-19,2.793,2.8781,2.8821,2.6147,237.75M,-2.96%,EOS
25-Sep-19,2.8783,2.8367,3.2165,2.6211,295.13M,1.47%,EOS
24-Sep-19,2.8367,3.691,3.7197,2.75,1.04K,-23.13%,EOS
23-Sep-19,3.6901,3.8104,3.8595,3.6667,156.64M,-3.16%,EOS
22-Sep-19,3.8105,3.9998,4.0054,3.7426,143.60M,-4.73%,EOS
21-Sep-19,3.9999,4.0105,4.0681,3.9694,132.80M,-0.26%,EOS
20-Sep-19,4.0103,3.9584,4.0325,3.8398,135.43M,1.31%,EOS
19-Sep-19,3.9586,4.0776,4.0842,3.8133,200.72M,-2.94%,EOS
18-Sep-19,4.0785,4.063,4.164,4.05,161.47M,0.37%,EOS
17-Sep-19,4.0633,4.082,4.2228,4.0206,169.97M,-0.50%,EOS
16-Sep-19,4.0836,4.0726,4.1459,3.9489,178.97M,0.28%,EOS
15-Sep-19,4.0722,4.0204,4.1417,4.0036,158.45M,1.29%,EOS
14-Sep-19,4.0204,3.722,4.0969,3.6925,186.36M,8.02%,EOS
13-Sep-19,3.722,3.7406,3.7476,3.6756,140.30M,-0.49%,EOS
12-Sep-19,3.7402,3.7534,3.7705,3.6723,129.25M,-0.37%,EOS
11-Sep-19,3.754,3.775,3.8056,3.6502,195.33M,-0.56%,EOS
10-Sep-19,3.7751,3.8753,3.9154,3.6638,169.86M,-2.59%,EOS
9-Sep-19,3.8753,3.7841,3.9465,3.6215,234.58M,2.38%,EOS
8-Sep-19,3.7851,3.5601,3.7918,3.5264,201.27M,6.32%,EOS
7-Sep-19,3.56,3.2144,3.6587,3.198,232.45M,10.76%,EOS
6-Sep-19,3.2142,3.2672,3.3453,3.1273,191.68M,-1.63%,EOS
5-Sep-19,3.2674,3.304,3.3273,3.2024,127.10M,-1.11%,EOS
4-Sep-19,3.3042,3.3495,3.3593,3.2863,118.46M,-1.36%,EOS
3-Sep-19,3.3496,3.319,3.4554,3.3109,164.53M,0.92%,EOS
2-Sep-19,3.3191,3.2567,3.372,3.2205,130.14M,1.90%,EOS
1-Sep-19,3.2572,3.3214,3.3387,3.1064,121.82M,-1.94%,EOS
31-Aug-19,3.3215,3.2142,3.4025,3.1881,108.39M,3.32%,EOS
30-Aug-19,3.2147,3.1945,3.2832,3.1639,117.51M,0.66%,EOS
29-Aug-19,3.1936,3.2545,3.262,3.0622,163.86M,-1.88%,EOS
28-Aug-19,3.2549,3.5494,3.555,3.1248,176.97M,-8.29%,EOS
27-Aug-19,3.5492,3.5841,3.5905,3.4911,94.03M,-0.96%,EOS
26-Aug-19,3.5838,3.5502,3.6893,3.5423,120.93M,0.94%,EOS
25-Aug-19,3.5503,3.6602,3.6875,3.4731,119.81M,-3.00%,EOS
24-Aug-19,3.66,3.672,3.6818,3.5553,109.48M,-0.33%,EOS
23-Aug-19,3.6719,3.6356,3.7605,3.6012,122.04M,0.99%,EOS
22-Aug-19,3.6359,3.5123,3.7067,3.4552,132.34M,3.53%,EOS
21-Aug-19,3.5121,3.6725,3.6816,3.3923,155.33M,-4.35%,EOS
20-Aug-19,3.6717,3.719,3.723,3.601,136.98M,-1.27%,EOS
19-Aug-19,3.7189,3.6909,3.7788,3.6482,128.22M,0.77%,EOS
18-Aug-19,3.6904,3.5598,3.7601,3.5136,128.35M,3.70%,EOS
17-Aug-19,3.5588,3.5797,3.6105,3.4995,94.25M,-0.58%,EOS
16-Aug-19,3.5794,3.6233,3.6446,3.4892,143.16M,-1.23%,EOS
15-Aug-19,3.6241,3.6716,3.7184,3.3464,227.86M,-1.29%,EOS
14-Aug-19,3.6714,4.0797,4.1287,3.5882,207.03M,-9.98%,EOS
13-Aug-19,4.0784,4.1303,4.1404,3.9888,144.07M,-1.25%,EOS
12-Aug-19,4.1301,4.204,4.2047,4.0908,91.46M,-1.79%,EOS
11-Aug-19,4.2054,4.0643,4.2447,4.0627,118.49M,3.47%,EOS
10-Aug-19,4.0643,3.9041,4.1356,3.8754,134.31M,4.10%,EOS
9-Aug-19,3.9041,4.1694,4.1779,3.8189,133.39M,-6.37%,EOS
8-Aug-19,4.1699,4.2245,4.2336,4.1027,95.14M,-1.30%,EOS
7-Aug-19,4.2249,4.1899,4.279,4.1471,108.04M,0.82%,EOS
6-Aug-19,4.1904,4.4581,4.4963,4.0649,135.97M,-6.01%,EOS
5-Aug-19,4.4581,4.2168,4.5665,4.2168,142.90M,5.72%,EOS
4-Aug-19,4.2168,4.2886,4.3085,4.1776,86.58M,-1.68%,EOS
3-Aug-19,4.2888,4.1805,4.3446,4.1708,106.26M,2.57%,EOS
2-Aug-19,4.1811,4.3003,4.3411,4.0524,125.50M,-2.77%,EOS
1-Aug-19,4.3003,4.4183,4.4377,4.228,107.64M,-2.67%,EOS
31-Jul-19,4.4181,4.1979,4.4355,4.1896,115.92M,5.25%,EOS
30-Jul-19,4.1979,4.214,4.2817,4.1465,150.53M,-0.38%,EOS
29-Jul-19,4.214,4.2674,4.3821,4.1149,125.51M,-1.25%,EOS
28-Jul-19,4.2675,4.2772,4.3307,3.9097,125.87M,-0.24%,EOS
27-Jul-19,4.2777,4.614,4.7453,4.196,167.25M,-7.29%,EOS
26-Jul-19,4.6139,4.5651,4.6981,4.4199,130.29M,1.06%,EOS
25-Jul-19,4.5657,4.5788,4.6978,4.4577,166.70M,-0.29%,EOS
24-Jul-19,4.5788,4.1546,4.6417,4.0153,248.46M,10.20%,EOS
23-Jul-19,4.1548,4.1259,4.2733,3.9663,170.13M,0.70%,EOS
22-Jul-19,4.1261,4.328,4.407,3.9757,167.08M,-4.66%,EOS
21-Jul-19,4.3276,4.3053,4.3448,4.1647,148.32M,0.52%,EOS
20-Jul-19,4.3054,4.0362,4.456,4.0041,163.67M,6.67%,EOS
19-Jul-19,4.0362,4.1002,4.1488,3.822,157.44M,-1.56%,EOS
18-Jul-19,4.1,3.8319,4.228,3.747,220.79M,7.01%,EOS
17-Jul-19,3.8316,3.6575,4.1105,3.5272,286.07M,4.77%,EOS
16-Jul-19,3.6571,4.2927,4.3554,3.3594,287.82M,-14.80%,EOS
15-Jul-19,4.2922,4.1098,4.4165,3.9764,221.21M,4.39%,EOS
14-Jul-19,4.1115,4.7535,4.7687,4.0566,212.64M,-13.51%,EOS
13-Jul-19,4.754,4.7869,4.8216,4.5775,151.79M,-0.68%,EOS
12-Jul-19,4.7864,4.6841,4.861,4.598,144.04M,2.19%,EOS
11-Jul-19,4.684,5.2687,5.2687,4.3859,245.82M,-11.10%,EOS
10-Jul-19,5.2689,5.8858,5.9128,5.046,201.73M,-10.47%,EOS
9-Jul-19,5.8853,5.9424,6.0163,5.8355,99.55M,-0.97%,EOS
8-Jul-19,5.9431,5.9293,5.9762,5.8247,97.51M,0.21%,EOS
7-Jul-19,5.9308,5.768,6.0207,5.7515,93.61M,2.81%,EOS
6-Jul-19,5.7687,5.7411,5.9589,5.7053,99.91M,0.49%,EOS
5-Jul-19,5.7408,5.7198,5.8666,5.6853,96.66M,0.36%,EOS
4-Jul-19,5.7204,6.0375,6.0464,5.6775,113.22M,-5.25%,EOS
3-Jul-19,6.0376,5.8922,6.0908,5.8204,127.48M,2.47%,EOS
2-Jul-19,5.8923,6.0522,6.1324,5.5872,161.32M,-2.63%,EOS
1-Jul-19,6.0516,5.7821,6.0683,5.5644,161.98M,4.66%,EOS
30-Jun-19,5.7822,6.344,6.3927,5.7081,143.27M,-8.85%,EOS
29-Jun-19,6.3437,6.203,6.389,5.9989,130.27M,2.26%,EOS
28-Jun-19,6.2035,5.9678,6.2738,5.7664,188.79M,3.98%,EOS
27-Jun-19,5.9662,6.8108,6.845,5.649,274.04M,-12.41%,EOS
26-Jun-19,6.8113,7.1737,9.89,6.132,247.82M,-5.05%,EOS
25-Jun-19,7.1734,7.2486,7.2984,6.981,126.63M,-1.01%,EOS
24-Jun-19,7.2464,7.2713,7.2722,7.0601,99.57M,-0.34%,EOS
23-Jun-19,7.2712,7.5041,7.6403,7.1895,131.84M,-3.10%,EOS
22-Jun-19,7.504,7.042,7.5882,7.0036,187.83M,6.55%,EOS
21-Jun-19,7.0426,6.8319,7.1159,6.8318,131.64M,3.08%,EOS
20-Jun-19,6.8319,6.855,6.8888,6.6865,97.33M,-0.34%,EOS
19-Jun-19,6.8551,6.7837,6.9605,6.753,84.85M,1.05%,EOS
18-Jun-19,6.7839,7.125,7.1425,6.6536,110.40M,-4.77%,EOS
17-Jun-19,7.124,6.9746,7.2099,6.9525,112.89M,2.14%,EOS
16-Jun-19,6.9745,6.8876,7.1833,6.7875,144.40M,1.26%,EOS
15-Jun-19,6.8875,6.5393,6.9325,6.5174,116.39M,5.33%,EOS
14-Jun-19,6.539,6.4581,6.5454,6.3484,97.29M,1.25%,EOS
13-Jun-19,6.4581,6.4248,6.5961,6.3783,118.40M,0.51%,EOS
12-Jun-19,6.4252,6.3135,6.4412,6.2178,106.74M,1.77%,EOS
11-Jun-19,6.3134,6.4376,6.4716,6.1462,109.20M,-1.94%,EOS
10-Jun-19,6.4381,6.1448,6.4785,6.0489,128.83M,4.73%,EOS
9-Jun-19,6.1472,6.3433,6.4559,5.9848,117.03M,-3.10%,EOS
8-Jun-19,6.3436,6.6278,6.6782,6.2059,112.67M,-4.29%,EOS
7-Jun-19,6.6278,6.357,6.7759,6.2952,133.59M,4.26%,EOS
6-Jun-19,6.3569,6.4161,6.4526,5.9541,137.00M,-0.92%,EOS
5-Jun-19,6.416,6.2931,6.5127,6.1499,168.59M,1.95%,EOS
4-Jun-19,6.2932,6.702,6.879,6.0582,230.73M,-6.10%,EOS
3-Jun-19,6.702,7.7252,7.7279,6.6109,214.70M,-13.25%,EOS
2-Jun-19,7.7257,7.7251,7.9759,7.4739,170.75M,0.00%,EOS
1-Jun-19,7.726,8.5613,8.6201,7.5464,237.19M,-9.78%,EOS
31-May-19,8.5631,7.3168,8.6511,7.203,227.01M,17.02%,EOS
30-May-19,7.3174,7.9636,8.4708,6.9924,250.85M,-8.10%,EOS
29-May-19,7.9627,8.0791,8.2118,7.5401,166.97M,-1.44%,EOS
28-May-19,8.0791,7.9912,8.1888,7.5535,183.76M,1.13%,EOS
27-May-19,7.9887,6.8618,8.2036,6.8018,231.46M,16.40%,EOS
26-May-19,6.8629,6.3618,6.9345,6.2097,126.11M,7.90%,EOS
25-May-19,6.3605,6.4063,6.5353,6.2648,94.47M,-0.71%,EOS
24-May-19,6.4063,6.0141,6.5764,5.9659,137.97M,6.52%,EOS
23-May-19,6.0141,5.9323,6.0815,5.7333,106.22M,1.40%,EOS
22-May-19,5.931,6.2602,6.3352,5.8358,118.47M,-5.27%,EOS
21-May-19,6.2608,6.2143,6.3509,6.0833,96.11M,0.75%,EOS
20-May-19,6.2145,6.4611,6.4611,5.9907,129.58M,-3.82%,EOS
19-May-19,6.4613,5.8866,6.5599,5.8778,154.70M,9.74%,EOS
18-May-19,5.8879,6.031,6.0759,5.8227,113.47M,-2.36%,EOS
17-May-19,6.0302,6.4946,6.5684,5.7274,242.10M,-7.15%,EOS
16-May-19,6.4944,6.4635,6.8882,6.262,244.76M,0.48%,EOS
15-May-19,6.4632,6.0393,6.5378,5.977,191.43M,7.03%,EOS
14-May-19,6.0389,5.5309,6.2045,5.5155,209.54M,9.19%,EOS
13-May-19,5.5306,5.334,5.7375,5.3,136.51M,3.68%,EOS
12-May-19,5.3343,5.5096,5.746,5.2058,197.27M,-3.19%,EOS
11-May-19,5.5101,4.8139,5.7883,4.8139,249.36M,14.47%,EOS
10-May-19,4.8137,4.8525,4.9411,4.5973,132.09M,-0.80%,EOS
9-May-19,4.8522,4.9022,4.9936,4.7885,92.39M,-1.02%,EOS
8-May-19,4.9022,4.8516,4.9362,4.7687,93.75M,1.03%,EOS
7-May-19,4.8521,4.8953,5.0488,4.8137,131.25M,-0.88%,EOS
6-May-19,4.8951,4.8814,4.9898,4.6511,132.41M,0.28%,EOS
5-May-19,4.8814,4.9494,5.0119,4.8347,94.26M,-1.37%,EOS
4-May-19,4.9494,5.0853,5.1914,4.7863,142.43M,-2.69%,EOS
3-May-19,5.0862,4.7857,5.1438,4.76,142.94M,6.28%,EOS
2-May-19,4.7858,4.764,4.8137,4.6478,105.14M,0.46%,EOS
1-May-19,4.764,4.8179,4.8519,4.6691,91.21M,-1.11%,EOS
30-Apr-19,4.8177,4.5179,4.8349,4.5179,116.64M,6.69%,EOS
29-Apr-19,4.5158,4.748,4.7591,4.462,115.26M,-4.82%,EOS
28-Apr-19,4.7447,4.7394,4.7945,4.6471,79.86M,0.13%,EOS
27-Apr-19,4.7385,4.7941,4.8322,4.7015,79.75M,-1.16%,EOS
26-Apr-19,4.7941,4.6091,4.9548,4.5311,147.82M,4.01%,EOS
25-Apr-19,4.6094,4.7823,4.8465,4.5512,141.70M,-3.62%,EOS
24-Apr-19,4.7826,5.1084,5.1421,4.5646,203.64M,-6.40%,EOS
23-Apr-19,5.1095,5.2205,5.3629,5.0875,117.41M,-2.13%,EOS
22-Apr-19,5.2205,5.1985,5.278,5.0916,110.17M,0.42%,EOS
21-Apr-19,5.1985,5.4286,5.4445,4.9665,144.97M,-4.24%,EOS
20-Apr-19,5.4287,5.4557,5.4897,5.3748,81.45M,-0.50%,EOS
19-Apr-19,5.4557,5.4677,5.4749,5.3542,88.55M,-0.22%,EOS
18-Apr-19,5.4676,5.4181,5.5419,5.4157,104.12M,0.91%,EOS
17-Apr-19,5.4181,5.4921,5.5463,5.3621,64.45M,-1.35%,EOS
16-Apr-19,5.4921,5.3352,5.5096,5.2862,80.01M,2.94%,EOS
15-Apr-19,5.3352,5.5446,5.6027,5.2359,111.04M,-3.78%,EOS
14-Apr-19,5.5448,5.2877,5.5568,5.2197,84.15M,4.86%,EOS
13-Apr-19,5.2876,5.3353,5.3952,5.1934,74.77M,-0.89%,EOS
12-Apr-19,5.3352,5.2815,5.4285,5.0481,119.94M,1.03%,EOS
11-Apr-19,5.2808,5.8373,5.8441,5.0884,215.42M,-9.53%,EOS
10-Apr-19,5.8374,5.5205,5.9673,5.5088,186.39M,5.75%,EOS
9-Apr-19,5.5198,5.5046,5.6087,5.2851,117.82M,0.27%,EOS
8-Apr-19,5.5048,5.4221,5.6394,5.211,166.83M,1.52%,EOS
7-Apr-19,5.4221,5.3305,5.485,5.2649,115.06M,1.72%,EOS
6-Apr-19,5.3305,5.3121,5.6673,5.0835,138.36M,0.34%,EOS
5-Apr-19,5.3124,5.0645,5.3646,5.0645,119.51M,4.90%,EOS
4-Apr-19,5.0645,5.2145,5.3239,4.8518,182.49M,-2.88%,EOS
3-Apr-19,5.2144,5.0222,5.9045,4.8436,386.52M,3.83%,EOS
2-Apr-19,5.0222,4.2053,5.0772,4.1617,311.25M,19.42%,EOS
1-Apr-19,4.2055,4.2118,4.232,4.1535,110.32M,0.33%,EOS
31-Mar-19,4.1916,4.1536,4.248,4.0829,99.00M,0.92%,EOS
30-Mar-19,4.1536,4.3046,4.3244,4.0114,126.27M,-3.51%,EOS
29-Mar-19,4.3046,4.2422,4.3944,4.2127,134.89M,1.47%,EOS
28-Mar-19,4.2422,4.2616,4.3167,4.1775,138.94M,-0.46%,EOS
27-Mar-19,4.262,3.7417,4.3329,3.7168,270.55M,13.91%,EOS
26-Mar-19,3.7414,3.6502,3.7523,3.5992,108.11M,2.50%,EOS
25-Mar-19,3.6501,3.6314,3.6695,3.5762,121.50M,0.52%,EOS
24-Mar-19,3.6313,3.6665,3.6666,3.5927,83.95M,-0.95%,EOS
23-Mar-19,3.6662,3.6174,3.7051,3.6005,92.58M,1.38%,EOS
22-Mar-19,3.6162,3.622,3.6459,3.5708,86.54M,-0.16%,EOS
21-Mar-19,3.6222,3.7118,3.7203,3.5382,117.45M,-2.41%,EOS
20-Mar-19,3.7118,3.7283,3.7348,3.5448,113.48M,-0.44%,EOS
19-Mar-19,3.7283,3.7076,3.7418,3.6757,89.87M,0.56%,EOS
18-Mar-19,3.7077,3.7392,3.7921,3.6801,102.81M,-0.84%,EOS
17-Mar-19,3.7392,3.7975,3.7993,3.723,81.42M,-1.54%,EOS
16-Mar-19,3.7975,3.689,3.8416,3.6842,143.99M,2.94%,EOS
15-Mar-19,3.689,3.574,3.7173,3.574,116.07M,3.22%,EOS
14-Mar-19,3.574,3.5678,3.6341,3.509,100.84M,0.17%,EOS
13-Mar-19,3.5678,3.6416,3.6511,3.4899,114.49M,-2.03%,EOS
12-Mar-19,3.6417,3.5668,3.6912,3.4325,131.07M,2.09%,EOS
11-Mar-19,3.5673,3.6954,3.7266,3.5118,116.95M,-3.47%,EOS
10-Mar-19,3.6955,3.7551,3.7588,3.6533,84.34M,-1.59%,EOS
9-Mar-19,3.7552,3.5954,3.819,3.5805,128.58M,4.43%,EOS
8-Mar-19,3.5959,3.7595,3.7934,3.5002,132.24M,-4.35%,EOS
7-Mar-19,3.7595,3.7333,3.8917,3.6979,148.92M,0.72%,EOS
6-Mar-19,3.7325,3.7529,3.8672,3.5984,171.35M,-0.54%,EOS
5-Mar-19,3.7528,3.2368,3.7873,3.2085,201.55M,15.95%,EOS
4-Mar-19,3.2367,3.5168,3.5415,3.1459,153.19M,-7.93%,EOS
3-Mar-19,3.5157,3.4802,3.592,3.4786,65.51M,1.03%,EOS
2-Mar-19,3.4798,3.4708,3.5287,3.432,77.03M,0.23%,EOS
1-Mar-19,3.4717,3.5024,3.6692,3.4367,109.39M,-0.88%,EOS
28-Feb-19,3.5023,3.5055,3.6242,3.4622,117.01M,-0.09%,EOS
27-Feb-19,3.5055,3.4383,3.5475,3.3453,115.79M,1.95%,EOS
26-Feb-19,3.4384,3.5502,3.5621,3.3315,156.24M,-3.14%,EOS
25-Feb-19,3.55,3.5318,3.7107,3.3219,179.28M,0.54%,EOS
24-Feb-19,3.5311,4.2505,4.4437,3.4191,252.15M,-16.92%,EOS
23-Feb-19,4.2504,3.8518,4.2701,3.789,122.50M,10.34%,EOS
22-Feb-19,3.8519,3.8072,3.8959,3.7394,116.63M,1.17%,EOS
21-Feb-19,3.8076,3.9137,3.928,3.6988,114.13M,-2.71%,EOS
20-Feb-19,3.9138,3.5323,3.9327,3.4694,178.74M,10.80%,EOS
19-Feb-19,3.5323,3.4787,3.799,3.4675,209.25M,1.54%,EOS
18-Feb-19,3.4787,2.8781,3.4903,2.8636,204.64M,20.86%,EOS
17-Feb-19,2.8782,2.7865,2.9117,2.7809,82.26M,3.29%,EOS
16-Feb-19,2.7865,2.7964,2.8846,2.7799,52.64M,-0.36%,EOS
15-Feb-19,2.7964,2.747,2.8593,2.7433,70.35M,1.78%,EOS
14-Feb-19,2.7475,2.8613,2.8888,2.7192,71.05M,-4.01%,EOS
13-Feb-19,2.8624,2.9498,2.9972,2.8147,88.63M,-2.95%,EOS
12-Feb-19,2.9493,2.7511,3.0065,2.7145,88.77M,7.20%,EOS
11-Feb-19,2.7511,2.8361,2.8465,2.7142,73.85M,-2.98%,EOS
10-Feb-19,2.8355,2.773,2.8569,2.6616,81.54M,2.25%,EOS
9-Feb-19,2.773,2.7238,2.8251,2.6787,77.88M,1.82%,EOS
8-Feb-19,2.7234,2.3426,2.7952,2.3301,112.14M,16.25%,EOS
7-Feb-19,2.3426,2.3455,2.3725,2.3251,35.89M,-0.12%,EOS
6-Feb-19,2.3455,2.3918,2.399,2.3049,46.23M,-1.92%,EOS
5-Feb-19,2.3916,2.4,2.405,2.3602,32.59M,-0.35%,EOS
4-Feb-19,2.4,2.373,2.4279,2.3684,37.44M,1.14%,EOS
3-Feb-19,2.3729,2.4421,2.4487,2.353,50.75M,-2.83%,EOS
2-Feb-19,2.4421,2.3314,2.4571,2.3194,42.77M,4.75%,EOS
1-Feb-19,2.3314,2.3086,2.3551,2.2822,51.59M,1.00%,EOS
31-Jan-19,2.3082,2.3285,2.3609,2.2854,54.68M,-0.87%,EOS
30-Jan-19,2.3284,2.2576,2.3423,2.2302,71.41M,3.13%,EOS
29-Jan-19,2.2579,2.2286,2.3039,2.1852,77.18M,1.31%,EOS
28-Jan-19,2.2286,2.357,2.3647,2.1598,91.23M,-5.45%,EOS
27-Jan-19,2.357,2.41,2.4366,2.3255,27.41M,-2.20%,EOS
26-Jan-19,2.41,2.435,2.4758,2.41,22.14M,-1.03%,EOS
25-Jan-19,2.435,2.4394,2.4634,2.4086,26.57M,-0.18%,EOS
24-Jan-19,2.4394,2.4214,2.4523,2.393,29.26M,0.74%,EOS
23-Jan-19,2.4214,2.4324,2.4632,2.3946,25.16M,-0.45%,EOS
22-Jan-19,2.4324,2.3276,2.498,2.2793,43.95M,4.51%,EOS
21-Jan-19,2.3276,2.3302,2.3978,2.3055,33.70M,-0.07%,EOS
20-Jan-19,2.3291,2.4496,2.4682,2.281,44.70M,-4.93%,EOS
19-Jan-19,2.4499,2.4331,2.5069,2.4238,26.87M,0.69%,EOS
18-Jan-19,2.4331,2.4871,2.4935,2.389,34.11M,-2.17%,EOS
17-Jan-19,2.4871,2.4088,2.4982,2.3588,28.04M,3.25%,EOS
16-Jan-19,2.4088,2.3587,2.4382,2.3437,26.83M,2.07%,EOS
15-Jan-19,2.36,2.4391,2.453,2.3284,37.48M,-3.25%,EOS
14-Jan-19,2.4393,2.2209,2.4594,2.2183,35.94M,9.83%,EOS
13-Jan-19,2.2209,2.3871,2.3987,2.1987,33.38M,-6.96%,EOS
12-Jan-19,2.3871,2.3729,2.4155,2.3582,29.34M,0.60%,EOS
11-Jan-19,2.3728,2.3898,2.4258,2.3131,42.19M,-0.71%,EOS
10-Jan-19,2.3898,2.8743,2.9534,2.3048,71.94M,-16.86%,EOS
9-Jan-19,2.8744,2.7614,2.9343,2.7498,38.89M,4.09%,EOS
8-Jan-19,2.7614,2.7465,2.8497,2.7035,36.30M,0.54%,EOS
7-Jan-19,2.7465,2.8354,2.853,2.7086,37.39M,-3.14%,EOS
6-Jan-19,2.8354,2.6659,2.8856,2.6201,48.73M,6.36%,EOS
5-Jan-19,2.6659,2.6885,2.7582,2.6463,44.47M,-0.84%,EOS
4-Jan-19,2.6885,2.6526,2.7436,2.5797,43.58M,1.39%,EOS
3-Jan-19,2.6515,2.8416,2.8416,2.5994,32.92M,-6.69%,EOS
2-Jan-19,2.8416,2.6349,2.8751,2.6086,48.28M,7.82%,EOS
1-Jan-19,2.6354,2.5469,2.6472,2.504,40.72M,3.47%,EOS
31-Dec-18,2.5469,2.6495,2.6526,2.462,46.84M,-3.87%,EOS
30-Dec-18,2.6494,2.5639,2.6646,2.487,42.31M,3.33%,EOS
29-Dec-18,2.5639,2.6283,2.755,2.5421,47.73M,-2.46%,EOS
28-Dec-18,2.6287,2.2893,2.6846,2.2381,53.40M,14.83%,EOS
27-Dec-18,2.2893,2.5682,2.5905,2.2564,52.21M,-10.86%,EOS
26-Dec-18,2.5682,2.5021,2.6777,2.4679,57.74M,2.64%,EOS
25-Dec-18,2.5021,2.7699,2.7699,2.4003,58.49M,-9.68%,EOS
24-Dec-18,2.7702,2.8014,3.1032,2.749,81.77M,-1.14%,EOS
23-Dec-18,2.802,2.6023,2.9614,2.5883,76.46M,7.68%,EOS
22-Dec-18,2.6022,2.6089,2.6372,2.479,50.27M,-0.25%,EOS
21-Dec-18,2.6089,2.7206,2.8172,2.5078,73.79M,-4.10%,EOS
20-Dec-18,2.7205,2.456,2.7739,2.4279,90.74M,10.77%,EOS
19-Dec-18,2.456,2.6405,2.8049,2.4502,97.15M,-7.00%,EOS
18-Dec-18,2.6408,2.4021,2.7077,2.3696,103.07M,9.94%,EOS
17-Dec-18,2.4021,1.9275,2.4911,1.9217,91.45M,24.62%,EOS
16-Dec-18,1.9275,1.9085,1.9957,1.8974,51.03M,0.98%,EOS
15-Dec-18,1.9088,1.8403,1.9441,1.8097,52.54M,3.72%,EOS
14-Dec-18,1.8403,1.8582,1.8981,1.7783,63.59M,-0.95%,EOS
13-Dec-18,1.858,1.98,1.9924,1.8319,59.30M,-6.16%,EOS
12-Dec-18,1.98,1.847,2.0559,1.846,64.65M,6.34%,EOS
11-Dec-18,1.862,1.9235,1.9446,1.7804,70.86M,-3.19%,EOS
10-Dec-18,1.9234,2.0106,2.0744,1.8979,77.44M,-4.39%,EOS
9-Dec-18,2.0118,1.8318,2.1268,1.7522,66.21M,9.84%,EOS
8-Dec-18,1.8316,1.7459,1.9565,1.6393,87.65M,4.91%,EOS
7-Dec-18,1.7459,1.8547,1.8727,1.5468,96.62M,-5.86%,EOS
6-Dec-18,1.8546,2.2013,2.2765,1.8446,66.91M,-15.75%,EOS
5-Dec-18,2.2013,2.466,2.4765,2.1856,60.24M,-10.71%,EOS
4-Dec-18,2.4653,2.6161,2.6403,2.3215,47.95M,-5.75%,EOS
3-Dec-18,2.6159,2.8693,2.8836,2.5513,52.95M,-8.82%,EOS
2-Dec-18,2.869,2.9516,3.024,2.8233,41.32M,-2.80%,EOS
1-Dec-18,2.9516,2.9034,3.0318,2.8454,42.84M,1.63%,EOS
30-Nov-18,2.9043,3.0327,3.0719,2.8147,49.01M,-4.24%,EOS
29-Nov-18,3.0327,3.2853,3.3052,2.9175,43.89M,-7.69%,EOS
28-Nov-18,3.2853,3.044,3.3729,3.0438,45.51M,7.86%,EOS
27-Nov-18,3.046,3.2531,3.2581,2.9043,46.00M,-6.37%,EOS
26-Nov-18,3.2531,3.411,3.463,3.1296,47.57M,-4.56%,EOS
25-Nov-18,3.4087,3.3181,3.5031,3.0948,64.04M,2.73%,EOS
24-Nov-18,3.3181,3.663,3.7418,3.2159,45.58M,-9.42%,EOS
23-Nov-18,3.663,3.5398,3.7243,3.4345,49.16M,3.61%,EOS
22-Nov-18,3.5354,3.859,3.9112,3.5349,37.99M,-8.38%,EOS
21-Nov-18,3.8588,3.8283,3.9553,3.6421,57.12M,0.80%,EOS
20-Nov-18,3.8283,4.1424,4.2518,3.4722,85.84M,-7.60%,EOS
19-Nov-18,4.1434,4.6413,4.6487,4.0487,72.61M,-10.72%,EOS
18-Nov-18,4.641,4.6329,4.7135,4.5909,30.24M,0.18%,EOS
17-Nov-18,4.6328,4.6039,4.6408,4.5297,28.17M,0.63%,EOS
16-Nov-18,4.6039,4.7706,4.8063,4.5149,32.77M,-3.49%,EOS
15-Nov-18,4.7706,4.7715,4.8054,4.3012,54.41M,-0.02%,EOS
14-Nov-18,4.7717,5.3,5.3417,4.5325,50.42M,-9.97%,EOS
13-Nov-18,5.3,5.4583,5.4723,5.167,19.68M,-2.90%,EOS
12-Nov-18,5.4583,5.4945,5.514,5.3967,15.20M,-0.69%,EOS
11-Nov-18,5.4965,5.4344,5.5179,5.302,17.03M,1.14%,EOS
10-Nov-18,5.4344,5.4087,5.4635,5.4032,14.63M,0.48%,EOS
9-Nov-18,5.4087,5.5294,5.5762,5.3762,17.90M,-2.18%,EOS
8-Nov-18,5.5294,5.6853,5.7055,5.5165,18.82M,-2.74%,EOS
7-Nov-18,5.6853,5.7778,5.8302,5.6233,18.24M,-1.59%,EOS
6-Nov-18,5.7768,5.5048,5.7787,5.4954,19.78M,4.97%,EOS
5-Nov-18,5.5034,5.5381,5.546,5.4359,14.47M,-0.63%,EOS
4-Nov-18,5.5382,5.3253,5.6066,5.2988,20.30M,3.99%,EOS
3-Nov-18,5.3255,5.3993,5.4145,5.304,14.63M,-1.37%,EOS
2-Nov-18,5.3993,5.2874,5.4159,5.2863,16.36M,2.12%,EOS
1-Nov-18,5.2874,5.2503,5.3462,5.2343,13.66M,0.71%,EOS
31-Oct-18,5.2503,5.1448,5.3066,5.0917,15.75M,2.05%,EOS
30-Oct-18,5.1448,5.1522,5.1838,5.1177,12.76M,-0.15%,EOS
29-Oct-18,5.1523,5.4364,5.4431,5.0896,18.44M,-5.23%,EOS
28-Oct-18,5.4364,5.4204,5.4462,5.4149,7.60M,0.29%,EOS
27-Oct-18,5.4204,5.4462,5.4611,5.408,6.96M,-0.47%,EOS
26-Oct-18,5.4462,5.433,5.4972,5.3911,10.27M,0.24%,EOS
25-Oct-18,5.4331,5.4386,5.4666,5.4069,8.54M,-0.10%,EOS
24-Oct-18,5.4386,5.4857,5.5179,5.4309,10.59M,-0.86%,EOS
23-Oct-18,5.4856,5.4699,5.5196,5.4209,12.23M,0.29%,EOS
22-Oct-18,5.4699,5.5164,5.555,5.4531,11.61M,-0.84%,EOS
21-Oct-18,5.5163,5.4582,5.6249,5.455,13.64M,1.06%,EOS
20-Oct-18,5.4586,5.4045,5.5118,5.387,11.88M,0.99%,EOS
19-Oct-18,5.4053,5.4604,5.4839,5.3625,12.80M,-1.04%,EOS
18-Oct-18,5.4619,5.5734,5.6293,5.4256,14.47M,-2.00%,EOS
17-Oct-18,5.5734,5.5831,5.6164,5.5222,8.96M,-0.17%,EOS
16-Oct-18,5.5831,5.5985,5.6728,5.5114,10.89M,-0.27%,EOS
15-Oct-18,5.5985,5.2105,6.0121,5.1634,44.27M,7.48%,EOS
14-Oct-18,5.2087,5.305,5.3299,5.1834,14.62M,-1.81%,EOS
13-Oct-18,5.3049,5.2034,5.33,5.185,11.40M,1.94%,EOS
12-Oct-18,5.2039,5.0927,5.3195,5.0224,20.63M,2.14%,EOS
11-Oct-18,5.0949,5.9232,5.9236,5.0255,42.51M,-13.99%,EOS
10-Oct-18,5.9239,5.9209,5.9551,5.8128,14.59M,0.05%,EOS
9-Oct-18,5.9212,5.937,5.969,5.8489,16.10M,-0.26%,EOS
8-Oct-18,5.9364,5.7618,6.0135,5.7271,24.03M,3.03%,EOS
7-Oct-18,5.7618,5.7334,5.7943,5.6384,15.29M,0.45%,EOS
6-Oct-18,5.7362,5.8242,5.8493,5.6788,13.41M,-1.51%,EOS
5-Oct-18,5.8242,5.7984,5.886,5.6728,18.18M,0.45%,EOS
4-Oct-18,5.7983,5.6168,5.8809,5.6042,22.22M,3.25%,EOS
3-Oct-18,5.616,5.6204,5.6836,5.4495,18.11M,-0.08%,EOS
2-Oct-18,5.6204,5.7357,5.7712,5.5529,14.58M,-2.00%,EOS
1-Oct-18,5.7351,5.7149,5.8305,5.5304,26.27M,0.35%,EOS
30-Sep-18,5.7149,5.7458,5.9114,5.3773,33.56M,-0.61%,EOS
29-Sep-18,5.7497,5.7638,5.8236,5.4667,22.24M,-0.25%,EOS
28-Sep-18,5.7638,5.824,6.032,5.6629,29.95M,-1.02%,EOS
27-Sep-18,5.8234,5.5452,5.9554,5.3613,25.21M,5.02%,EOS
26-Sep-18,5.5452,5.4032,5.7638,5.2374,24.66M,2.62%,EOS
25-Sep-18,5.4035,5.6744,5.6758,5.032,41.61M,-4.77%,EOS
24-Sep-18,5.6745,6.0191,6.0318,5.5978,26.99M,-5.72%,EOS
23-Sep-18,6.0187,5.9448,6.1505,5.8264,22.85M,1.24%,EOS
22-Sep-18,5.945,6.1917,6.2938,5.775,29.73M,-3.98%,EOS
21-Sep-18,6.1917,5.7515,6.1928,5.6358,43.57M,7.65%,EOS
20-Sep-18,5.7518,5.2353,5.847,5.185,33.75M,9.86%,EOS
19-Sep-18,5.2355,5.0618,5.3036,4.9315,29.81M,3.33%,EOS
18-Sep-18,5.0669,4.85,5.2321,4.7766,33.50M,4.45%,EOS
17-Sep-18,4.851,5.4113,5.472,4.6738,40.07M,-10.35%,EOS
16-Sep-18,5.4113,5.3483,5.4841,5.2056,19.26M,1.13%,EOS
15-Sep-18,5.351,5.2273,5.5162,5.2182,19.62M,2.29%,EOS
14-Sep-18,5.2312,5.381,5.5273,5.132,27.23M,-2.78%,EOS
13-Sep-18,5.3808,4.9413,5.5485,4.9329,37.38M,8.89%,EOS
12-Sep-18,4.9413,4.986,4.9863,4.7624,26.23M,-0.90%,EOS
11-Sep-18,4.986,5.033,5.0902,4.736,22.10M,-0.90%,EOS
10-Sep-18,5.0312,4.9433,5.1066,4.889,17.16M,1.79%,EOS
9-Sep-18,4.9428,4.7429,5.179,4.6617,28.80M,4.22%,EOS
8-Sep-18,4.7428,5.0572,5.1441,4.6432,22.00M,-6.22%,EOS
7-Sep-18,5.0576,5.2338,5.3293,4.9462,28.29M,-3.33%,EOS
6-Sep-18,5.2319,5.1515,5.2469,4.8537,41.98M,1.56%,EOS
5-Sep-18,5.1513,6.4807,6.5761,5.135,54.00M,-20.51%,EOS
4-Sep-18,6.4807,6.4652,6.6248,6.3324,24.22M,0.20%,EOS
3-Sep-18,6.4678,6.634,6.7113,6.3816,22.41M,-2.51%,EOS
2-Sep-18,6.634,6.6623,6.6867,6.3296,28.25M,-0.42%,EOS
1-Sep-18,6.6623,6.4135,6.8056,6.4091,30.50M,3.89%,EOS
31-Aug-18,6.4126,6.0742,6.4863,5.9335,31.32M,5.57%,EOS
30-Aug-18,6.0742,6.1367,6.2564,5.7636,32.66M,-1.03%,EOS
29-Aug-18,6.1371,5.9098,6.4682,5.7934,46.56M,3.84%,EOS
28-Aug-18,5.9102,5.382,6.0199,5.2983,31.34M,9.81%,EOS
27-Aug-18,5.3823,4.9497,5.399,4.9072,29.25M,8.74%,EOS
26-Aug-18,4.9497,5.0324,5.0448,4.8277,18.22M,-1.64%,EOS
25-Aug-18,5.0324,5.0442,5.0667,4.9103,15.60M,-0.23%,EOS
24-Aug-18,5.0442,4.8999,5.1034,4.7801,31.88M,2.94%,EOS
23-Aug-18,4.8999,4.7036,4.9446,4.6617,24.40M,4.17%,EOS
22-Aug-18,4.7036,4.9027,5.3311,4.5306,39.15M,-4.06%,EOS
21-Aug-18,4.9027,4.705,4.9502,4.6711,24.10M,4.20%,EOS
20-Aug-18,4.705,5.2906,5.3514,4.6681,33.43M,-11.07%,EOS
19-Aug-18,5.2906,5.08,5.3814,4.9481,37.36M,4.15%,EOS
18-Aug-18,5.08,5.5813,5.6439,4.8369,56.26M,-8.98%,EOS
17-Aug-18,5.5812,4.5167,5.5812,4.4971,58.71M,23.61%,EOS
16-Aug-18,4.515,4.6228,4.8079,4.4443,45.25M,-2.33%,EOS
15-Aug-18,4.6228,4.5738,4.911,4.5592,44.66M,1.07%,EOS
14-Aug-18,4.5737,4.5814,4.5846,4.1798,43.82M,-0.15%,EOS
13-Aug-18,4.5806,4.9663,5.1534,4.4902,43.76M,-7.77%,EOS
12-Aug-18,4.9663,4.9609,5.1656,4.9098,32.10M,0.12%,EOS
11-Aug-18,4.9606,5.2455,5.3087,4.8368,39.90M,-5.40%,EOS
10-Aug-18,5.2435,5.76,5.8042,5.1678,43.00M,-8.93%,EOS
9-Aug-18,5.7579,5.5823,5.9355,5.4219,36.54M,3.22%,EOS
8-Aug-18,5.5782,6.5667,6.5667,5.3345,55.42M,-15.05%,EOS
7-Aug-18,6.5665,7.0502,7.1794,6.5316,31.90M,-6.88%,EOS
6-Aug-18,7.0517,7.0322,7.1544,6.943,23.22M,0.28%,EOS
5-Aug-18,7.0322,6.9761,7.0854,6.9121,19.71M,0.80%,EOS
4-Aug-18,6.9761,7.179,7.3052,6.8905,20.65M,-2.83%,EOS
3-Aug-18,7.179,7.0189,7.2457,6.8643,24.10M,2.28%,EOS
2-Aug-18,7.0189,7.2231,7.3171,6.9056,28.92M,-2.79%,EOS
1-Aug-18,7.2206,7.3256,7.3966,6.8843,28.45M,-1.41%,EOS
31-Jul-18,7.3235,7.7415,7.7489,7.11,29.38M,-5.45%,EOS
30-Jul-18,7.7453,8.3292,8.3457,7.4503,31.15M,-7.01%,EOS
29-Jul-18,8.3292,8.3706,8.4489,8.1495,14.94M,-0.50%,EOS
28-Jul-18,8.371,8.4296,8.4451,8.1211,11.74M,-0.71%,EOS
27-Jul-18,8.4306,8.3033,8.5295,8.0109,23.72M,1.53%,EOS
26-Jul-18,8.3039,8.5224,8.8575,8.216,22.86M,-2.56%,EOS
25-Jul-18,8.5224,8.5956,8.9636,8.3561,27.53M,-0.85%,EOS
24-Jul-18,8.5956,7.9326,8.6857,7.7217,38.50M,8.36%,EOS
23-Jul-18,7.9326,7.8568,8.4072,7.8139,32.66M,0.91%,EOS
22-Jul-18,7.8608,8.0023,8.2578,7.732,16.88M,-1.77%,EOS
21-Jul-18,8.0023,7.8549,8.244,7.5989,16.57M,1.88%,EOS
20-Jul-18,7.8549,8.4221,8.5118,7.7283,32.00M,-6.73%,EOS
19-Jul-18,8.4221,8.6055,8.7507,8.1578,29.52M,-2.13%,EOS
18-Jul-18,8.605,8.7796,9.3304,8.4492,33.84M,-1.99%,EOS
17-Jul-18,8.7794,8.0964,8.9548,7.8402,33.51M,8.44%,EOS
16-Jul-18,8.0964,7.4031,8.1671,7.2389,28.27M,9.36%,EOS
15-Jul-18,7.4031,6.9312,7.5129,6.8647,21.47M,6.81%,EOS
14-Jul-18,6.9312,6.8999,7.0879,6.7842,24.85M,0.45%,EOS
13-Jul-18,6.8999,6.8961,7.1938,6.6916,26.50M,0.05%,EOS
12-Jul-18,6.8961,7.0775,7.0983,6.5355,29.77M,-2.56%,EOS
11-Jul-18,7.0775,7.1004,7.3624,6.7343,39.22M,-0.33%,EOS
10-Jul-18,7.1011,7.7167,7.8156,7.0515,44.52M,-7.84%,EOS
9-Jul-18,7.7054,8.6924,8.6979,7.4848,23.60M,-11.35%,EOS
8-Jul-18,8.6923,8.8588,8.9934,8.6836,30.77M,-1.87%,EOS
7-Jul-18,8.8583,8.6467,8.9062,8.3988,14.77M,2.45%,EOS
6-Jul-18,8.6467,8.8609,8.8768,8.3263,20.18M,-2.40%,EOS
5-Jul-18,8.8597,8.8876,9.2033,8.6786,21.17M,-0.31%,EOS
4-Jul-18,8.8876,8.8151,9.3897,8.5095,25.12M,0.87%,EOS
3-Jul-18,8.8107,8.9729,9.4653,8.7341,31.60M,-1.81%,EOS
2-Jul-18,8.9728,8.1259,9.1379,7.9343,30.24M,10.42%,EOS
1-Jul-18,8.1259,8.1194,8.3821,7.7896,16.99M,0.08%,EOS
30-Jun-18,8.1191,7.7582,8.2867,7.7582,25.27M,4.65%,EOS
29-Jun-18,7.7582,7.3798,7.9039,7.1013,26.33M,5.13%,EOS
28-Jun-18,7.3798,7.993,8.0483,7.319,22.82M,-7.68%,EOS
27-Jun-18,7.9934,7.3781,8.2427,7.2797,27.08M,8.27%,EOS
26-Jun-18,7.3828,8.1763,8.255,7.3617,26.82M,-9.70%,EOS
25-Jun-18,8.1761,7.9975,8.4856,7.6815,30.84M,2.23%,EOS
24-Jun-18,7.998,8.3482,8.4034,6.9217,62.31M,-4.19%,EOS
23-Jun-18,8.3477,8.5355,8.7508,8.0274,23.49M,-2.21%,EOS
22-Jun-18,8.5363,10.4088,10.4354,8.2785,45.29M,-18.00%,EOS
21-Jun-18,10.4099,10.4203,10.8354,10.237,14.45M,-0.13%,EOS
20-Jun-18,10.423,10.7064,10.77,10.1985,16.06M,-2.67%,EOS
19-Jun-18,10.7091,10.6851,10.8661,10.4436,14.75M,0.23%,EOS
18-Jun-18,10.6845,10.3244,10.8534,10.1399,16.09M,3.50%,EOS
17-Jun-18,10.3229,10.5373,10.7037,10.283,11.63M,-2.03%,EOS
16-Jun-18,10.5373,10.5104,10.7933,10.1941,19.12M,0.25%,EOS
15-Jun-18,10.5108,11.21,11.2294,10.375,26.56M,-6.17%,EOS
14-Jun-18,11.202,10.0094,11.5889,9.4657,42.37M,11.92%,EOS
13-Jun-18,10.0093,10.0156,10.3187,9.1316,40.35M,-0.06%,EOS
12-Jun-18,10.0156,11.3228,11.3385,9.6797,31.96M,-11.55%,EOS
11-Jun-18,11.3235,11.0376,11.4589,10.389,42.39M,2.59%,EOS
10-Jun-18,11.0376,14.0521,14.0521,10.0892,67.48M,-21.45%,EOS
9-Jun-18,14.0517,13.9827,14.9481,13.9518,23.80M,0.50%,EOS
8-Jun-18,13.9823,14.6355,14.8067,13.5495,24.54M,-4.40%,EOS
7-Jun-18,14.6266,13.9024,14.648,13.6644,19.03M,5.20%,EOS
6-Jun-18,13.903,14.1584,14.2626,13.3622,19.04M,-1.76%,EOS
5-Jun-18,14.1527,13.4674,14.2198,12.8215,30.99M,5.09%,EOS
4-Jun-18,13.4678,14.5358,14.8411,13.2411,28.13M,-7.35%,EOS
3-Jun-18,14.5355,14.7661,15.4215,14.2845,29.96M,-1.56%,EOS
2-Jun-18,14.7664,12.2155,15.5607,12.1232,58.64M,20.88%,EOS
1-Jun-18,12.2159,12.2479,12.4096,11.906,21.73M,-0.24%,EOS
31-May-18,12.2458,11.8942,12.7209,11.8463,22.22M,2.96%,EOS
30-May-18,11.8932,12.1206,12.5644,11.7226,24.41M,-1.82%,EOS
29-May-18,12.1139,11.5023,12.4465,10.7153,42.80M,5.32%,EOS
28-May-18,11.5018,12.4343,12.9129,11.34,34.78M,-7.50%,EOS
27-May-18,12.4341,12.2271,12.5158,11.9685,18.31M,1.69%,EOS
26-May-18,12.2271,12.1732,12.8163,11.836,22.41M,0.44%,EOS
25-May-18,12.1737,12.7482,12.7732,11.5812,34.49M,-4.54%,EOS
24-May-18,12.7528,10.6646,12.8899,10.34,48.52M,19.59%,EOS
23-May-18,10.6634,12.1142,12.3367,10.498,46.39M,-11.98%,EOS
22-May-18,12.1153,13.4111,13.4498,12.0224,21.74M,-9.66%,EOS
21-May-18,13.4113,13.9485,14.1402,13.1947,17.89M,-3.85%,EOS
20-May-18,13.9483,13.1162,14.1891,12.9317,20.33M,6.26%,EOS
19-May-18,13.1264,12.8928,13.4037,12.4677,20.44M,1.81%,EOS
18-May-18,12.8935,12.2446,13.1543,11.9368,31.25M,5.30%,EOS
17-May-18,12.2448,12.6572,13.9119,12.0327,37.76M,-3.26%,EOS
16-May-18,12.6571,12.8345,13.0746,11.8666,33.04M,-1.38%,EOS
15-May-18,12.8344,13.7945,14.3388,12.4558,28.04M,-6.90%,EOS
14-May-18,13.7861,14.6084,14.7262,12.986,35.37M,-5.63%,EOS
13-May-18,14.6092,13.9764,15.0568,13.4691,30.65M,4.26%,EOS
12-May-18,14.0118,14.7911,15.1036,12.0712,66.81M,-4.96%,EOS
11-May-18,14.7423,17.3352,17.6548,14.2883,62.48M,-15.00%,EOS
10-May-18,17.3446,17.7981,18.7319,17.3347,20.59M,-2.52%,EOS
9-May-18,17.7935,17.9744,18.0663,17.0597,15.92M,-0.95%,EOS
8-May-18,17.9648,18.2877,18.8263,17.7003,19.14M,0.34%,EOS
7-May-18,17.9035,17.3928,18.4842,16.6551,27.58M,2.94%,EOS
6-May-18,17.3916,17.7033,17.9001,16.6019,19.73M,-2.17%,EOS
5-May-18,17.7768,17.0492,18.6161,17.0279,21.93M,4.22%,EOS
4-May-18,17.0572,17.6667,18.0206,16.3223,26.30M,-3.49%,EOS
3-May-18,17.6743,19.24,19.3432,16.8886,34.79M,-8.13%,EOS
2-May-18,19.2378,18.7409,19.5115,18.1986,32.03M,2.61%,EOS
1-May-18,18.7492,17.4544,19.0428,15.942,43.65M,7.42%,EOS
30-Apr-18,17.4544,21.4721,21.6421,16.5599,55.90M,-18.50%,EOS
29-Apr-18,21.4178,18.7787,22.9794,18.7722,57.98M,13.99%,EOS
28-Apr-18,18.7888,16.5866,19.4881,16.4608,40.17M,13.36%,EOS
27-Apr-18,16.5749,15.4229,17.8702,14.9278,40.89M,7.21%,EOS
26-Apr-18,15.4596,14.4356,15.5112,13.8888,30.67M,7.12%,EOS
25-Apr-18,14.4316,15.1329,15.4762,13.3912,65.03M,-4.68%,EOS
24-Apr-18,15.1404,11.6093,16.0038,11.6021,62.97M,30.43%,EOS
23-Apr-18,11.6078,11.3038,11.8681,11.2516,16.24M,2.69%,EOS
22-Apr-18,11.3038,11.1064,11.8509,10.7488,29.74M,1.78%,EOS
21-Apr-18,11.1064,11.4446,11.605,10.2381,32.66M,-2.95%,EOS
20-Apr-18,11.4445,9.4823,11.6448,9.4823,43.20M,20.92%,EOS
19-Apr-18,9.4645,9.0491,9.4645,8.9405,16.43M,4.60%,EOS
18-Apr-18,9.0483,8.4894,9.3255,8.462,17.59M,6.49%,EOS
17-Apr-18,8.4971,8.1155,9.0679,8.0866,26.81M,4.70%,EOS
16-Apr-18,8.1156,8.5215,8.5252,7.8121,17.30M,-4.76%,EOS
15-Apr-18,8.5216,8.7225,8.8082,7.8428,26.89M,-2.28%,EOS
14-Apr-18,8.7201,8.8177,9.0475,8.1058,25.37M,-1.06%,EOS
13-Apr-18,8.8134,8.8316,9.5062,8.6259,31.97M,-0.21%,EOS
12-Apr-18,8.8316,8.5272,9.2502,7.8693,57.17M,3.42%,EOS
11-Apr-18,8.5392,5.9877,8.8652,5.9758,58.97M,42.61%,EOS
10-Apr-18,5.9878,5.8578,6.0669,5.7686,9.02M,2.22%,EOS
9-Apr-18,5.8578,5.9783,6.0716,5.7699,9.65M,-1.90%,EOS
8-Apr-18,5.9709,5.8877,6.0117,5.8371,5.23M,1.41%,EOS
7-Apr-18,5.8877,5.8306,5.9956,5.7917,7.55M,0.98%,EOS
6-Apr-18,5.8307,6.3138,6.3613,5.6912,17.16M,-7.60%,EOS
5-Apr-18,6.31,5.6608,6.3981,5.4298,20.22M,11.38%,EOS
4-Apr-18,5.6653,6.0272,6.0568,5.5215,10.57M,-6.01%,EOS
3-Apr-18,6.0274,5.8134,6.1256,5.7344,11.07M,3.68%,EOS
2-Apr-18,5.8134,5.5956,5.8827,5.4948,12.83M,3.89%,EOS
1-Apr-18,5.5956,5.9305,5.9982,5.1493,21.43M,-5.58%,EOS
31-Mar-18,5.9264,6.0168,6.1488,5.8852,10.23M,-1.50%,EOS
30-Mar-18,6.0168,5.8821,6.166,5.7389,22.62M,2.29%,EOS
29-Mar-18,5.8821,6.1996,6.2857,5.7974,24.80M,-5.12%,EOS
28-Mar-18,6.1996,5.8026,6.4546,5.65,21.81M,6.78%,EOS
27-Mar-18,5.8061,5.7944,6.4842,5.2071,36.58M,0.20%,EOS
26-Mar-18,5.7946,6.441,6.5015,5.2994,28.57M,-10.04%,EOS
25-Mar-18,6.441,6.5146,6.6694,6.3746,11.34M,-1.17%,EOS
24-Mar-18,6.517,6.9411,7.0493,6.4996,12.96M,-6.11%,EOS
23-Mar-18,6.9411,6.8959,7.0302,6.2671,23.44M,0.66%,EOS
22-Mar-18,6.8956,6.8749,7.2233,6.1576,30.83M,0.21%,EOS
21-Mar-18,6.8808,5.9449,7.1868,5.8796,30.92M,15.70%,EOS
20-Mar-18,5.947,6.1535,6.3175,5.3765,32.73M,-3.37%,EOS
19-Mar-18,6.1546,4.6056,6.2135,4.5181,30.70M,33.75%,EOS
18-Mar-18,4.6018,4.6315,4.7204,3.8953,24.53M,-0.69%,EOS
17-Mar-18,4.6336,5.0417,5.0932,4.5834,9.19M,-8.15%,EOS
16-Mar-18,5.0448,5.1181,5.332,4.8962,11.67M,-1.44%,EOS
15-Mar-18,5.1184,5.2752,5.3133,4.8074,19.91M,-2.88%,EOS
14-Mar-18,5.2702,5.7973,5.928,5.1655,13.17M,-9.08%,EOS
13-Mar-18,5.7966,5.7403,5.933,5.5973,11.26M,0.98%,EOS
12-Mar-18,5.7404,6.0319,6.1545,5.6011,10.65M,-4.83%,EOS
11-Mar-18,6.0319,5.6854,6.1749,5.4802,14.33M,6.10%,EOS
10-Mar-18,5.6854,5.9992,6.4147,5.6649,14.95M,-5.39%,EOS
9-Mar-18,6.009,6.0894,6.155,5.2656,24.07M,-1.32%,EOS
8-Mar-18,6.0894,6.3899,6.6746,5.9482,16.05M,-4.60%,EOS
7-Mar-18,6.3827,7.1492,7.282,5.996,21.60M,-10.72%,EOS
6-Mar-18,7.1492,7.9617,7.9617,7.019,10.58M,-10.22%,EOS
5-Mar-18,7.9634,8.1529,8.2676,7.963,4.87M,-2.27%,EOS
4-Mar-18,8.148,7.92,8.157,7.7312,5.73M,2.88%,EOS
3-Mar-18,7.92,8.0068,8.2537,7.8741,4.18M,-1.26%,EOS
2-Mar-18,8.0215,8.5456,8.6556,7.9294,6.96M,-6.05%,EOS
1-Mar-18,8.5383,8.2077,8.5383,8.1395,6.10M,4.03%,EOS
28-Feb-18,8.2075,8.3782,9.1053,8.1934,11.23M,-2.10%,EOS
27-Feb-18,8.3839,7.9798,8.8003,7.8699,12.25M,5.09%,EOS
26-Feb-18,7.978,7.7126,8.357,7.4588,9.83M,3.44%,EOS
25-Feb-18,7.7123,7.9343,7.9785,7.5203,7.11M,-2.85%,EOS
24-Feb-18,7.9387,8.259,8.472,7.7011,9.15M,-3.91%,EOS
23-Feb-18,8.262,7.7967,8.5213,7.6609,10.26M,5.97%,EOS
22-Feb-18,7.7967,8.3135,8.6429,7.6408,11.88M,-6.22%,EOS
21-Feb-18,8.3138,8.8888,8.9387,8.0899,10.58M,-6.58%,EOS
20-Feb-18,8.8995,9.48,9.8254,8.7893,7.53M,-6.12%,EOS
19-Feb-18,9.48,9.0774,9.6412,9.0583,5.94M,4.43%,EOS
18-Feb-18,9.0775,9.9797,10.0483,8.9243,11.22M,-9.04%,EOS
17-Feb-18,9.9798,9.8333,10.0169,9.73,7.29M,1.51%,EOS
16-Feb-18,9.8315,9.8628,9.9504,9.3623,6.98M,-0.38%,EOS
15-Feb-18,9.8692,9.8277,10.0632,9.3694,10.56M,0.35%,EOS
14-Feb-18,9.8348,8.9293,9.883,8.9177,12.25M,10.14%,EOS
13-Feb-18,8.9294,9.117,9.1698,8.6367,7.59M,-2.06%,EOS
12-Feb-18,9.1169,8.3334,9.2503,8.3334,10.16M,9.40%,EOS
11-Feb-18,8.3334,8.9259,8.9444,8.02,11.02M,-6.64%,EOS
10-Feb-18,8.9259,9.5135,9.8672,8.4566,14.03M,-6.14%,EOS
9-Feb-18,9.5095,8.3564,9.5708,7.9822,13.05M,13.78%,EOS
8-Feb-18,8.3581,7.6881,8.7234,7.6881,13.23M,8.64%,EOS
7-Feb-18,7.6936,8.2833,8.9788,7.515,21.06M,-7.12%,EOS
6-Feb-18,8.2833,7.0674,8.4253,5.8914,38.46M,16.98%,EOS
5-Feb-18,7.0812,8.942,9.2968,6.9107,22.75M,-20.78%,EOS
4-Feb-18,8.9385,10.6254,10.8599,8.6698,13.65M,-15.78%,EOS
3-Feb-18,10.6134,10.3069,11.2573,9.2747,12.04M,3.06%,EOS
2-Feb-18,10.2983,10.1395,11.0993,8.6002,24.02M,1.57%,EOS
1-Feb-18,10.1395,12.0082,12.1831,9.8407,16.96M,-15.56%,EOS
31-Jan-18,12.0082,11.3712,12.1794,10.3804,13.30M,5.60%,EOS
30-Jan-18,11.371,13.5652,13.5954,11.0405,15.19M,-16.08%,EOS
29-Jan-18,13.55,14.758,14.85,13.32,6.30M,-8.19%,EOS
28-Jan-18,14.759,14.38,14.96,14.13,6.03M,2.58%,EOS
27-Jan-18,14.388,14.241,14.7,13.866,5.02M,1.05%,EOS
26-Jan-18,14.239,14.251,14.767,12.881,10.38M,-0.08%,EOS
25-Jan-18,14.251,13.95,15.1,13.486,12.58M,2.03%,EOS
24-Jan-18,13.968,12.876,13.968,12.5,8.35M,8.46%,EOS
23-Jan-18,12.878,13.386,13.906,11.605,17.39M,-3.79%,EOS
22-Jan-18,13.385,13.44,15.129,12.466,23.21M,-0.36%,EOS
21-Jan-18,13.433,15.547,15.574,12.1,21.75M,-13.48%,EOS
20-Jan-18,15.526,11.065,15.75,11.037,20.41M,40.34%,EOS
19-Jan-18,11.063,10.182,11.662,9.735,10.44M,8.60%,EOS
18-Jan-18,10.187,10.15,11.3,9.6902,11.03M,0.34%,EOS
17-Jan-18,10.152,10,10.53,7.51,22.12M,1.19%,EOS
16-Jan-18,10.033,12.78,12.985,8.3123,29.31M,-21.49%,EOS
15-Jan-18,12.78,13.26,14.7,12.671,8.62M,-3.40%,EOS
14-Jan-18,13.23,16,16.086,12.888,13.55M,-17.31%,EOS
13-Jan-18,16,13.8,18.655,13.431,35.16M,16.19%,EOS
12-Jan-18,13.77,11.272,15.22,10.599,25.69M,22.11%,EOS
11-Jan-18,11.277,11.2,12.45,8.9335,20.83M,0.69%,EOS
10-Jan-18,11.2,9.2294,11.48,8.3671,15.90M,21.34%,EOS
9-Jan-18,9.23,9.6,9.74,8.74,4.36M,-3.85%,EOS
8-Jan-18,9.6,10.16,10.39,8.13,9.85M,-5.51%,EOS
7-Jan-18,10.16,9.83,10.9,9.76,7.03M,3.36%,EOS
6-Jan-18,9.83,9.29,9.9,8.72,5.63M,5.81%,EOS
5-Jan-18,9.29,9.47,9.85,8.51,8.01M,-1.90%,EOS
4-Jan-18,9.47,9.43,10.5,9.15,15.07M,0.42%,EOS
3-Jan-18,9.43,8.3,9.43,7.83,8.02M,13.61%,EOS
2-Jan-18,8.3,7.63,8.6,7.62,8.31M,8.78%,EOS
1-Jan-18,7.63,7.69,7.95,7.2,3.56M,-0.78%,EOS
31-Dec-17,7.69,7.08,7.83,7,4.19M,8.62%,EOS
30-Dec-17,7.08,8.12,8.2,6.5,10.00M,-12.81%,EOS
29-Dec-17,8.12,8.1,8.74,7.9,7.35M,0.25%,EOS
28-Dec-17,8.1,8.72,8.76,7.25,8.80M,-7.11%,EOS
27-Dec-17,8.72,8.6,9.4,8.05,9.62M,1.40%,EOS
26-Dec-17,8.6,8.15,8.71,8.03,8.80M,5.52%,EOS
25-Dec-17,8.15,8,8.84,7.61,6.69M,1.87%,EOS
24-Dec-17,8,8.26,8.42,6.7,12.58M,-3.15%,EOS
23-Dec-17,8.26,7.67,9.25,7.47,16.52M,7.69%,EOS
22-Dec-17,7.67,10.65,10.66,3,59.35M,-27.98%,EOS
21-Dec-17,10.65,10.45,11.88,9.7,18.06M,1.91%,EOS
20-Dec-17,10.45,11.49,11.7,9.7,17.73M,-9.05%,EOS
19-Dec-17,11.49,8.88,12.5,8.65,56.64M,29.39%,EOS
18-Dec-17,8.88,7.97,8.98,7.22,20.58M,11.42%,EOS
17-Dec-17,7.97,8.35,9,7.81,15.02M,-4.55%,EOS
16-Dec-17,8.35,7.93,9.3,7.89,23.13M,5.30%,EOS
15-Dec-17,7.93,8.2,8.37,6.51,29.64M,-3.29%,EOS
14-Dec-17,8.2,7.28,8.7,7.04,48.57M,12.64%,EOS
13-Dec-17,7.28,5.1,7.28,4.68,65.64M,42.75%,EOS
12-Dec-17,5.1,4.35,5.91,4.23,26.29M,17.24%,EOS
11-Dec-17,4.35,3.7,4.48,3.65,19.24M,17.57%,EOS
10-Dec-17,3.7,4.01,4.01,3.4,12.96M,-7.73%,EOS
9-Dec-17,4.01,4.22,4.64,3.68,17.40M,-4.98%,EOS
8-Dec-17,4.22,3.86,4.5,3.51,17.98M,9.33%,EOS
7-Dec-17,3.86,4.45,4.46,3.26,28.24M,-13.26%,EOS
6-Dec-17,4.45,4.23,5.12,4.16,28.32M,5.20%,EOS
5-Dec-17,4.23,4.04,4.57,3.65,31.82M,4.70%,EOS
4-Dec-17,4.04,3.58,4.21,3.4,19.58M,12.85%,EOS
3-Dec-17,3.58,3.91,4.12,3.4,17.75M,-8.44%,EOS
2-Dec-17,3.91,3.22,3.98,3.16,22.28M,21.43%,EOS
1-Dec-17,3.22,2.83,3.25,2.68,13.84M,13.78%,EOS
30-Nov-17,2.83,2.74,2.98,2.43,20.73M,3.28%,EOS
29-Nov-17,2.74,2.8,3.36,2.47,26.52M,-2.14%,EOS
28-Nov-17,2.8,2.86,3.06,2.71,20.71M,-2.10%,EOS
27-Nov-17,2.86,2.05,2.96,2.05,24.70M,39.51%,EOS
26-Nov-17,2.05,2.05,2.05,2.05,-,0.00%,EOS
25-Nov-17,2.05,1.88,2.07,1.78,13.77M,9.04%,EOS
24-Nov-17,1.88,1.87,1.91,1.71,12.99M,0.53%,EOS
23-Nov-17,1.87,1.89,1.99,1.85,13.08M,-1.06%,EOS
22-Nov-17,1.89,1.91,1.99,1.76,16.18M,-1.05%,EOS
21-Nov-17,1.91,1.99,2.12,1.83,21.87M,-4.02%,EOS
20-Nov-17,1.99,1.88,2.05,1.83,16.29M,5.85%,EOS
19-Nov-17,1.88,1.91,2.07,1.75,19.63M,-1.57%,EOS
18-Nov-17,1.91,1.74,2,1.65,20.26M,9.77%,EOS
17-Nov-17,1.74,1.67,1.82,1.58,21.55M,4.19%,EOS
16-Nov-17,1.67,1.67,1.87,1.56,31.17M,0.00%,EOS
15-Nov-17,1.67,1.66,1.73,1.51,29.20M,0.60%,EOS
14-Nov-17,1.66,1.18,1.7,1.18,38.18M,40.68%,EOS
13-Nov-17,1.18,1.09,1.19,1.08,9.98M,8.26%,EOS
12-Nov-17,1.09,1.16,1.19,1.02,13.10M,-6.03%,EOS
11-Nov-17,1.16,1.03,1.2,1,14.01M,12.62%,EOS
10-Nov-17,1.03,1.17,1.19,0.9801,16.45M,-11.97%,EOS
9-Nov-17,1.17,1.13,1.21,1.11,14.87M,3.54%,EOS
8-Nov-17,1.13,0.9528,1.19,0.9406,29.03M,18.60%,EOS
7-Nov-17,0.9528,0.9153,0.9958,0.9101,11.58M,4.10%,EOS
6-Nov-17,0.9153,1.09,1.09,0.9,23.23M,-16.03%,EOS
5-Nov-17,1.09,1.11,1.18,0.97,25.07M,-1.80%,EOS
4-Nov-17,1.11,1.2,1.3,1.04,31.21M,-7.50%,EOS
3-Nov-17,1.2,1.12,1.42,1.06,46.05M,7.14%,EOS
2-Nov-17,1.12,1.04,1.3,0.9151,58.53M,7.69%,EOS
1-Nov-17,1.04,0.7824,1.33,0.752,70.26M,32.92%,EOS
31-Oct-17,0.7824,0.713,0.7834,0.667,17.67M,9.73%,EOS
30-Oct-17,0.713,0.6651,0.747,0.64,22.06M,7.20%,EOS
29-Oct-17,0.6651,0.5354,0.68,0.535,19.23M,24.22%,EOS
28-Oct-17,0.5354,0.5215,0.5406,0.5163,3.79M,2.67%,EOS
27-Oct-17,0.5215,0.5135,0.5227,0.5,3.07M,1.56%,EOS
26-Oct-17,0.5135,0.5054,0.528,0.5016,3.05M,1.60%,EOS
25-Oct-17,0.5054,0.5123,0.5219,0.492,3.53M,-1.35%,EOS
24-Oct-17,0.5123,0.4941,0.5291,0.4777,5.94M,3.68%,EOS
23-Oct-17,0.4941,0.5177,0.5235,0.476,6.15M,-4.56%,EOS
22-Oct-17,0.5177,0.524,0.5375,0.5019,3.33M,-1.20%,EOS
21-Oct-17,0.524,0.5353,0.5419,0.506,7.39M,-2.11%,EOS
20-Oct-17,0.5353,0.5669,0.6,0.535,5.55M,-5.57%,EOS
19-Oct-17,0.5669,0.5405,0.5907,0.54,7.51M,4.88%,EOS
18-Oct-17,0.5405,0.5516,0.555,0.511,7.14M,-2.01%,EOS
17-Oct-17,0.5516,0.5586,0.5654,0.5417,4.64M,-1.25%,EOS
16-Oct-17,0.5586,0.5716,0.5788,0.554,4.47M,-2.27%,EOS
15-Oct-17,0.5716,0.5808,0.5875,0.56,4.85M,-1.58%,EOS
14-Oct-17,0.5808,0.5817,0.623,0.5781,5.53M,-0.15%,EOS
13-Oct-17,0.5817,0.59,0.6219,0.555,8.06M,-1.41%,EOS
12-Oct-17,0.59,0.6138,0.6483,0.582,8.74M,-3.88%,EOS
11-Oct-17,0.6138,0.553,0.6321,0.549,9.34M,10.99%,EOS
10-Oct-17,0.553,0.555,0.5832,0.549,6.32M,-0.36%,EOS
9-Oct-17,0.555,0.6044,0.6047,0.544,6.02M,-8.17%,EOS
8-Oct-17,0.6044,0.5879,0.61,0.574,5.24M,2.81%,EOS
7-Oct-17,0.5879,0.599,0.6081,0.57,3.02M,-1.85%,EOS
6-Oct-17,0.599,0.6056,0.6127,0.585,3.52M,-1.09%,EOS
5-Oct-17,0.6056,0.602,0.625,0.57,6.80M,0.60%,EOS
4-Oct-17,0.602,0.6325,0.6359,0.5806,4.74M,-4.82%,EOS
3-Oct-17,0.6325,0.6533,0.6711,0.615,4.52M,-3.18%,EOS
2-Oct-17,0.6533,0.7073,0.7229,0.6301,5.33M,-7.63%,EOS
1-Oct-17,0.7073,0.7233,0.7304,0.6714,6.27M,-2.21%,EOS
30-Sep-17,0.7233,0.715,0.76,0.7049,8.13M,1.16%,EOS
29-Sep-17,0.715,0.8067,0.8449,0.695,17.22M,-11.37%,EOS
28-Sep-17,0.8067,0.6323,0.824,0.63,24.96M,27.58%,EOS
27-Sep-17,0.6323,0.554,0.6394,0.554,14.72M,14.13%,EOS
26-Sep-17,0.554,0.5654,0.59,0.552,5.96M,-2.02%,EOS
25-Sep-17,0.5654,0.543,0.58,0.5384,5.95M,4.13%,EOS
24-Sep-17,0.543,0.5739,0.578,0.537,6.35M,-5.38%,EOS
23-Sep-17,0.5739,0.5664,0.59,0.555,4.76M,1.32%,EOS
22-Sep-17,0.5664,0.5423,0.5873,0.5321,4.30M,4.44%,EOS
21-Sep-17,0.5423,0.6045,0.6102,0.5325,6.63M,-10.29%,EOS
20-Sep-17,0.6045,0.6463,0.6522,0.6011,4.55M,-6.47%,EOS
19-Sep-17,0.6463,0.7037,0.7075,0.6414,3.31M,-8.16%,EOS
18-Sep-17,0.7037,0.6252,0.7074,0.6252,5.89M,12.56%,EOS
17-Sep-17,0.6252,0.6191,0.6564,0.56,5.67M,0.99%,EOS
16-Sep-17,0.6191,0.6505,0.68,0.578,5.43M,-4.83%,EOS
15-Sep-17,0.6505,0.575,0.678,0.5033,13.92M,13.13%,EOS
14-Sep-17,0.575,0.725,0.7649,0.51,18.35M,-20.69%,EOS
13-Sep-17,0.725,0.8599,0.86,0.656,15.03M,-15.69%,EOS
12-Sep-17,0.8599,0.7324,0.8977,0.728,15.07M,17.41%,EOS
11-Sep-17,0.7324,0.7367,0.7608,0.71,5.56M,-0.58%,EOS
10-Sep-17,0.7367,0.81,0.8154,0.6918,8.58M,-9.05%,EOS
9-Sep-17,0.81,0.841,0.8487,0.756,6.41M,-3.69%,EOS
8-Sep-17,0.841,0.9852,0.9894,0.774,17.45M,-14.64%,EOS
7-Sep-17,0.9852,0.915,1.03,0.8513,19.61M,7.67%,EOS
6-Sep-17,0.915,0.923,1.16,0.856,24.76M,-0.87%,EOS
5-Sep-17,0.923,0.91,0.9777,0.75,18.28M,1.43%,EOS
4-Sep-17,0.91,1.3,1.31,0.8216,21.91M,-30.00%,EOS
3-Sep-17,1.3,1.24,1.33,1.21,5.29M,4.84%,EOS
2-Sep-17,1.24,1.32,1.44,1.19,6.99M,-6.06%,EOS
1-Sep-17,1.32,1.34,1.35,1.27,5.28M,-1.49%,EOS
31-Aug-17,1.34,1.25,1.36,1.25,6.28M,7.20%,EOS
30-Aug-17,1.25,1.31,1.34,1.22,4.59M,-4.58%,EOS
29-Aug-17,1.31,1.32,1.38,1.31,3.14M,-0.76%,EOS
28-Aug-17,1.32,1.34,1.36,1.27,3.05M,-1.49%,EOS
27-Aug-17,1.34,1.37,1.38,1.32,2.66M,-2.19%,EOS
26-Aug-17,1.37,1.37,1.39,1.33,2.70M,0.00%,EOS
25-Aug-17,1.37,1.37,1.45,1.33,3.59M,0.00%,EOS
24-Aug-17,1.37,1.42,1.42,1.32,3.85M,-3.52%,EOS
23-Aug-17,1.42,1.27,1.55,1.26,10.35M,11.81%,EOS
22-Aug-17,1.27,1.33,1.33,1.24,4.77M,-4.51%,EOS
21-Aug-17,1.33,1.36,1.41,1.3,3.83M,-2.21%,EOS
20-Aug-17,1.36,1.39,1.42,1.32,2.52M,-2.16%,EOS
19-Aug-17,1.39,1.4,1.43,1.28,3.12M,-0.71%,EOS
18-Aug-17,1.4,1.51,1.53,1.33,3.95M,-7.28%,EOS
17-Aug-17,1.51,1.6,1.62,1.48,3.57M,-5.63%,EOS
16-Aug-17,1.6,1.62,1.65,1.55,3.42M,-1.23%,EOS
15-Aug-17,1.62,1.6,1.73,1.52,4.35M,1.25%,EOS
14-Aug-17,1.6,1.6,1.68,1.51,3.34M,0.00%,EOS
13-Aug-17,1.6,1.65,1.69,1.52,4.74M,-3.03%,EOS
12-Aug-17,1.65,1.76,1.83,1.61,3.35M,-6.25%,EOS
11-Aug-17,1.76,1.84,1.88,1.66,4.44M,-4.35%,EOS
10-Aug-17,1.84,1.81,1.91,1.8,3.12M,1.66%,EOS
9-Aug-17,1.81,1.87,1.91,1.79,2.95M,-3.21%,EOS
8-Aug-17,1.87,1.78,1.98,1.78,5.49M,5.06%,EOS
7-Aug-17,1.78,1.75,1.81,1.7,3.56M,1.71%,EOS
6-Aug-17,1.75,1.85,1.85,1.7,3.16M,-5.41%,EOS
5-Aug-17,1.85,1.76,2,1.73,4.47M,5.11%,EOS
4-Aug-17,1.76,1.78,1.84,1.74,2.29M,-1.12%,EOS
3-Aug-17,1.78,1.74,1.78,1.7,1.47M,2.30%,EOS
2-Aug-17,1.74,1.78,1.8,1.67,2.43M,-2.25%,EOS
1-Aug-17,1.78,1.7,1.81,1.65,3.61M,4.71%,EOS
31-Jul-17,1.7,1.78,1.78,1.63,2.44M,-4.49%,EOS
30-Jul-17,1.78,1.83,1.85,1.67,1.73M,-2.73%,EOS
29-Jul-17,1.83,1.81,1.87,1.6,3.46M,1.10%,EOS
28-Jul-17,1.81,1.92,1.99,1.8,3.12M,-5.73%,EOS
27-Jul-17,1.92,1.7,1.98,1.69,3.35M,12.94%,EOS
26-Jul-17,1.7,1.65,1.71,1.48,3.61M,3.03%,EOS
25-Jul-17,1.65,1.88,1.9,1.55,3.73M,-12.23%,EOS
24-Jul-17,1.88,1.93,1.99,1.8,2.75M,-2.59%,EOS
23-Jul-17,1.93,2.03,2.14,1.8,4.26M,-4.93%,EOS
22-Jul-17,2.03,1.8,2.1,1.77,3.39M,12.78%,EOS
21-Jul-17,1.8,1.72,2,1.67,3.92M,4.65%,EOS
20-Jul-17,1.72,1.49,1.75,1.49,3.23M,15.44%,EOS
19-Jul-17,1.49,1.65,1.77,1.45,4.43M,-9.70%,EOS
18-Jul-17,1.65,1.56,1.73,1.46,4.93M,5.77%,EOS
17-Jul-17,1.56,1.24,1.58,1.22,5.85M,25.81%,EOS
16-Jul-17,1.24,1.3,1.33,1.13,4.72M,-4.62%,EOS
15-Jul-17,1.3,1.52,1.53,1.29,5.00M,-14.47%,EOS
14-Jul-17,1.52,1.64,1.7,1.45,3.53M,-7.32%,EOS
13-Jul-17,1.64,1.99,1.99,1.6,3.17M,-17.59%,EOS
12-Jul-17,1.99,1.5,2.05,1.4,5.79M,32.67%,EOS
11-Jul-17,1.5,1.6,1.78,1.36,9.77M,-6.25%,EOS
10-Jul-17,1.6,2.21,2.28,1.23,7.10M,-27.60%,EOS
9-Jul-17,2.21,2.4,2.55,2.12,3.71M,-7.92%,EOS
8-Jul-17,2.4,2.66,2.76,2.01,5.98M,-9.77%,EOS
7-Jul-17,2.66,3.25,3.32,2.6,4.03M,-18.15%,EOS
6-Jul-17,3.25,2.83,3.53,2.82,4.59M,14.84%,EOS
5-Jul-17,2.83,3.12,3.31,2.6,3.91M,-9.29%,EOS
4-Jul-17,3.12,4.02,4.2,2.55,7.56M,-22.39%,EOS
3-Jul-17,4.02,2.91,5.48,2.41,6.58M,38.14%,EOS
2-Jul-17,2.91,1.14,3.3,0.9406,5.34M,155.26%,EOS
