﻿Date,Price,Open,High,Low,Vol.,Change %,Coin
25-Dec-19,0.1535,0.15564,0.1559,0.15135,6.16M,-1.37%,MIOTA
24-Dec-19,0.15564,0.16152,0.16208,0.15448,7.99M,-3.64%,MIOTA
23-Dec-19,0.16152,0.16623,0.16689,0.15902,9.29M,-2.84%,MIOTA
22-Dec-19,0.16623,0.16182,0.17061,0.15882,13.22M,2.73%,MIOTA
21-Dec-19,0.16182,0.1642,0.18633,0.16036,20.63M,-1.45%,MIOTA
20-Dec-19,0.1642,0.163,0.16421,0.15781,16.81M,0.74%,MIOTA
19-Dec-19,0.163,0.15809,0.16528,0.15209,24.18M,2.90%,MIOTA
18-Dec-19,0.15841,0.1575,0.16099,0.15041,81.97M,0.68%,MIOTA
17-Dec-19,0.15735,0.17386,0.17537,0.15302,34.33M,-9.50%,MIOTA
16-Dec-19,0.17386,0.18713,0.18896,0.17266,14.63M,-7.09%,MIOTA
15-Dec-19,0.18713,0.18925,0.19103,0.18674,6.63M,-1.12%,MIOTA
14-Dec-19,0.18925,0.1935,0.19391,0.18598,4.62M,-2.20%,MIOTA
13-Dec-19,0.1935,0.19368,0.19436,0.18968,7.74M,-0.09%,MIOTA
12-Dec-19,0.19368,0.19819,0.19958,0.19327,5.39M,-2.27%,MIOTA
11-Dec-19,0.19819,0.19753,0.19938,0.19576,5.27M,0.33%,MIOTA
10-Dec-19,0.19753,0.20227,0.20354,0.19466,13.98M,-2.34%,MIOTA
9-Dec-19,0.20227,0.20659,0.21105,0.20077,7.61M,-2.09%,MIOTA
8-Dec-19,0.20659,0.20453,0.20688,0.20159,3.38M,1.01%,MIOTA
7-Dec-19,0.20453,0.2053,0.20798,0.20385,3.62M,-0.38%,MIOTA
6-Dec-19,0.2053,0.20393,0.20616,0.20051,6.38M,0.67%,MIOTA
5-Dec-19,0.20393,0.19677,0.20512,0.19629,9.06M,3.64%,MIOTA
4-Dec-19,0.19677,0.20306,0.20906,0.19428,10.46M,-3.10%,MIOTA
3-Dec-19,0.20306,0.20745,0.20901,0.20113,7.40M,-2.12%,MIOTA
2-Dec-19,0.20745,0.20503,0.21313,0.19709,8.03M,1.18%,MIOTA
1-Dec-19,0.20503,0.20991,0.20991,0.19902,6.13M,-2.35%,MIOTA
30-Nov-19,0.20997,0.21828,0.21899,0.20462,8.44M,-3.81%,MIOTA
29-Nov-19,0.21828,0.2101,0.21859,0.20998,7.59M,3.89%,MIOTA
28-Nov-19,0.2101,0.21151,0.21515,0.20792,6.55M,-0.67%,MIOTA
27-Nov-19,0.21151,0.21167,0.21571,0.20094,13.28M,-0.07%,MIOTA
26-Nov-19,0.21167,0.20924,0.21242,0.20379,6.19M,1.16%,MIOTA
25-Nov-19,0.20924,0.2015,0.21394,0.19001,16.20M,3.84%,MIOTA
24-Nov-19,0.2015,0.21501,0.21561,0.20012,9.77M,-6.28%,MIOTA
23-Nov-19,0.21501,0.20927,0.21559,0.20354,8.92M,2.74%,MIOTA
22-Nov-19,0.20927,0.2274,0.22946,0.189,29.98M,-7.97%,MIOTA
21-Nov-19,0.2274,0.24087,0.24201,0.21933,14.11M,-5.59%,MIOTA
20-Nov-19,0.24087,0.24546,0.24679,0.2395,6.66M,-1.87%,MIOTA
19-Nov-19,0.24546,0.25047,0.25062,0.23929,11.03M,-2.00%,MIOTA
18-Nov-19,0.25046,0.25696,0.26059,0.24517,11.84M,-2.53%,MIOTA
17-Nov-19,0.25696,0.25621,0.25983,0.25473,8.47M,0.29%,MIOTA
16-Nov-19,0.25621,0.25818,0.25821,0.25466,9.08M,-0.76%,MIOTA
15-Nov-19,0.25818,0.26356,0.26445,0.2511,12.05M,-2.04%,MIOTA
14-Nov-19,0.26356,0.25797,0.26778,0.25595,15.14M,2.17%,MIOTA
13-Nov-19,0.25797,0.26059,0.26126,0.25746,6.19M,-1.01%,MIOTA
12-Nov-19,0.26059,0.25805,0.26379,0.25702,8.16M,0.99%,MIOTA
11-Nov-19,0.25805,0.26703,0.26784,0.25709,8.79M,-3.36%,MIOTA
10-Nov-19,0.26703,0.26609,0.26862,0.26335,7.81M,0.35%,MIOTA
9-Nov-19,0.26609,0.26464,0.26646,0.26281,5.27M,0.55%,MIOTA
8-Nov-19,0.26464,0.27076,0.27175,0.26073,10.42M,-2.26%,MIOTA
7-Nov-19,0.27076,0.28006,0.28288,0.26436,12.19M,-3.32%,MIOTA
6-Nov-19,0.28006,0.27539,0.2844,0.27476,8.12M,1.68%,MIOTA
5-Nov-19,0.27542,0.2741,0.27728,0.27002,5.90M,0.48%,MIOTA
4-Nov-19,0.2741,0.26875,0.27452,0.26741,5.48M,1.99%,MIOTA
3-Nov-19,0.26875,0.27247,0.27422,0.26734,4.66M,-1.38%,MIOTA
2-Nov-19,0.27252,0.27338,0.27654,0.2713,4.43M,-0.31%,MIOTA
1-Nov-19,0.27338,0.27172,0.27578,0.26739,7.28M,0.61%,MIOTA
31-Oct-19,0.27172,0.28224,0.28305,0.26739,11.24M,-3.73%,MIOTA
30-Oct-19,0.28224,0.28066,0.29183,0.27525,10.23M,0.56%,MIOTA
29-Oct-19,0.28066,0.28522,0.28992,0.27692,15.36M,-1.60%,MIOTA
28-Oct-19,0.28522,0.27287,0.30428,0.26941,34.38M,4.53%,MIOTA
27-Oct-19,0.27287,0.26855,0.27663,0.25818,14.60M,1.61%,MIOTA
26-Oct-19,0.26855,0.27174,0.28143,0.2604,21.20M,-1.17%,MIOTA
25-Oct-19,0.27174,0.25415,0.2735,0.25229,12.80M,6.92%,MIOTA
24-Oct-19,0.25415,0.25313,0.25566,0.25147,3.70M,0.40%,MIOTA
23-Oct-19,0.25313,0.26963,0.27335,0.24375,11.98M,-6.12%,MIOTA
22-Oct-19,0.26963,0.26901,0.27565,0.26765,7.52M,0.23%,MIOTA
21-Oct-19,0.26901,0.27022,0.27095,0.26427,6.15M,-0.45%,MIOTA
20-Oct-19,0.27022,0.26887,0.27366,0.26682,3.02M,0.53%,MIOTA
19-Oct-19,0.26879,0.27132,0.27278,0.26721,2.75M,-0.93%,MIOTA
18-Oct-19,0.27132,0.27683,0.27814,0.2624,6.54M,-1.99%,MIOTA
17-Oct-19,0.27683,0.27182,0.27986,0.26921,4.33M,1.84%,MIOTA
16-Oct-19,0.27182,0.27976,0.28156,0.2661,7.01M,-2.84%,MIOTA
15-Oct-19,0.27976,0.28398,0.28598,0.27445,4.84M,-1.49%,MIOTA
14-Oct-19,0.28398,0.2783,0.28402,0.27728,6.40M,2.04%,MIOTA
13-Oct-19,0.2783,0.26869,0.28471,0.26857,5.97M,3.58%,MIOTA
12-Oct-19,0.26869,0.26938,0.27321,0.26779,3.39M,-0.25%,MIOTA
11-Oct-19,0.26938,0.27615,0.27901,0.26658,5.27M,-2.45%,MIOTA
10-Oct-19,0.27615,0.27954,0.28053,0.27025,6.06M,-1.21%,MIOTA
9-Oct-19,0.27954,0.27574,0.28312,0.26895,11.16M,1.38%,MIOTA
8-Oct-19,0.27574,0.28229,0.28682,0.27028,9.90M,-2.32%,MIOTA
7-Oct-19,0.28229,0.2678,0.28382,0.26582,9.35M,5.41%,MIOTA
6-Oct-19,0.2678,0.27606,0.27644,0.26484,7.07M,-2.99%,MIOTA
5-Oct-19,0.27606,0.2701,0.27901,0.26768,7.18M,2.21%,MIOTA
4-Oct-19,0.2701,0.27109,0.27319,0.26612,3.89M,-0.36%,MIOTA
3-Oct-19,0.27107,0.28094,0.28159,0.26727,4.04M,-3.51%,MIOTA
2-Oct-19,0.28094,0.26948,0.28148,0.2674,6.84M,4.25%,MIOTA
1-Oct-19,0.26948,0.26536,0.27717,0.26235,9.18M,1.55%,MIOTA
30-Sep-19,0.26536,0.25932,0.26722,0.25216,7.22M,2.33%,MIOTA
29-Sep-19,0.25932,0.26324,0.26387,0.25054,3.54M,-1.51%,MIOTA
28-Sep-19,0.2633,0.26316,0.26462,0.25856,4.33M,0.05%,MIOTA
27-Sep-19,0.26316,0.26617,0.26879,0.25423,8.40M,-1.12%,MIOTA
26-Sep-19,0.26616,0.26119,0.26854,0.24565,13.81M,1.90%,MIOTA
25-Sep-19,0.26119,0.25324,0.27075,0.24053,14.90M,3.14%,MIOTA
24-Sep-19,0.25324,0.27757,0.2848,0.2378,20.66M,-8.77%,MIOTA
23-Sep-19,0.27757,0.27841,0.29405,0.27699,9.60M,-0.30%,MIOTA
22-Sep-19,0.27841,0.29311,0.2934,0.27521,6.28M,-5.02%,MIOTA
21-Sep-19,0.29311,0.31368,0.31453,0.29102,10.52M,-6.55%,MIOTA
20-Sep-19,0.31368,0.29773,0.31389,0.28635,15.27M,5.36%,MIOTA
19-Sep-19,0.29773,0.29748,0.30334,0.27423,16.48M,0.08%,MIOTA
18-Sep-19,0.29748,0.26141,0.31438,0.26141,19.75M,13.80%,MIOTA
17-Sep-19,0.26141,0.24894,0.26538,0.24791,9.28M,5.01%,MIOTA
16-Sep-19,0.24894,0.24881,0.2534,0.24274,5.98M,0.05%,MIOTA
15-Sep-19,0.24881,0.24746,0.24918,0.24345,4.79M,0.55%,MIOTA
14-Sep-19,0.24746,0.24144,0.24868,0.23941,4.41M,2.47%,MIOTA
13-Sep-19,0.2415,0.23629,0.24226,0.23571,4.04M,2.20%,MIOTA
12-Sep-19,0.23629,0.23832,0.23882,0.23391,3.41M,-0.85%,MIOTA
11-Sep-19,0.23832,0.23859,0.24085,0.23484,3.40M,-0.11%,MIOTA
10-Sep-19,0.23859,0.23918,0.24232,0.23708,4.18M,-0.25%,MIOTA
9-Sep-19,0.23918,0.24408,0.24469,0.23466,7.58M,-1.93%,MIOTA
8-Sep-19,0.24388,0.24068,0.2481,0.2384,6.08M,1.33%,MIOTA
7-Sep-19,0.24068,0.23039,0.24186,0.22966,5.01M,4.46%,MIOTA
6-Sep-19,0.23039,0.24237,0.24445,0.22667,11.17M,-4.94%,MIOTA
5-Sep-19,0.24237,0.24673,0.24854,0.23865,6.07M,-1.76%,MIOTA
4-Sep-19,0.24673,0.24966,0.25002,0.24166,5.06M,-1.18%,MIOTA
3-Sep-19,0.24966,0.24923,0.25188,0.2461,6.68M,0.17%,MIOTA
2-Sep-19,0.24923,0.24087,0.25537,0.24013,7.70M,3.47%,MIOTA
1-Sep-19,0.24087,0.24686,0.24998,0.2388,6.65M,-2.43%,MIOTA
31-Aug-19,0.24686,0.25251,0.25317,0.24249,6.87M,-2.22%,MIOTA
30-Aug-19,0.25246,0.25004,0.25307,0.24477,6.24M,0.97%,MIOTA
29-Aug-19,0.25004,0.24247,0.25924,0.23346,11.25M,3.07%,MIOTA
28-Aug-19,0.24259,0.26031,0.26187,0.24102,9.45M,-6.81%,MIOTA
27-Aug-19,0.26033,0.26946,0.26975,0.25856,7.75M,-3.39%,MIOTA
26-Aug-19,0.26946,0.26607,0.27623,0.26404,8.94M,1.27%,MIOTA
25-Aug-19,0.26607,0.25862,0.27656,0.25837,13.29M,2.88%,MIOTA
24-Aug-19,0.25862,0.25982,0.26495,0.25246,8.03M,-0.46%,MIOTA
23-Aug-19,0.25982,0.26131,0.26564,0.25652,10.04M,-0.57%,MIOTA
22-Aug-19,0.26131,0.23986,0.26994,0.23406,13.46M,8.94%,MIOTA
21-Aug-19,0.23986,0.24949,0.25062,0.23322,5.98M,-3.84%,MIOTA
20-Aug-19,0.24944,0.25157,0.25285,0.24033,6.80M,-0.85%,MIOTA
19-Aug-19,0.25157,0.24711,0.25527,0.24582,4.41M,1.81%,MIOTA
18-Aug-19,0.24711,0.24222,0.25259,0.24011,6.88M,2.02%,MIOTA
17-Aug-19,0.24222,0.24161,0.24772,0.23862,6.14M,0.26%,MIOTA
16-Aug-19,0.24161,0.24293,0.24459,0.2305,9.23M,-0.54%,MIOTA
15-Aug-19,0.24293,0.23269,0.24555,0.22309,10.58M,4.39%,MIOTA
14-Aug-19,0.2327,0.2573,0.25748,0.22908,14.94M,-9.55%,MIOTA
13-Aug-19,0.25728,0.25943,0.25955,0.25177,8.16M,-0.83%,MIOTA
12-Aug-19,0.25943,0.27006,0.27006,0.25811,6.98M,-3.93%,MIOTA
11-Aug-19,0.27006,0.2611,0.27152,0.2607,10.40M,3.43%,MIOTA
10-Aug-19,0.2611,0.2547,0.26319,0.25109,9.86M,2.51%,MIOTA
9-Aug-19,0.2547,0.27625,0.27625,0.25052,13.34M,-7.80%,MIOTA
8-Aug-19,0.27625,0.2763,0.2783,0.26758,9.65M,-0.02%,MIOTA
7-Aug-19,0.2763,0.27889,0.28689,0.27298,10.55M,-0.92%,MIOTA
6-Aug-19,0.27887,0.29114,0.29666,0.27466,13.15M,-4.21%,MIOTA
5-Aug-19,0.29114,0.28411,0.29872,0.284,12.02M,2.47%,MIOTA
4-Aug-19,0.28411,0.28304,0.28727,0.27772,8.11M,0.38%,MIOTA
3-Aug-19,0.28304,0.28758,0.29162,0.28262,10.76M,-1.58%,MIOTA
2-Aug-19,0.28758,0.28802,0.29404,0.285,13.24M,-0.15%,MIOTA
1-Aug-19,0.28802,0.29056,0.29139,0.2819,12.39M,-0.88%,MIOTA
31-Jul-19,0.29056,0.28495,0.29652,0.28461,15.57M,1.98%,MIOTA
30-Jul-19,0.28492,0.28341,0.28783,0.27737,8.87M,0.53%,MIOTA
29-Jul-19,0.28341,0.28417,0.28907,0.27889,9.30M,-0.27%,MIOTA
28-Jul-19,0.28417,0.2874,0.29159,0.26902,7.66M,-1.13%,MIOTA
27-Jul-19,0.2874,0.30044,0.30663,0.28272,14.78M,-4.34%,MIOTA
26-Jul-19,0.30044,0.30399,0.30488,0.29539,13.17M,-1.17%,MIOTA
25-Jul-19,0.30399,0.31056,0.31505,0.30128,14.38M,-2.12%,MIOTA
24-Jul-19,0.31056,0.29316,0.31096,0.28595,17.10M,5.94%,MIOTA
23-Jul-19,0.29316,0.30048,0.30371,0.2865,15.97M,-2.44%,MIOTA
22-Jul-19,0.30048,0.31484,0.31663,0.29531,16.91M,-4.56%,MIOTA
21-Jul-19,0.31484,0.31849,0.32518,0.30865,11.66M,-1.16%,MIOTA
20-Jul-19,0.31852,0.30304,0.33471,0.29927,21.82M,5.11%,MIOTA
19-Jul-19,0.30304,0.30485,0.30828,0.29284,14.33M,-0.59%,MIOTA
18-Jul-19,0.30485,0.28465,0.30952,0.27465,21.92M,7.09%,MIOTA
17-Jul-19,0.28465,0.26756,0.29549,0.26186,22.59M,6.39%,MIOTA
16-Jul-19,0.26756,0.30923,0.30992,0.25639,30.06M,-13.48%,MIOTA
15-Jul-19,0.30924,0.30504,0.3106,0.28558,22.32M,1.38%,MIOTA
14-Jul-19,0.30504,0.34501,0.34594,0.30109,18.71M,-11.59%,MIOTA
13-Jul-19,0.34501,0.35423,0.35449,0.335,15.12M,-2.60%,MIOTA
12-Jul-19,0.35423,0.3444,0.3596,0.33628,17.17M,2.86%,MIOTA
11-Jul-19,0.3444,0.36634,0.36782,0.33103,24.19M,-6.00%,MIOTA
10-Jul-19,0.36639,0.39585,0.3995,0.35332,25.31M,-7.44%,MIOTA
9-Jul-19,0.39585,0.40368,0.40874,0.39103,17.52M,-1.94%,MIOTA
8-Jul-19,0.40368,0.39544,0.41182,0.3946,20.45M,2.08%,MIOTA
7-Jul-19,0.39544,0.38973,0.39601,0.38647,26.25M,1.47%,MIOTA
6-Jul-19,0.38973,0.38313,0.39824,0.38204,30.07M,1.72%,MIOTA
5-Jul-19,0.38313,0.38745,0.39314,0.38037,22.56M,-1.12%,MIOTA
4-Jul-19,0.38745,0.4044,0.4052,0.38508,22.94M,-4.21%,MIOTA
3-Jul-19,0.40447,0.39864,0.40636,0.39185,18.35M,1.46%,MIOTA
2-Jul-19,0.39864,0.40483,0.40676,0.38171,21.11M,-1.53%,MIOTA
1-Jul-19,0.40483,0.39078,0.40895,0.38312,21.36M,3.60%,MIOTA
30-Jun-19,0.39078,0.42179,0.42573,0.38898,23.18M,-7.40%,MIOTA
29-Jun-19,0.42202,0.41504,0.42654,0.39873,23.50M,1.68%,MIOTA
28-Jun-19,0.41504,0.39985,0.42285,0.38749,28.59M,3.79%,MIOTA
27-Jun-19,0.39989,0.44456,0.45043,0.37808,39.28M,-10.04%,MIOTA
26-Jun-19,0.44451,0.44885,0.48849,0.42552,57.32M,-0.92%,MIOTA
25-Jun-19,0.44865,0.45822,0.46058,0.44142,27.43M,-2.09%,MIOTA
24-Jun-19,0.45822,0.45018,0.46155,0.43879,15.94M,1.79%,MIOTA
23-Jun-19,0.45018,0.46436,0.47814,0.44768,27.45M,-3.05%,MIOTA
22-Jun-19,0.46436,0.42461,0.47568,0.41973,43.93M,9.26%,MIOTA
21-Jun-19,0.42499,0.41683,0.43592,0.41649,22.85M,1.96%,MIOTA
20-Jun-19,0.41683,0.4358,0.43891,0.40723,48.27M,-4.35%,MIOTA
19-Jun-19,0.4358,0.43088,0.44194,0.42762,46.56M,1.14%,MIOTA
18-Jun-19,0.43088,0.44269,0.44367,0.4271,31.52M,-2.69%,MIOTA
17-Jun-19,0.4428,0.44612,0.45237,0.42875,55.30M,-0.72%,MIOTA
16-Jun-19,0.44602,0.4353,0.4617,0.43155,55.10M,2.45%,MIOTA
15-Jun-19,0.43537,0.42936,0.44101,0.42607,45.82M,1.40%,MIOTA
14-Jun-19,0.42936,0.43915,0.4415,0.41424,59.01M,-2.25%,MIOTA
13-Jun-19,0.43926,0.43502,0.44904,0.42809,59.40M,0.97%,MIOTA
12-Jun-19,0.43502,0.42109,0.44174,0.41664,54.61M,3.31%,MIOTA
11-Jun-19,0.42109,0.42773,0.42961,0.40719,38.85M,-1.55%,MIOTA
10-Jun-19,0.42773,0.40612,0.43193,0.39881,35.91M,5.32%,MIOTA
9-Jun-19,0.40612,0.42864,0.43179,0.39598,32.03M,-5.25%,MIOTA
8-Jun-19,0.42864,0.44297,0.44954,0.41749,38.65M,-3.23%,MIOTA
7-Jun-19,0.44297,0.42227,0.45659,0.41781,41.08M,4.90%,MIOTA
6-Jun-19,0.42227,0.42917,0.43426,0.4011,33.33M,-1.61%,MIOTA
5-Jun-19,0.42917,0.42468,0.43546,0.4159,19.39M,1.06%,MIOTA
4-Jun-19,0.42468,0.44475,0.44762,0.41202,36.28M,-4.51%,MIOTA
3-Jun-19,0.44475,0.48946,0.49134,0.44119,47.58M,-9.13%,MIOTA
2-Jun-19,0.48946,0.47932,0.49988,0.47523,37.29M,2.11%,MIOTA
1-Jun-19,0.47934,0.50847,0.51428,0.46669,48.48M,-5.73%,MIOTA
31-May-19,0.50847,0.47351,0.51064,0.45911,37.90M,7.38%,MIOTA
30-May-19,0.47351,0.51266,0.54672,0.46105,82.66M,-7.64%,MIOTA
29-May-19,0.51266,0.48234,0.55601,0.45835,113.64M,6.32%,MIOTA
28-May-19,0.4822,0.4355,0.50034,0.41703,85.71M,10.72%,MIOTA
27-May-19,0.4355,0.40684,0.44678,0.39798,47.43M,7.00%,MIOTA
26-May-19,0.40703,0.38239,0.4161,0.37302,30.26M,6.44%,MIOTA
25-May-19,0.38239,0.38253,0.39211,0.37584,27.34M,-0.04%,MIOTA
24-May-19,0.38253,0.38687,0.39991,0.37828,35.36M,-1.12%,MIOTA
23-May-19,0.38687,0.38369,0.39011,0.36443,40.47M,0.82%,MIOTA
22-May-19,0.3837,0.41315,0.42343,0.38303,33.86M,-7.13%,MIOTA
21-May-19,0.41316,0.4051,0.42589,0.39848,23.74M,1.99%,MIOTA
20-May-19,0.4051,0.4226,0.4226,0.38542,26.53M,-4.14%,MIOTA
19-May-19,0.4226,0.37998,0.4287,0.37979,35.91M,11.22%,MIOTA
18-May-19,0.37998,0.39437,0.40037,0.37516,17.75M,-3.65%,MIOTA
17-May-19,0.39437,0.41438,0.42541,0.35511,48.22M,-4.83%,MIOTA
16-May-19,0.41438,0.4389,0.46452,0.39788,64.32M,-5.71%,MIOTA
15-May-19,0.43946,0.37412,0.44254,0.37357,56.91M,17.46%,MIOTA
14-May-19,0.37412,0.33593,0.37846,0.33524,61.26M,11.38%,MIOTA
13-May-19,0.3359,0.30112,0.34602,0.29907,39.91M,11.54%,MIOTA
12-May-19,0.30116,0.31308,0.31868,0.29259,26.21M,-3.81%,MIOTA
11-May-19,0.31308,0.27917,0.31924,0.27715,37.82M,12.15%,MIOTA
10-May-19,0.27917,0.27324,0.28361,0.2712,12.24M,2.17%,MIOTA
9-May-19,0.27324,0.28291,0.28356,0.27013,12.80M,-3.42%,MIOTA
8-May-19,0.28291,0.27061,0.29078,0.26563,21.28M,4.54%,MIOTA
7-May-19,0.27061,0.27972,0.28887,0.26924,18.99M,-3.28%,MIOTA
6-May-19,0.27979,0.27951,0.28385,0.26387,28.59M,0.10%,MIOTA
5-May-19,0.27951,0.28147,0.28329,0.27681,17.08M,-0.69%,MIOTA
4-May-19,0.28147,0.28693,0.29061,0.26833,25.84M,-1.91%,MIOTA
3-May-19,0.28693,0.28125,0.29179,0.27982,38.95M,2.02%,MIOTA
2-May-19,0.28124,0.29377,0.29502,0.27707,30.14M,-4.26%,MIOTA
1-May-19,0.29377,0.29954,0.3013,0.28765,26.28M,-1.92%,MIOTA
30-Apr-19,0.29951,0.30583,0.31113,0.28634,50.21M,-2.07%,MIOTA
29-Apr-19,0.30583,0.27171,0.3224,0.27171,125.43M,12.55%,MIOTA
28-Apr-19,0.27172,0.26371,0.27795,0.25293,19.69M,3.03%,MIOTA
27-Apr-19,0.26371,0.26948,0.26972,0.25823,15.23M,-2.14%,MIOTA
26-Apr-19,0.26948,0.26174,0.27181,0.238,31.37M,2.96%,MIOTA
25-Apr-19,0.26174,0.27869,0.28163,0.25609,19.30M,-6.08%,MIOTA
24-Apr-19,0.27869,0.2912,0.29305,0.27052,23.67M,-4.27%,MIOTA
23-Apr-19,0.29111,0.30157,0.30491,0.28907,19.79M,-3.48%,MIOTA
22-Apr-19,0.3016,0.29991,0.30389,0.29515,12.62M,0.56%,MIOTA
21-Apr-19,0.29993,0.3082,0.31121,0.29257,17.23M,-2.68%,MIOTA
20-Apr-19,0.3082,0.30628,0.31158,0.3049,12.46M,0.63%,MIOTA
19-Apr-19,0.30626,0.30737,0.30865,0.30177,13.40M,-0.37%,MIOTA
18-Apr-19,0.3074,0.30701,0.3148,0.30611,16.25M,0.11%,MIOTA
17-Apr-19,0.30707,0.30895,0.31058,0.29854,20.71M,-0.61%,MIOTA
16-Apr-19,0.30895,0.30124,0.3119,0.29997,12.02M,2.56%,MIOTA
15-Apr-19,0.30123,0.3149,0.31561,0.29659,19.78M,-4.36%,MIOTA
14-Apr-19,0.31496,0.3122,0.31818,0.29161,29.35M,0.88%,MIOTA
13-Apr-19,0.3122,0.31542,0.31935,0.30882,8.78M,-1.00%,MIOTA
12-Apr-19,0.31535,0.3198,0.32165,0.30608,11.93M,-1.39%,MIOTA
11-Apr-19,0.3198,0.34611,0.34665,0.30848,26.07M,-7.53%,MIOTA
10-Apr-19,0.34584,0.34392,0.36118,0.33855,20.13M,0.55%,MIOTA
9-Apr-19,0.34396,0.35358,0.3537,0.33732,13.35M,-2.72%,MIOTA
8-Apr-19,0.35358,0.3618,0.36342,0.33701,28.59M,-2.27%,MIOTA
7-Apr-19,0.3618,0.34638,0.3713,0.34463,24.50M,4.43%,MIOTA
6-Apr-19,0.34646,0.35353,0.35611,0.339,16.21M,-2.00%,MIOTA
5-Apr-19,0.35353,0.33238,0.3543,0.33232,18.95M,6.36%,MIOTA
4-Apr-19,0.3324,0.33799,0.35205,0.32553,29.37M,-1.65%,MIOTA
3-Apr-19,0.33798,0.3527,0.38203,0.32585,68.63M,-4.17%,MIOTA
2-Apr-19,0.3527,0.32335,0.35403,0.32306,46.28M,9.07%,MIOTA
1-Apr-19,0.32335,0.30939,0.32832,0.30604,24.70M,4.51%,MIOTA
31-Mar-19,0.30939,0.30911,0.31203,0.30475,9.68M,0.09%,MIOTA
30-Mar-19,0.30911,0.31104,0.31495,0.30331,10.30M,-0.62%,MIOTA
29-Mar-19,0.31104,0.30543,0.31228,0.30429,10.94M,1.84%,MIOTA
28-Mar-19,0.30543,0.3075,0.30869,0.30125,11.87M,-0.67%,MIOTA
27-Mar-19,0.3075,0.29587,0.30815,0.29535,13.49M,3.93%,MIOTA
26-Mar-19,0.29587,0.298,0.29871,0.28766,11.08M,-0.71%,MIOTA
25-Mar-19,0.298,0.30856,0.30864,0.2928,15.96M,-3.45%,MIOTA
24-Mar-19,0.30863,0.31366,0.31366,0.30627,11.83M,-1.60%,MIOTA
23-Mar-19,0.31366,0.31193,0.324,0.3107,17.26M,0.55%,MIOTA
22-Mar-19,0.31193,0.31956,0.32427,0.30834,26.59M,-2.02%,MIOTA
21-Mar-19,0.31837,0.30083,0.31837,0.28324,30.22M,5.85%,MIOTA
20-Mar-19,0.30079,0.29735,0.30496,0.29436,14.49M,1.16%,MIOTA
19-Mar-19,0.29735,0.2965,0.29868,0.29375,9.52M,0.27%,MIOTA
18-Mar-19,0.29656,0.29676,0.30125,0.28969,16.83M,-0.07%,MIOTA
17-Mar-19,0.29676,0.30658,0.30667,0.29665,17.55M,-3.20%,MIOTA
16-Mar-19,0.30658,0.30117,0.3119,0.30055,27.07M,1.80%,MIOTA
15-Mar-19,0.30117,0.29876,0.30335,0.29705,9.85M,0.80%,MIOTA
14-Mar-19,0.29876,0.28797,0.304,0.28605,20.77M,3.76%,MIOTA
13-Mar-19,0.28793,0.2854,0.29374,0.28204,11.46M,0.89%,MIOTA
12-Mar-19,0.2854,0.28096,0.28751,0.27584,8.52M,1.58%,MIOTA
11-Mar-19,0.28096,0.28359,0.28782,0.27369,9.72M,-0.93%,MIOTA
10-Mar-19,0.28359,0.28493,0.28641,0.28081,5.89M,-0.47%,MIOTA
9-Mar-19,0.28493,0.27827,0.29324,0.2766,13.83M,2.39%,MIOTA
8-Mar-19,0.27827,0.28038,0.28504,0.27311,12.31M,-0.75%,MIOTA
7-Mar-19,0.28038,0.28176,0.28466,0.27247,11.18M,-0.49%,MIOTA
6-Mar-19,0.28176,0.28312,0.28421,0.27053,13.25M,-0.48%,MIOTA
5-Mar-19,0.28312,0.27464,0.28762,0.27243,12.71M,3.09%,MIOTA
4-Mar-19,0.27464,0.28721,0.28723,0.26863,12.24M,-4.38%,MIOTA
3-Mar-19,0.28721,0.29377,0.2971,0.28315,7.77M,-2.24%,MIOTA
2-Mar-19,0.29377,0.29699,0.29801,0.28651,7.52M,-1.08%,MIOTA
1-Mar-19,0.29699,0.28608,0.30395,0.28603,12.08M,3.81%,MIOTA
28-Feb-19,0.28608,0.28744,0.29059,0.28403,7.73M,-0.47%,MIOTA
27-Feb-19,0.28744,0.28488,0.29008,0.27911,8.83M,0.90%,MIOTA
26-Feb-19,0.28488,0.28804,0.29044,0.28288,8.11M,-1.09%,MIOTA
25-Feb-19,0.28804,0.28264,0.29279,0.2786,11.87M,1.91%,MIOTA
24-Feb-19,0.28264,0.32245,0.32975,0.27909,30.40M,-12.35%,MIOTA
23-Feb-19,0.32248,0.30434,0.32463,0.30185,15.68M,5.96%,MIOTA
22-Feb-19,0.30434,0.30114,0.30767,0.30079,9.49M,1.06%,MIOTA
21-Feb-19,0.30114,0.31666,0.3169,0.29799,10.74M,-4.90%,MIOTA
20-Feb-19,0.31666,0.30796,0.31743,0.303,10.89M,2.83%,MIOTA
19-Feb-19,0.30796,0.30725,0.31992,0.29782,25.68M,0.23%,MIOTA
18-Feb-19,0.30725,0.28016,0.31085,0.27647,25.68M,9.66%,MIOTA
17-Feb-19,0.28019,0.27601,0.28871,0.27401,11.22M,1.51%,MIOTA
16-Feb-19,0.27601,0.27364,0.27921,0.27213,6.25M,0.87%,MIOTA
15-Feb-19,0.27364,0.26836,0.27983,0.26704,8.30M,1.97%,MIOTA
14-Feb-19,0.26836,0.27221,0.27287,0.26463,6.88M,-1.42%,MIOTA
13-Feb-19,0.27223,0.27567,0.27902,0.26816,6.93M,-1.25%,MIOTA
12-Feb-19,0.27567,0.2694,0.27843,0.26475,8.78M,2.33%,MIOTA
11-Feb-19,0.2694,0.28478,0.28479,0.26873,12.19M,-5.40%,MIOTA
10-Feb-19,0.28478,0.27891,0.292,0.27408,14.49M,2.11%,MIOTA
9-Feb-19,0.27891,0.2811,0.28584,0.27339,9.86M,-0.78%,MIOTA
8-Feb-19,0.2811,0.25546,0.28692,0.25202,27.36M,10.07%,MIOTA
7-Feb-19,0.25538,0.24383,0.26044,0.2436,15.34M,4.74%,MIOTA
6-Feb-19,0.24383,0.25556,0.25704,0.24093,13.06M,-4.59%,MIOTA
5-Feb-19,0.25556,0.25682,0.25815,0.25356,4.65M,-0.50%,MIOTA
4-Feb-19,0.25685,0.2539,0.26107,0.25271,6.93M,1.16%,MIOTA
3-Feb-19,0.2539,0.26391,0.26556,0.25088,7.09M,-3.79%,MIOTA
2-Feb-19,0.26391,0.2584,0.26434,0.24893,11.73M,2.13%,MIOTA
1-Feb-19,0.2584,0.25784,0.25999,0.2495,11.86M,0.25%,MIOTA
31-Jan-19,0.25777,0.26398,0.27576,0.25432,14.77M,-2.35%,MIOTA
30-Jan-19,0.26398,0.25413,0.26677,0.25245,9.02M,3.88%,MIOTA
29-Jan-19,0.25413,0.25657,0.26092,0.24772,9.99M,-0.95%,MIOTA
28-Jan-19,0.25657,0.27077,0.27169,0.24581,19.89M,-5.25%,MIOTA
27-Jan-19,0.27079,0.28241,0.28516,0.26492,12.38M,-4.15%,MIOTA
26-Jan-19,0.28251,0.2872,0.29184,0.28231,7.43M,-1.63%,MIOTA
25-Jan-19,0.2872,0.29348,0.29405,0.28465,6.44M,-2.14%,MIOTA
24-Jan-19,0.29348,0.29595,0.29678,0.28819,8.89M,-0.83%,MIOTA
23-Jan-19,0.29595,0.30625,0.30769,0.29231,7.62M,-3.36%,MIOTA
22-Jan-19,0.30624,0.30229,0.31164,0.28692,10.53M,1.31%,MIOTA
21-Jan-19,0.30229,0.2964,0.30967,0.2964,6.72M,1.99%,MIOTA
20-Jan-19,0.2964,0.31336,0.31776,0.29147,9.85M,-5.50%,MIOTA
19-Jan-19,0.31364,0.30548,0.32671,0.30429,9.97M,2.67%,MIOTA
18-Jan-19,0.30548,0.3105,0.31414,0.30409,7.94M,-1.62%,MIOTA
17-Jan-19,0.3105,0.29688,0.32005,0.29224,11.39M,4.59%,MIOTA
16-Jan-19,0.29688,0.29698,0.3071,0.29257,11.24M,-0.03%,MIOTA
15-Jan-19,0.29698,0.30594,0.31003,0.2821,12.27M,-2.95%,MIOTA
14-Jan-19,0.30602,0.28461,0.31131,0.27333,15.83M,7.52%,MIOTA
13-Jan-19,0.28461,0.30863,0.31095,0.28255,9.67M,-7.78%,MIOTA
12-Jan-19,0.30863,0.31131,0.31439,0.29906,6.86M,-0.86%,MIOTA
11-Jan-19,0.31131,0.30962,0.31896,0.30549,9.97M,0.55%,MIOTA
10-Jan-19,0.30962,0.3677,0.37143,0.29484,28.05M,-15.80%,MIOTA
9-Jan-19,0.3677,0.36282,0.37287,0.36127,6.51M,1.34%,MIOTA
8-Jan-19,0.36282,0.36891,0.37415,0.35427,10.00M,-1.64%,MIOTA
7-Jan-19,0.36886,0.38194,0.38509,0.36379,6.51M,-3.42%,MIOTA
6-Jan-19,0.38194,0.36895,0.38863,0.3561,13.64M,3.52%,MIOTA
5-Jan-19,0.36895,0.37668,0.38553,0.36858,7.10M,-2.08%,MIOTA
4-Jan-19,0.3768,0.37893,0.38925,0.36434,11.46M,-0.56%,MIOTA
3-Jan-19,0.37893,0.39404,0.39868,0.37628,11.34M,-3.84%,MIOTA
2-Jan-19,0.39404,0.36995,0.39864,0.36443,17.10M,6.51%,MIOTA
1-Jan-19,0.36995,0.35598,0.37037,0.35036,7.35M,3.92%,MIOTA
31-Dec-18,0.35598,0.36046,0.37192,0.34616,11.29M,-1.23%,MIOTA
30-Dec-18,0.36041,0.35105,0.36328,0.34413,10.44M,2.66%,MIOTA
29-Dec-18,0.35108,0.36723,0.37333,0.34791,14.38M,-4.40%,MIOTA
28-Dec-18,0.36723,0.31743,0.36862,0.31452,22.38M,15.90%,MIOTA
27-Dec-18,0.31686,0.33253,0.33795,0.31372,13.30M,-4.71%,MIOTA
26-Dec-18,0.33253,0.33367,0.34992,0.31778,15.49M,-0.34%,MIOTA
25-Dec-18,0.33365,0.35741,0.35858,0.31522,24.10M,-6.74%,MIOTA
24-Dec-18,0.35778,0.36542,0.39418,0.35277,25.48M,-2.09%,MIOTA
23-Dec-18,0.36542,0.34717,0.38756,0.3435,27.66M,5.26%,MIOTA
22-Dec-18,0.34718,0.32545,0.349,0.32545,14.64M,6.68%,MIOTA
21-Dec-18,0.32545,0.34902,0.35594,0.31864,33.03M,-6.75%,MIOTA
20-Dec-18,0.34902,0.27933,0.35216,0.27782,43.25M,24.95%,MIOTA
19-Dec-18,0.27933,0.29222,0.31344,0.27932,37.91M,-4.41%,MIOTA
18-Dec-18,0.29221,0.25758,0.29325,0.25001,21.79M,13.45%,MIOTA
17-Dec-18,0.25758,0.22361,0.26442,0.2235,21.93M,15.19%,MIOTA
16-Dec-18,0.22361,0.22186,0.23417,0.221,9.05M,0.79%,MIOTA
15-Dec-18,0.22186,0.214,0.22462,0.20755,11.69M,3.67%,MIOTA
14-Dec-18,0.214,0.22033,0.22285,0.20821,9.63M,-2.78%,MIOTA
13-Dec-18,0.22011,0.23283,0.23322,0.21397,9.29M,-5.46%,MIOTA
12-Dec-18,0.23282,0.22305,0.23648,0.22269,6.75M,3.88%,MIOTA
11-Dec-18,0.22414,0.23132,0.23247,0.21874,8.41M,-3.11%,MIOTA
10-Dec-18,0.23132,0.23672,0.24063,0.22585,8.49M,-2.28%,MIOTA
9-Dec-18,0.23672,0.22552,0.24813,0.22414,12.34M,4.97%,MIOTA
8-Dec-18,0.22552,0.23404,0.24255,0.21481,13.70M,-3.64%,MIOTA
7-Dec-18,0.23404,0.23087,0.24903,0.20727,30.96M,1.37%,MIOTA
6-Dec-18,0.23087,0.2553,0.26571,0.22598,18.67M,-9.57%,MIOTA
5-Dec-18,0.2553,0.2772,0.27834,0.25148,11.84M,-7.90%,MIOTA
4-Dec-18,0.2772,0.27139,0.28758,0.26238,11.59M,2.10%,MIOTA
3-Dec-18,0.27151,0.29291,0.29595,0.26477,14.13M,-7.31%,MIOTA
2-Dec-18,0.29292,0.29856,0.31039,0.28972,10.56M,-1.89%,MIOTA
1-Dec-18,0.29856,0.28646,0.30278,0.2813,9.45M,4.22%,MIOTA
30-Nov-18,0.28646,0.3062,0.30725,0.27745,16.57M,-6.45%,MIOTA
29-Nov-18,0.3062,0.30075,0.31423,0.28916,18.97M,1.79%,MIOTA
28-Nov-18,0.30083,0.27302,0.30978,0.27302,26.67M,10.19%,MIOTA
27-Nov-18,0.273,0.2764,0.27854,0.2581,16.48M,-1.23%,MIOTA
26-Nov-18,0.2764,0.29077,0.30001,0.25818,31.13M,-4.94%,MIOTA
25-Nov-18,0.29077,0.28319,0.29684,0.2511,40.85M,2.67%,MIOTA
24-Nov-18,0.28319,0.32127,0.3294,0.26425,26.63M,-11.85%,MIOTA
23-Nov-18,0.32127,0.30616,0.32446,0.29495,19.87M,4.93%,MIOTA
22-Nov-18,0.30616,0.33224,0.33878,0.30616,16.59M,-7.85%,MIOTA
21-Nov-18,0.33224,0.30544,0.33566,0.29834,26.11M,8.76%,MIOTA
20-Nov-18,0.30547,0.35518,0.36604,0.282,57.82M,-14.00%,MIOTA
19-Nov-18,0.35518,0.41124,0.41199,0.34664,31.84M,-13.63%,MIOTA
18-Nov-18,0.41124,0.41127,0.41975,0.40978,6.27M,-0.01%,MIOTA
17-Nov-18,0.41127,0.41414,0.41987,0.40521,6.66M,-0.69%,MIOTA
16-Nov-18,0.41414,0.42737,0.42912,0.4076,9.85M,-3.10%,MIOTA
15-Nov-18,0.42737,0.43926,0.444,0.39422,31.00M,-2.71%,MIOTA
14-Nov-18,0.43926,0.49982,0.50237,0.36843,43.39M,-12.12%,MIOTA
13-Nov-18,0.49982,0.49883,0.50562,0.4932,11.10M,0.20%,MIOTA
12-Nov-18,0.49883,0.48465,0.50557,0.48401,10.37M,2.92%,MIOTA
11-Nov-18,0.48466,0.48553,0.48761,0.47709,3.65M,-0.18%,MIOTA
10-Nov-18,0.48553,0.47852,0.49697,0.47402,6.54M,1.46%,MIOTA
9-Nov-18,0.47852,0.4843,0.49347,0.47332,9.46M,-1.19%,MIOTA
8-Nov-18,0.4843,0.50536,0.50721,0.48016,13.19M,-4.17%,MIOTA
7-Nov-18,0.50536,0.51737,0.52331,0.49816,12.65M,-2.32%,MIOTA
6-Nov-18,0.51737,0.5061,0.51869,0.50093,11.87M,2.23%,MIOTA
5-Nov-18,0.5061,0.50069,0.50647,0.49428,7.23M,1.08%,MIOTA
4-Nov-18,0.50069,0.47849,0.51266,0.47198,14.05M,4.63%,MIOTA
3-Nov-18,0.47854,0.4862,0.48656,0.47357,5.09M,-1.58%,MIOTA
2-Nov-18,0.48621,0.47634,0.492,0.47272,10.38M,2.07%,MIOTA
1-Nov-18,0.47634,0.46789,0.48046,0.46397,6.57M,1.81%,MIOTA
31-Oct-18,0.46789,0.45156,0.47026,0.44106,10.35M,3.58%,MIOTA
30-Oct-18,0.4517,0.44926,0.46125,0.44886,6.34M,0.54%,MIOTA
29-Oct-18,0.44926,0.48198,0.48311,0.44727,12.33M,-6.79%,MIOTA
28-Oct-18,0.48198,0.47934,0.48298,0.47632,5.49M,0.55%,MIOTA
27-Oct-18,0.47934,0.4943,0.49599,0.47638,6.23M,-3.03%,MIOTA
26-Oct-18,0.4943,0.49786,0.50072,0.49218,6.42M,-0.71%,MIOTA
25-Oct-18,0.49786,0.49666,0.5043,0.49208,6.76M,0.24%,MIOTA
24-Oct-18,0.49666,0.49861,0.50329,0.4956,5.92M,-0.39%,MIOTA
23-Oct-18,0.49861,0.49872,0.50289,0.48994,10.83M,-0.02%,MIOTA
22-Oct-18,0.49872,0.49855,0.50488,0.49041,12.89M,0.03%,MIOTA
21-Oct-18,0.49855,0.50191,0.51201,0.49523,18.60M,-0.78%,MIOTA
20-Oct-18,0.50246,0.49314,0.51148,0.49281,19.31M,1.89%,MIOTA
19-Oct-18,0.49314,0.50238,0.50586,0.4912,15.90M,-1.84%,MIOTA
18-Oct-18,0.50238,0.52394,0.53702,0.49674,23.97M,-4.11%,MIOTA
17-Oct-18,0.52394,0.51461,0.53015,0.50833,20.36M,1.81%,MIOTA
16-Oct-18,0.51461,0.51381,0.52015,0.50667,16.58M,0.25%,MIOTA
15-Oct-18,0.51331,0.48685,0.5535,0.47803,47.42M,5.44%,MIOTA
14-Oct-18,0.48685,0.48961,0.50371,0.48416,16.91M,-0.56%,MIOTA
13-Oct-18,0.48961,0.48908,0.50435,0.48809,16.46M,0.11%,MIOTA
12-Oct-18,0.48908,0.48089,0.51031,0.47615,21.83M,1.58%,MIOTA
11-Oct-18,0.48148,0.58776,0.58888,0.47807,54.33M,-18.08%,MIOTA
10-Oct-18,0.58775,0.59221,0.59244,0.56875,22.58M,-0.75%,MIOTA
9-Oct-18,0.5922,0.60347,0.60866,0.5845,24.76M,-1.87%,MIOTA
8-Oct-18,0.60347,0.57531,0.60856,0.57275,27.72M,4.89%,MIOTA
7-Oct-18,0.57531,0.5659,0.57692,0.55989,14.98M,1.66%,MIOTA
6-Oct-18,0.5659,0.57741,0.57995,0.56077,16.38M,-1.99%,MIOTA
5-Oct-18,0.57741,0.55733,0.58201,0.55287,20.26M,3.60%,MIOTA
4-Oct-18,0.55733,0.55377,0.57599,0.55377,21.69M,0.64%,MIOTA
3-Oct-18,0.55377,0.56088,0.56098,0.54327,17.92M,-1.27%,MIOTA
2-Oct-18,0.56089,0.56176,0.57056,0.55332,19.08M,-0.24%,MIOTA
1-Oct-18,0.56224,0.56764,0.57964,0.54309,21.95M,-0.95%,MIOTA
30-Sep-18,0.56764,0.56505,0.57456,0.55764,19.56M,0.46%,MIOTA
29-Sep-18,0.56505,0.57133,0.57357,0.55275,16.44M,-1.16%,MIOTA
28-Sep-18,0.5717,0.58537,0.59254,0.55666,27.51M,-2.33%,MIOTA
27-Sep-18,0.58532,0.54823,0.5987,0.53385,32.85M,6.76%,MIOTA
26-Sep-18,0.54823,0.56919,0.57393,0.54377,23.14M,-3.59%,MIOTA
25-Sep-18,0.56864,0.55772,0.56942,0.52706,34.98M,1.97%,MIOTA
24-Sep-18,0.55768,0.61112,0.61537,0.54168,60.63M,-8.74%,MIOTA
23-Sep-18,0.6111,0.60776,0.63258,0.59628,27.58M,0.55%,MIOTA
22-Sep-18,0.60776,0.62996,0.64634,0.57481,34.71M,-3.52%,MIOTA
21-Sep-18,0.62996,0.56512,0.63384,0.55522,53.42M,11.47%,MIOTA
20-Sep-18,0.56512,0.53019,0.57909,0.52524,34.40M,6.59%,MIOTA
19-Sep-18,0.53019,0.53442,0.54245,0.50312,36.14M,-0.79%,MIOTA
18-Sep-18,0.53442,0.53363,0.54707,0.50491,46.87M,0.04%,MIOTA
17-Sep-18,0.5342,0.57747,0.58466,0.52386,33.65M,-7.49%,MIOTA
16-Sep-18,0.57747,0.57047,0.5837,0.55622,22.81M,1.20%,MIOTA
15-Sep-18,0.57063,0.57021,0.5922,0.56178,25.09M,0.07%,MIOTA
14-Sep-18,0.57024,0.57319,0.61296,0.55576,34.20M,-0.14%,MIOTA
13-Sep-18,0.57105,0.54828,0.59947,0.54825,38.83M,4.15%,MIOTA
12-Sep-18,0.54828,0.54495,0.55466,0.5019,40.05M,0.61%,MIOTA
11-Sep-18,0.54495,0.57044,0.58329,0.52676,40.07M,-4.43%,MIOTA
10-Sep-18,0.57022,0.55547,0.59901,0.55253,38.86M,2.66%,MIOTA
9-Sep-18,0.55547,0.53092,0.5839,0.51517,42.88M,4.62%,MIOTA
8-Sep-18,0.53092,0.56618,0.59081,0.52055,40.61M,-6.23%,MIOTA
7-Sep-18,0.56618,0.59989,0.61745,0.55069,42.55M,-5.77%,MIOTA
6-Sep-18,0.60084,0.57504,0.60351,0.53329,56.01M,4.40%,MIOTA
5-Sep-18,0.57553,0.70261,0.71591,0.56577,60.11M,-18.09%,MIOTA
4-Sep-18,0.70261,0.69876,0.74162,0.69276,38.21M,0.55%,MIOTA
3-Sep-18,0.69876,0.71531,0.72794,0.68724,34.73M,-2.31%,MIOTA
2-Sep-18,0.71531,0.7406,0.74381,0.70161,36.19M,-3.47%,MIOTA
1-Sep-18,0.74101,0.71069,0.75684,0.71065,45.14M,4.18%,MIOTA
31-Aug-18,0.71125,0.71867,0.73991,0.69033,49.70M,-1.03%,MIOTA
30-Aug-18,0.71867,0.73485,0.73485,0.66563,72.81M,-2.20%,MIOTA
29-Aug-18,0.73485,0.76923,0.81169,0.71803,49.99M,-4.41%,MIOTA
28-Aug-18,0.76874,0.67252,0.79345,0.65462,75.98M,14.30%,MIOTA
27-Aug-18,0.67254,0.55849,0.68483,0.55574,50.28M,20.11%,MIOTA
26-Aug-18,0.55995,0.53778,0.56983,0.51578,19.40M,4.12%,MIOTA
25-Aug-18,0.53778,0.51847,0.54422,0.51646,18.11M,3.67%,MIOTA
24-Aug-18,0.51875,0.50489,0.52155,0.49055,16.97M,2.75%,MIOTA
23-Aug-18,0.50489,0.47668,0.51073,0.47547,22.81M,6.04%,MIOTA
22-Aug-18,0.47614,0.51882,0.55554,0.45958,37.14M,-8.23%,MIOTA
21-Aug-18,0.51882,0.49483,0.53486,0.49483,22.15M,4.93%,MIOTA
20-Aug-18,0.49444,0.53801,0.54438,0.49116,27.93M,-8.06%,MIOTA
19-Aug-18,0.53777,0.49654,0.56335,0.47984,34.66M,8.31%,MIOTA
18-Aug-18,0.49649,0.563,0.57335,0.46465,32.51M,-11.81%,MIOTA
17-Aug-18,0.563,0.46503,0.56475,0.46318,40.86M,21.07%,MIOTA
16-Aug-18,0.46502,0.44394,0.47866,0.43574,26.81M,4.75%,MIOTA
15-Aug-18,0.44394,0.44827,0.4952,0.43848,37.30M,-0.97%,MIOTA
14-Aug-18,0.44827,0.45712,0.46049,0.40487,42.25M,-1.94%,MIOTA
13-Aug-18,0.45712,0.54054,0.54879,0.4543,28.60M,-15.43%,MIOTA
12-Aug-18,0.54054,0.51962,0.55273,0.51587,19.90M,4.03%,MIOTA
11-Aug-18,0.51962,0.57249,0.57433,0.50363,31.86M,-9.23%,MIOTA
10-Aug-18,0.57249,0.63775,0.64704,0.54783,37.57M,-10.21%,MIOTA
9-Aug-18,0.6376,0.61421,0.67296,0.59739,29.71M,3.81%,MIOTA
8-Aug-18,0.61421,0.72121,0.72256,0.60014,49.89M,-14.86%,MIOTA
7-Aug-18,0.72137,0.78906,0.80578,0.68958,67.88M,-8.58%,MIOTA
6-Aug-18,0.78906,0.90992,0.92699,0.77088,39.84M,-13.28%,MIOTA
5-Aug-18,0.90984,0.8487,1.00107,0.8453,31.40M,7.20%,MIOTA
4-Aug-18,0.8487,0.9597,0.97993,0.83545,26.44M,-11.57%,MIOTA
3-Aug-18,0.9597,0.88418,0.96698,0.7773,47.68M,8.54%,MIOTA
2-Aug-18,0.88418,0.92485,0.93193,0.87805,14.25M,-4.40%,MIOTA
1-Aug-18,0.92485,0.94496,0.94717,0.90055,13.14M,-2.03%,MIOTA
31-Jul-18,0.94404,0.977,0.98557,0.92842,14.08M,-3.37%,MIOTA
30-Jul-18,0.977,1.01244,1.01314,0.94826,12.88M,-3.50%,MIOTA
29-Jul-18,1.01244,1.02745,1.03692,1.00573,10.29M,-1.47%,MIOTA
28-Jul-18,1.02759,1.01279,1.03327,0.99821,12.22M,1.46%,MIOTA
27-Jul-18,1.01279,1.01371,1.03642,0.97239,17.57M,-0.04%,MIOTA
26-Jul-18,1.01318,0.98714,1.06188,0.98672,20.30M,2.64%,MIOTA
25-Jul-18,0.98714,0.98527,1.01569,0.96559,16.41M,0.19%,MIOTA
24-Jul-18,0.98527,0.93697,0.99831,0.91701,19.81M,5.16%,MIOTA
23-Jul-18,0.93697,0.9783,1.01222,0.93035,17.84M,-4.22%,MIOTA
22-Jul-18,0.9783,1.00242,1.01248,0.96888,13.42M,-2.41%,MIOTA
21-Jul-18,1.00242,0.96183,1.02065,0.94372,14.61M,4.22%,MIOTA
20-Jul-18,0.96183,1.04256,1.04324,0.94795,23.21M,-7.74%,MIOTA
19-Jul-18,1.04256,1.089,1.09228,1.0322,18.20M,-4.26%,MIOTA
18-Jul-18,1.089,1.13032,1.1725,1.06936,22.82M,-3.67%,MIOTA
17-Jul-18,1.13045,1.08229,1.15707,1.05072,23.70M,4.45%,MIOTA
16-Jul-18,1.08229,0.99849,1.0913,0.98603,22.56M,8.39%,MIOTA
15-Jul-18,0.99849,0.97002,1.01587,0.96637,12.07M,2.94%,MIOTA
14-Jul-18,0.97002,0.9617,0.98228,0.95048,8.86M,0.86%,MIOTA
13-Jul-18,0.9617,0.96428,0.99533,0.95396,15.08M,-0.27%,MIOTA
12-Jul-18,0.96428,0.99841,0.99996,0.93067,16.96M,-3.42%,MIOTA
11-Jul-18,0.99841,0.9553,1.00056,0.94643,15.66M,4.52%,MIOTA
10-Jul-18,0.95519,1.0364,1.03746,0.94847,22.22M,-7.84%,MIOTA
9-Jul-18,1.0364,1.08103,1.08924,1.03211,16.22M,-4.14%,MIOTA
8-Jul-18,1.08116,1.10061,1.13267,1.06932,17.24M,-1.76%,MIOTA
7-Jul-18,1.10058,1.05496,1.10266,1.02994,16.46M,4.32%,MIOTA
6-Jul-18,1.05496,1.1521,1.15798,1.0253,26.68M,-8.43%,MIOTA
5-Jul-18,1.1521,1.21018,1.2115,1.10948,23.74M,-4.80%,MIOTA
4-Jul-18,1.21018,1.14075,1.24139,1.09822,23.03M,6.08%,MIOTA
3-Jul-18,1.14082,1.16858,1.2279,1.1241,27.64M,0.42%,MIOTA
2-Jul-18,1.13604,1.07065,1.07065,1.03317,25.30M,6.18%,MIOTA
1-Jul-18,1.0699,1.00933,1.08314,0.98815,21.08M,5.92%,MIOTA
30-Jun-18,1.01006,0.96085,1.03058,0.96024,18.69M,5.10%,MIOTA
29-Jun-18,0.96101,0.91717,0.97567,0.89355,21.70M,4.91%,MIOTA
28-Jun-18,0.91605,0.98675,0.99795,0.90347,15.73M,-7.16%,MIOTA
27-Jun-18,0.98673,0.93848,1.00607,0.92465,18.26M,5.03%,MIOTA
26-Jun-18,0.93944,1.01698,1.02458,0.93148,19.82M,-7.60%,MIOTA
25-Jun-18,1.01672,0.97514,1.0524,0.95747,22.45M,4.26%,MIOTA
24-Jun-18,0.97519,1.03648,1.04193,0.88816,33.29M,-6.08%,MIOTA
23-Jun-18,1.03829,0.97685,1.06937,0.96124,23.01M,6.27%,MIOTA
22-Jun-18,0.97704,1.15675,1.17077,0.93334,39.61M,-15.48%,MIOTA
21-Jun-18,1.15593,1.16107,1.17721,1.13894,12.74M,-0.50%,MIOTA
20-Jun-18,1.16171,1.17385,1.17692,1.11074,19.55M,-1.03%,MIOTA
19-Jun-18,1.17386,1.17918,1.24962,1.15892,22.75M,-0.44%,MIOTA
18-Jun-18,1.17909,1.15649,1.20892,1.0825,28.32M,1.91%,MIOTA
17-Jun-18,1.15702,1.19378,1.21046,1.15702,15.56M,-3.07%,MIOTA
16-Jun-18,1.19362,1.18004,1.2241,1.15667,16.23M,1.25%,MIOTA
15-Jun-18,1.17888,1.27296,1.29461,1.15865,22.88M,-7.33%,MIOTA
14-Jun-18,1.2721,1.20098,1.31693,1.17118,31.23M,5.94%,MIOTA
13-Jun-18,1.20076,1.25073,1.28572,1.13137,35.02M,-3.98%,MIOTA
12-Jun-18,1.25048,1.44014,1.44188,1.21675,27.01M,-13.13%,MIOTA
11-Jun-18,1.43949,1.36422,1.45055,1.31647,21.37M,5.46%,MIOTA
10-Jun-18,1.36499,1.62034,1.62034,1.30629,43.03M,-15.77%,MIOTA
9-Jun-18,1.62062,1.70461,1.74159,1.6154,16.59M,-5.03%,MIOTA
8-Jun-18,1.70644,1.69646,1.72602,1.66525,12.31M,0.56%,MIOTA
7-Jun-18,1.69689,1.698,1.74441,1.67725,14.09M,-0.07%,MIOTA
6-Jun-18,1.69806,1.74846,1.75972,1.6371,16.06M,-2.82%,MIOTA
5-Jun-18,1.74738,1.71821,1.77847,1.66108,18.01M,1.81%,MIOTA
4-Jun-18,1.71624,1.80825,1.84691,1.69056,23.50M,-4.99%,MIOTA
3-Jun-18,1.80645,1.88971,2.00676,1.77241,35.35M,-4.47%,MIOTA
2-Jun-18,1.89105,1.91976,1.9448,1.85027,21.61M,-1.42%,MIOTA
1-Jun-18,1.91822,1.75307,1.94072,1.71451,30.77M,9.46%,MIOTA
31-May-18,1.75246,1.56669,1.81394,1.55377,32.09M,11.75%,MIOTA
30-May-18,1.56819,1.58526,1.64221,1.51011,23.19M,-1.08%,MIOTA
29-May-18,1.58527,1.34634,1.65337,1.33072,32.25M,17.60%,MIOTA
28-May-18,1.348,1.45747,1.47081,1.34003,16.03M,-7.53%,MIOTA
27-May-18,1.45782,1.47218,1.47502,1.41352,13.85M,-1.09%,MIOTA
26-May-18,1.47382,1.48598,1.54058,1.45638,12.22M,-0.81%,MIOTA
25-May-18,1.48588,1.53228,1.57925,1.44353,16.94M,-2.87%,MIOTA
24-May-18,1.52983,1.46255,1.54674,1.37976,22.00M,4.53%,MIOTA
23-May-18,1.46348,1.62471,1.64237,1.39204,31.02M,-9.93%,MIOTA
22-May-18,1.62484,1.72187,1.74245,1.61242,15.91M,-5.64%,MIOTA
21-May-18,1.72187,1.82093,1.83559,1.71311,13.98M,-5.44%,MIOTA
20-May-18,1.82093,1.7416,1.84168,1.73031,13.30M,4.55%,MIOTA
19-May-18,1.7416,1.75356,1.81056,1.70454,14.74M,-0.68%,MIOTA
18-May-18,1.75356,1.70359,1.77519,1.64561,17.12M,2.83%,MIOTA
17-May-18,1.70522,1.89146,1.95141,1.67196,22.62M,-9.81%,MIOTA
16-May-18,1.89061,1.99052,1.9916,1.79657,22.24M,-4.86%,MIOTA
15-May-18,1.98722,1.93092,2.08563,1.90389,24.65M,2.99%,MIOTA
14-May-18,1.92959,1.99877,2.01058,1.80773,20.54M,-3.37%,MIOTA
13-May-18,1.99694,1.9046,2.02802,1.80285,17.89M,5.61%,MIOTA
12-May-18,1.89095,1.83318,1.95034,1.6951,23.61M,3.22%,MIOTA
11-May-18,1.83196,2.12992,2.14131,1.77314,35.85M,-14.03%,MIOTA
10-May-18,2.13093,2.27292,2.30972,2.12615,17.41M,-6.30%,MIOTA
9-May-18,2.27413,2.44029,2.44029,2.24048,19.25M,-6.84%,MIOTA
8-May-18,2.44121,2.2578,2.61971,2.22673,42.56M,8.89%,MIOTA
7-May-18,2.24188,2.30031,2.30897,2.0839,21.57M,-2.57%,MIOTA
6-May-18,2.30101,2.38667,2.52136,2.19608,23.45M,-3.57%,MIOTA
5-May-18,2.38625,2.46478,2.48095,2.31729,16.96M,-3.25%,MIOTA
4-May-18,2.46629,2.5846,2.60507,2.3442,25.90M,-4.62%,MIOTA
3-May-18,2.58569,2.28057,2.69764,2.20346,45.69M,13.59%,MIOTA
2-May-18,2.27637,1.98703,2.35637,1.94212,28.37M,14.53%,MIOTA
1-May-18,1.98763,1.95827,1.98997,1.82173,13.57M,1.50%,MIOTA
30-Apr-18,1.95827,2.03825,2.05221,1.93065,11.92M,-3.92%,MIOTA
29-Apr-18,2.03825,2.03225,2.13404,1.92052,17.43M,0.37%,MIOTA
28-Apr-18,2.03069,1.89315,2.08816,1.87173,13.86M,7.27%,MIOTA
27-Apr-18,1.89315,2.03433,2.09719,1.8779,13.85M,-7.27%,MIOTA
26-Apr-18,2.04159,1.79547,2.06124,1.70952,16.56M,13.71%,MIOTA
25-Apr-18,1.79547,2.12878,2.12886,1.72553,38.49M,-15.69%,MIOTA
24-Apr-18,2.12968,2.12805,2.22885,2.11321,17.14M,0.08%,MIOTA
23-Apr-18,2.12805,1.99915,2.19789,1.98017,16.90M,6.45%,MIOTA
22-Apr-18,1.99915,1.92457,2.11102,1.87429,19.85M,3.87%,MIOTA
21-Apr-18,1.92457,1.97566,1.99852,1.80099,16.00M,-2.59%,MIOTA
20-Apr-18,1.97566,1.76803,2.01822,1.7363,20.62M,11.72%,MIOTA
19-Apr-18,1.76847,1.68306,1.78347,1.63959,13.16M,5.08%,MIOTA
18-Apr-18,1.68305,1.555,1.71075,1.54808,12.12M,8.23%,MIOTA
17-Apr-18,1.555,1.62578,1.66956,1.53682,12.40M,-4.37%,MIOTA
16-Apr-18,1.62614,1.67282,1.69962,1.51642,21.59M,-2.79%,MIOTA
15-Apr-18,1.67282,1.43902,1.69711,1.43458,30.87M,16.25%,MIOTA
14-Apr-18,1.43902,1.32033,1.46397,1.2919,12.27M,9.00%,MIOTA
13-Apr-18,1.32025,1.34341,1.51115,1.28211,29.50M,-1.51%,MIOTA
12-Apr-18,1.34049,1.06198,1.39397,1.03023,26.29M,25.69%,MIOTA
11-Apr-18,1.06646,1.01148,1.07432,0.99984,5.51M,5.44%,MIOTA
10-Apr-18,1.01148,0.98779,1.01763,0.9613,5.14M,2.43%,MIOTA
9-Apr-18,0.98745,1.02113,1.06365,0.96309,7.38M,-3.30%,MIOTA
8-Apr-18,1.02113,0.98024,1.04791,0.97215,6.23M,4.17%,MIOTA
7-Apr-18,0.98024,0.93071,1.0198,0.92651,5.45M,5.32%,MIOTA
6-Apr-18,0.93071,0.97267,0.99277,0.91868,5.24M,-4.32%,MIOTA
5-Apr-18,0.97271,0.9823,0.99201,0.92782,7.11M,-0.98%,MIOTA
4-Apr-18,0.9823,1.10324,1.1081,0.95757,8.78M,-10.96%,MIOTA
3-Apr-18,1.10324,1.02684,1.11597,1.02684,7.40M,7.44%,MIOTA
2-Apr-18,1.02684,0.98924,1.06131,0.98283,7.44M,3.80%,MIOTA
1-Apr-18,0.98924,1.07138,1.09198,0.94617,13.42M,-7.67%,MIOTA
31-Mar-18,1.07138,1.10536,1.15628,1.06433,8.35M,-3.07%,MIOTA
30-Mar-18,1.10536,1.08621,1.137,1.04514,11.40M,1.76%,MIOTA
29-Mar-18,1.08621,1.18039,1.18966,1.05952,13.47M,-7.98%,MIOTA
28-Mar-18,1.18039,1.16907,1.24025,1.15656,5.17M,0.97%,MIOTA
27-Mar-18,1.16907,1.22717,1.23572,1.14485,7.80M,-4.73%,MIOTA
26-Mar-18,1.22717,1.31762,1.32581,1.17878,8.86M,-6.86%,MIOTA
25-Mar-18,1.31762,1.31796,1.361,1.26509,5.55M,-0.24%,MIOTA
24-Mar-18,1.3208,1.35619,1.41093,1.31097,6.21M,-2.61%,MIOTA
23-Mar-18,1.35619,1.31631,1.35619,1.24736,7.34M,3.03%,MIOTA
22-Mar-18,1.31631,1.36427,1.41489,1.26049,8.46M,-3.52%,MIOTA
21-Mar-18,1.36427,1.43689,1.50073,1.33484,13.15M,-5.54%,MIOTA
20-Mar-18,1.44421,1.3233,1.51825,1.28557,17.45M,9.15%,MIOTA
19-Mar-18,1.32312,1.22649,1.33649,1.17922,15.72M,8.19%,MIOTA
18-Mar-18,1.22294,1.1322,1.30345,1.0496,31.63M,8.01%,MIOTA
17-Mar-18,1.1322,1.09093,1.14745,1.06133,11.46M,3.78%,MIOTA
16-Mar-18,1.09093,1.08504,1.14466,1.02125,9.13M,0.54%,MIOTA
15-Mar-18,1.08506,1.11282,1.14831,1.03119,15.27M,-2.49%,MIOTA
14-Mar-18,1.11282,1.30106,1.36579,1.09398,15.79M,-14.47%,MIOTA
13-Mar-18,1.30106,1.32906,1.34303,1.27099,5.09M,-1.94%,MIOTA
12-Mar-18,1.32679,1.37317,1.417,1.26425,9.07M,-3.38%,MIOTA
11-Mar-18,1.37317,1.2924,1.43684,1.24745,11.12M,6.25%,MIOTA
10-Mar-18,1.2924,1.38178,1.47416,1.26929,11.38M,-6.47%,MIOTA
9-Mar-18,1.38178,1.37177,1.39704,1.17356,21.72M,0.68%,MIOTA
8-Mar-18,1.37246,1.52825,1.53735,1.35502,10.76M,-10.19%,MIOTA
7-Mar-18,1.52825,1.68882,1.70995,1.35269,22.31M,-9.54%,MIOTA
6-Mar-18,1.68945,1.85948,1.88594,1.62507,15.00M,-9.46%,MIOTA
5-Mar-18,1.86593,1.89249,1.90123,1.84104,4.67M,-1.40%,MIOTA
4-Mar-18,1.89249,1.85838,1.91232,1.80886,5.42M,1.84%,MIOTA
3-Mar-18,1.85838,1.91524,1.96195,1.83938,5.31M,-2.97%,MIOTA
2-Mar-18,1.9153,1.96335,2.0109,1.85527,5.55M,-2.45%,MIOTA
1-Mar-18,1.96335,1.84805,2.01589,1.82183,7.83M,6.08%,MIOTA
28-Feb-18,1.85089,1.96098,2.01757,1.83307,8.59M,-5.73%,MIOTA
27-Feb-18,1.96337,1.85027,2.07182,1.79137,12.82M,6.03%,MIOTA
26-Feb-18,1.8518,1.7907,1.89515,1.74801,8.21M,3.50%,MIOTA
25-Feb-18,1.78925,1.73872,1.95655,1.7187,15.55M,2.77%,MIOTA
24-Feb-18,1.74099,1.7205,1.78625,1.61955,8.46M,1.19%,MIOTA
23-Feb-18,1.7205,1.603,1.797,1.55807,8.69M,7.33%,MIOTA
22-Feb-18,1.603,1.71192,1.84558,1.54642,13.52M,-6.36%,MIOTA
21-Feb-18,1.71192,1.87619,1.91699,1.69003,12.52M,-9.11%,MIOTA
20-Feb-18,1.88345,2.0665,2.10864,1.83511,9.98M,-8.86%,MIOTA
19-Feb-18,2.06651,1.95256,2.13749,1.94203,6.49M,5.92%,MIOTA
18-Feb-18,1.95099,2.18682,2.19619,1.93143,9.22M,-10.78%,MIOTA
17-Feb-18,2.18675,2.08674,2.19863,2.06502,7.89M,4.79%,MIOTA
16-Feb-18,2.08674,2.09609,2.16924,1.96328,9.35M,-0.44%,MIOTA
15-Feb-18,2.09597,2.02173,2.16498,1.96402,13.70M,3.51%,MIOTA
14-Feb-18,2.02488,1.8103,2.03678,1.76954,10.06M,11.85%,MIOTA
13-Feb-18,1.8103,1.86959,1.87222,1.72271,6.34M,-3.17%,MIOTA
12-Feb-18,1.86959,1.6694,1.90435,1.6694,8.47M,11.99%,MIOTA
11-Feb-18,1.6694,1.83273,1.83466,1.58945,10.32M,-8.91%,MIOTA
10-Feb-18,1.83273,1.9311,2.10323,1.73505,13.28M,-5.09%,MIOTA
9-Feb-18,1.9311,1.76361,1.98784,1.6635,11.35M,9.50%,MIOTA
8-Feb-18,1.76361,1.58697,1.87239,1.58697,11.32M,11.13%,MIOTA
7-Feb-18,1.58697,1.5905,1.88469,1.51834,20.24M,-0.21%,MIOTA
6-Feb-18,1.59031,1.44008,1.71736,1.20011,31.21M,10.43%,MIOTA
5-Feb-18,1.44008,1.73602,1.7756,1.33112,24.96M,-17.05%,MIOTA
4-Feb-18,1.73602,2.00534,2.07562,1.60967,15.75M,-13.43%,MIOTA
3-Feb-18,2.00534,1.80739,2.0468,1.62092,13.52M,10.99%,MIOTA
2-Feb-18,1.80681,1.89377,1.94318,1.4302,33.41M,-4.59%,MIOTA
1-Feb-18,1.89377,2.29694,2.31471,1.72603,25.80M,-17.55%,MIOTA
31-Jan-18,2.29694,2.21985,2.34734,2.17535,7.86M,3.47%,MIOTA
30-Jan-18,2.21985,2.56233,2.62168,2.15453,17.92M,-13.30%,MIOTA
29-Jan-18,2.5604,2.5012,2.5849,2.3791,7.37M,2.37%,MIOTA
28-Jan-18,2.5012,2.4611,2.5596,2.4412,5.13M,1.63%,MIOTA
27-Jan-18,2.461,2.36,2.5,2.342,6.77M,4.28%,MIOTA
26-Jan-18,2.3599,2.3488,2.46,2.19,11.04M,0.46%,MIOTA
25-Jan-18,2.3491,2.46,2.5955,2.33,8.62M,-4.49%,MIOTA
24-Jan-18,2.4595,2.5099,2.58,2.3426,10.90M,-2.01%,MIOTA
23-Jan-18,2.5099,2.4546,2.64193,2.203,14.45M,2.05%,MIOTA
22-Jan-18,2.4596,2.77,2.9111,2.123,20.93M,-11.21%,MIOTA
21-Jan-18,2.77,2.9899,2.99,2.61,13.46M,-7.36%,MIOTA
20-Jan-18,2.99,2.6638,3.141,2.6618,15.32M,12.25%,MIOTA
19-Jan-18,2.6638,2.71,2.913,2.4,17.07M,-1.70%,MIOTA
18-Jan-18,2.71,2.696,3.02,2.5501,19.63M,0.37%,MIOTA
17-Jan-18,2.7,2.5574,2.9236,1.9421,43.84M,6.50%,MIOTA
16-Jan-18,2.5351,3.4734,3.4779,1.9347,51.77M,-27.01%,MIOTA
15-Jan-18,3.4734,3.7162,3.7744,3.4186,7.78M,-6.60%,MIOTA
14-Jan-18,3.7187,3.8964,3.9584,3.5709,11.53M,-4.56%,MIOTA
13-Jan-18,3.8964,3.6389,4.08,3.6357,14.42M,7.08%,MIOTA
12-Jan-18,3.6389,3.3503,3.6941,3.2206,9.89M,8.43%,MIOTA
11-Jan-18,3.356,3.7355,3.799,2.98,25.65M,-10.16%,MIOTA
10-Jan-18,3.7355,3.5379,3.7627,3.1,20.59M,5.84%,MIOTA
9-Jan-18,3.5295,3.7929,3.9199,3.4051,16.69M,-6.95%,MIOTA
8-Jan-18,3.793,4.0832,4.2009,3.2,26.30M,-7.03%,MIOTA
7-Jan-18,4.08,3.99,4.44,3.95,21.36M,2.26%,MIOTA
6-Jan-18,3.99,3.76,4.14,3.75,10.44M,6.12%,MIOTA
5-Jan-18,3.76,4.1,4.19,3.62,14.46M,-8.29%,MIOTA
4-Jan-18,4.1,4.13,4.5,3.71,33.28M,-0.73%,MIOTA
3-Jan-18,4.13,3.98,4.18,3.9,15.25M,3.77%,MIOTA
2-Jan-18,3.98,3.9,4.25,3.79,21.85M,2.05%,MIOTA
1-Jan-18,3.9,3.51,4.2,3.39,24.15M,11.11%,MIOTA
31-Dec-17,3.51,3.24,3.69,3.23,18.03M,8.33%,MIOTA
30-Dec-17,3.24,3.65,3.74,2.9,34.69M,-11.23%,MIOTA
29-Dec-17,3.65,3.65,3.91,3.43,23.20M,0.00%,MIOTA
28-Dec-17,3.65,3.71,3.77,3.21,30.37M,-1.62%,MIOTA
27-Dec-17,3.71,3.77,4.34,3.58,45.12M,-1.59%,MIOTA
26-Dec-17,3.77,3.45,3.79,3.43,20.99M,9.28%,MIOTA
25-Dec-17,3.45,3.42,3.79,3.21,25.97M,0.88%,MIOTA
24-Dec-17,3.42,3.56,3.6,2.72,53.25M,-3.93%,MIOTA
23-Dec-17,3.56,3.38,4.09,3.25,42.23M,5.33%,MIOTA
22-Dec-17,3.38,4.74,4.83,1.1,170.48M,-28.69%,MIOTA
21-Dec-17,4.74,4.87,5.33,4.51,41.07M,-2.67%,MIOTA
20-Dec-17,4.87,5.32,5.55,4.5,57.63M,-8.46%,MIOTA
19-Dec-17,5.32,4.16,5.8,3.7,113.86M,27.88%,MIOTA
18-Dec-17,4.16,3.76,4.38,3.52,46.88M,10.64%,MIOTA
17-Dec-17,3.76,3.59,3.98,3.41,35.58M,4.74%,MIOTA
16-Dec-17,3.59,3.9,4.04,3.4,33.56M,-7.95%,MIOTA
15-Dec-17,3.9,3.7,4.19,3.32,50.03M,5.41%,MIOTA
14-Dec-17,3.7,4.05,4.33,3.25,75.43M,-8.64%,MIOTA
13-Dec-17,4.05,4.73,4.78,3.63,52.82M,-14.38%,MIOTA
12-Dec-17,4.73,4.22,5.03,4.13,44.61M,12.09%,MIOTA
11-Dec-17,4.22,4.04,4.55,4,38.17M,5.24%,MIOTA
10-Dec-17,4.01,4.53,4.53,3.56,76.64M,-11.48%,MIOTA
9-Dec-17,4.53,4.95,5.2,4.01,61.08M,-8.48%,MIOTA
8-Dec-17,4.95,4.04,4.95,3.43,70.60M,22.52%,MIOTA
7-Dec-17,4.04,4.35,4.58,3.03,95.06M,-7.13%,MIOTA
6-Dec-17,4.35,3.74,5.58,3.51,102.73M,16.31%,MIOTA
5-Dec-17,3.74,2.63,3.97,2.1,87.91M,42.21%,MIOTA
4-Dec-17,2.63,1.84,2.89,1.83,47.26M,42.93%,MIOTA
3-Dec-17,1.84,1.45,1.98,1.42,38.47M,26.90%,MIOTA
2-Dec-17,1.45,1.44,1.45,1.33,30.56M,0.69%,MIOTA
1-Dec-17,1.44,1.31,1.5,1.22,31.61M,9.92%,MIOTA
30-Nov-17,1.31,1.24,1.38,1.08,46.48M,5.65%,MIOTA
29-Nov-17,1.24,1.45,1.54,1.07,50.12M,-14.48%,MIOTA
28-Nov-17,1.45,1.04,1.47,1.02,60.24M,39.42%,MIOTA
27-Nov-17,1.04,0.8055,1.1,0.7882,52.89M,29.11%,MIOTA
26-Nov-17,0.8055,0.8055,0.8055,0.8055,-,0.00%,MIOTA
25-Nov-17,0.8055,0.7837,0.856,0.7051,33.55M,2.78%,MIOTA
24-Nov-17,0.7837,0.7791,0.7942,0.668,53.94M,0.59%,MIOTA
23-Nov-17,0.7791,0.9009,0.915,0.779,34.28M,-13.52%,MIOTA
22-Nov-17,0.9009,0.8844,0.9551,0.8524,32.45M,1.87%,MIOTA
21-Nov-17,0.8844,0.9584,0.982,0.7463,48.62M,-7.72%,MIOTA
20-Nov-17,0.9584,0.851,0.984,0.85,36.09M,12.49%,MIOTA
19-Nov-17,0.852,0.8163,0.884,0.8047,29.39M,4.37%,MIOTA
18-Nov-17,0.8163,0.7912,0.849,0.7499,32.84M,3.17%,MIOTA
17-Nov-17,0.7912,0.825,0.8777,0.7263,57.10M,-4.10%,MIOTA
16-Nov-17,0.825,0.787,0.8967,0.706,66.16M,4.83%,MIOTA
15-Nov-17,0.787,0.6059,0.7873,0.6,53.37M,29.89%,MIOTA
14-Nov-17,0.6059,0.5835,0.6189,0.525,31.47M,3.84%,MIOTA
13-Nov-17,0.5835,0.5861,0.6394,0.5673,33.07M,-0.44%,MIOTA
12-Nov-17,0.5861,0.6237,0.635,0.505,38.25M,-6.03%,MIOTA
11-Nov-17,0.6237,0.5011,0.6249,0.4939,34.90M,24.47%,MIOTA
10-Nov-17,0.5011,0.5338,0.564,0.455,72.36M,-6.13%,MIOTA
9-Nov-17,0.5338,0.4746,0.5999,0.464,99.34M,12.47%,MIOTA
8-Nov-17,0.4746,0.3824,0.4905,0.38,62.43M,24.11%,MIOTA
7-Nov-17,0.3824,0.374,0.398,0.3621,22.47M,2.25%,MIOTA
6-Nov-17,0.374,0.3506,0.3795,0.3387,16.36M,6.67%,MIOTA
5-Nov-17,0.3506,0.3695,0.371,0.335,17.30M,-5.12%,MIOTA
4-Nov-17,0.3695,0.3937,0.3937,0.3649,10.67M,-6.15%,MIOTA
3-Nov-17,0.3937,0.3642,0.3967,0.3588,17.87M,8.10%,MIOTA
2-Nov-17,0.3642,0.3637,0.3847,0.32,32.35M,0.14%,MIOTA
1-Nov-17,0.3637,0.3912,0.3923,0.3517,16.26M,-7.03%,MIOTA
31-Oct-17,0.3912,0.4073,0.4087,0.3891,10.67M,-3.95%,MIOTA
30-Oct-17,0.4073,0.4032,0.415,0.3851,11.57M,1.02%,MIOTA
29-Oct-17,0.4032,0.3961,0.415,0.367,22.60M,1.79%,MIOTA
28-Oct-17,0.3961,0.4249,0.4309,0.391,10.10M,-6.78%,MIOTA
27-Oct-17,0.4249,0.4155,0.44,0.39,13.10M,2.26%,MIOTA
26-Oct-17,0.4155,0.4434,0.457,0.4115,13.14M,-6.29%,MIOTA
25-Oct-17,0.4434,0.455,0.4769,0.4271,18.25M,-2.55%,MIOTA
24-Oct-17,0.455,0.388,0.5059,0.3701,71.38M,17.27%,MIOTA
23-Oct-17,0.388,0.3822,0.394,0.34,18.28M,1.52%,MIOTA
22-Oct-17,0.3822,0.3882,0.408,0.3761,13.31M,-1.55%,MIOTA
21-Oct-17,0.3882,0.3999,0.4065,0.3193,30.11M,-2.93%,MIOTA
20-Oct-17,0.3999,0.4327,0.4345,0.3857,21.94M,-7.58%,MIOTA
19-Oct-17,0.4327,0.4543,0.4677,0.41,12.31M,-4.75%,MIOTA
18-Oct-17,0.4543,0.4686,0.479,0.425,14.73M,-3.05%,MIOTA
17-Oct-17,0.4686,0.4489,0.507,0.4311,13.69M,4.39%,MIOTA
16-Oct-17,0.4489,0.437,0.4597,0.42,8.91M,2.72%,MIOTA
15-Oct-17,0.437,0.4591,0.461,0.41,11.39M,-4.81%,MIOTA
14-Oct-17,0.4591,0.44,0.4845,0.4293,15.75M,4.34%,MIOTA
13-Oct-17,0.44,0.414,0.4476,0.4,16.59M,6.28%,MIOTA
12-Oct-17,0.414,0.4816,0.4867,0.38,21.97M,-14.04%,MIOTA
11-Oct-17,0.4816,0.476,0.4889,0.462,6.97M,1.18%,MIOTA
10-Oct-17,0.476,0.469,0.4896,0.451,7.85M,1.49%,MIOTA
9-Oct-17,0.469,0.5,0.505,0.433,24.76M,-6.20%,MIOTA
8-Oct-17,0.5,0.5369,0.54,0.493,11.35M,-6.87%,MIOTA
7-Oct-17,0.5369,0.504,0.551,0.486,11.27M,6.53%,MIOTA
6-Oct-17,0.504,0.5424,0.5632,0.4874,14.21M,-7.08%,MIOTA
5-Oct-17,0.5424,0.5447,0.5681,0.5161,8.77M,-0.42%,MIOTA
4-Oct-17,0.5447,0.5606,0.5697,0.515,10.80M,-2.84%,MIOTA
3-Oct-17,0.5606,0.578,0.582,0.512,17.49M,-3.01%,MIOTA
2-Oct-17,0.578,0.6124,0.6225,0.5638,16.97M,-5.62%,MIOTA
1-Oct-17,0.6124,0.6223,0.6318,0.591,10.69M,-1.59%,MIOTA
30-Sep-17,0.6223,0.5836,0.6493,0.576,28.21M,6.63%,MIOTA
29-Sep-17,0.5836,0.5951,0.6103,0.541,23.79M,-1.93%,MIOTA
28-Sep-17,0.5951,0.5509,0.6147,0.5261,29.47M,8.02%,MIOTA
27-Sep-17,0.5509,0.5146,0.5544,0.505,17.71M,7.05%,MIOTA
26-Sep-17,0.5146,0.556,0.56,0.5051,16.34M,-7.45%,MIOTA
25-Sep-17,0.556,0.5213,0.569,0.5208,15.08M,6.66%,MIOTA
24-Sep-17,0.5213,0.54,0.5424,0.5042,12.69M,-3.46%,MIOTA
23-Sep-17,0.54,0.505,0.555,0.4935,12.49M,6.93%,MIOTA
22-Sep-17,0.505,0.4985,0.5178,0.471,15.37M,1.30%,MIOTA
21-Sep-17,0.4985,0.5674,0.5728,0.4653,29.15M,-12.14%,MIOTA
20-Sep-17,0.5674,0.5585,0.5911,0.541,12.86M,1.59%,MIOTA
19-Sep-17,0.5585,0.6075,0.6145,0.5521,20.21M,-8.07%,MIOTA
18-Sep-17,0.6075,0.4958,0.6171,0.4934,42.16M,22.53%,MIOTA
17-Sep-17,0.4958,0.4848,0.5048,0.461,12.10M,2.27%,MIOTA
16-Sep-17,0.4848,0.4797,0.5128,0.452,24.60M,1.06%,MIOTA
15-Sep-17,0.4797,0.4494,0.5127,0.37,80.12M,6.74%,MIOTA
14-Sep-17,0.4494,0.5613,0.576,0.441,53.57M,-19.94%,MIOTA
13-Sep-17,0.5613,0.5918,0.5979,0.4714,48.81M,-5.15%,MIOTA
12-Sep-17,0.5918,0.5628,0.6495,0.5408,64.20M,5.15%,MIOTA
11-Sep-17,0.5628,0.4989,0.569,0.479,29.78M,12.81%,MIOTA
10-Sep-17,0.4989,0.5594,0.569,0.4588,54.67M,-10.82%,MIOTA
9-Sep-17,0.5594,0.5373,0.584,0.5183,20.95M,4.11%,MIOTA
8-Sep-17,0.5373,0.6479,0.66,0.4786,67.66M,-17.07%,MIOTA
7-Sep-17,0.6479,0.7394,0.74,0.6141,34.26M,-12.37%,MIOTA
6-Sep-17,0.7394,0.6132,0.7488,0.592,32.56M,20.58%,MIOTA
5-Sep-17,0.6132,0.5484,0.6499,0.455,57.23M,11.82%,MIOTA
4-Sep-17,0.5484,0.7417,0.7442,0.3633,107.13M,-26.06%,MIOTA
3-Sep-17,0.7417,0.6921,0.777,0.666,30.10M,7.17%,MIOTA
2-Sep-17,0.6921,0.7927,0.7999,0.64,38.73M,-12.69%,MIOTA
1-Sep-17,0.7927,0.8415,0.88,0.771,21.58M,-5.80%,MIOTA
31-Aug-17,0.8415,0.8675,0.9,0.82,11.62M,-3.00%,MIOTA
30-Aug-17,0.8675,0.8125,0.8765,0.7838,12.93M,6.77%,MIOTA
29-Aug-17,0.8125,0.8744,0.875,0.7053,20.47M,-7.08%,MIOTA
28-Aug-17,0.8744,0.9194,0.929,0.78,15.03M,-4.89%,MIOTA
27-Aug-17,0.9194,0.96,0.9801,0.88,10.35M,-4.23%,MIOTA
26-Aug-17,0.96,0.9164,0.9749,0.875,11.14M,4.76%,MIOTA
25-Aug-17,0.9164,0.891,0.9349,0.835,14.22M,2.85%,MIOTA
24-Aug-17,0.891,0.851,0.8949,0.7959,11.11M,4.70%,MIOTA
23-Aug-17,0.851,0.838,0.9408,0.8303,19.18M,1.55%,MIOTA
22-Aug-17,0.838,0.9001,0.9046,0.7778,21.39M,-6.90%,MIOTA
21-Aug-17,0.9001,0.9101,0.9408,0.84,21.35M,-1.10%,MIOTA
20-Aug-17,0.9101,0.9791,1.03,0.91,20.25M,-7.05%,MIOTA
19-Aug-17,0.9791,0.867,0.9859,0.77,28.36M,12.93%,MIOTA
18-Aug-17,0.867,1.01,1.04,0.7611,48.12M,-14.16%,MIOTA
17-Aug-17,1.01,1.04,1.1,0.99,33.68M,-2.88%,MIOTA
16-Aug-17,1.04,0.917,1.05,0.8633,31.86M,13.41%,MIOTA
15-Aug-17,0.917,0.972,0.995,0.75,63.89M,-5.66%,MIOTA
14-Aug-17,0.972,0.8043,0.9797,0.7914,32.47M,20.85%,MIOTA
13-Aug-17,0.8043,0.72,0.83,0.69,30.45M,11.71%,MIOTA
12-Aug-17,0.72,0.6547,0.73,0.6128,16.00M,9.97%,MIOTA
11-Aug-17,0.6547,0.5624,0.7177,0.5561,37.21M,16.41%,MIOTA
10-Aug-17,0.5624,0.53,0.5892,0.5069,18.22M,6.11%,MIOTA
9-Aug-17,0.53,0.5481,0.557,0.5091,15.12M,-3.30%,MIOTA
8-Aug-17,0.5481,0.474,0.5517,0.4555,26.96M,15.63%,MIOTA
7-Aug-17,0.474,0.4299,0.49,0.411,18.02M,10.26%,MIOTA
6-Aug-17,0.4299,0.408,0.44,0.395,8.04M,5.37%,MIOTA
5-Aug-17,0.408,0.3937,0.4316,0.3601,14.93M,3.63%,MIOTA
4-Aug-17,0.3937,0.3319,0.4217,0.3315,30.69M,18.62%,MIOTA
3-Aug-17,0.3319,0.286,0.3392,0.285,16.72M,16.05%,MIOTA
2-Aug-17,0.286,0.291,0.2939,0.2715,6.46M,-1.72%,MIOTA
1-Aug-17,0.291,0.254,0.294,0.2493,9.37M,14.57%,MIOTA
31-Jul-17,0.254,0.2547,0.26,0.244,3.37M,-0.27%,MIOTA
30-Jul-17,0.2547,0.2767,0.278,0.2502,6.27M,-7.95%,MIOTA
29-Jul-17,0.2767,0.2651,0.278,0.243,4.79M,4.38%,MIOTA
28-Jul-17,0.2651,0.273,0.2765,0.262,3.26M,-2.89%,MIOTA
27-Jul-17,0.273,0.2744,0.285,0.2711,6.50M,-0.51%,MIOTA
26-Jul-17,0.2744,0.25,0.2845,0.2409,8.46M,9.76%,MIOTA
25-Jul-17,0.25,0.2674,0.2688,0.2365,6.39M,-6.51%,MIOTA
24-Jul-17,0.2674,0.2649,0.273,0.2361,9.48M,0.94%,MIOTA
23-Jul-17,0.2649,0.2716,0.28,0.2551,6.52M,-2.47%,MIOTA
22-Jul-17,0.2716,0.2595,0.2785,0.2536,8.05M,4.66%,MIOTA
21-Jul-17,0.2595,0.2937,0.3078,0.2452,14.24M,-11.64%,MIOTA
20-Jul-17,0.2937,0.2314,0.3043,0.2302,21.06M,26.92%,MIOTA
19-Jul-17,0.2314,0.268,0.2849,0.23,16.19M,-13.66%,MIOTA
18-Jul-17,0.268,0.264,0.3123,0.246,25.53M,1.52%,MIOTA
17-Jul-17,0.264,0.178,0.28,0.1767,34.68M,48.31%,MIOTA
16-Jul-17,0.178,0.1582,0.188,0.155,12.01M,12.52%,MIOTA
15-Jul-17,0.1582,0.1751,0.1763,0.1427,15.89M,-9.65%,MIOTA
14-Jul-17,0.1751,0.2129,0.2131,0.1602,8.43M,-17.75%,MIOTA
13-Jul-17,0.2129,0.2288,0.239,0.1875,8.91M,-6.95%,MIOTA
12-Jul-17,0.2288,0.1869,0.2395,0.1806,12.16M,22.42%,MIOTA
11-Jul-17,0.1869,0.21,0.2342,0.1837,16.40M,-11.00%,MIOTA
10-Jul-17,0.21,0.3,0.3041,0.1837,24.51M,-30.00%,MIOTA
9-Jul-17,0.3,0.3003,0.3125,0.2829,3.32M,-0.10%,MIOTA
8-Jul-17,0.3003,0.2822,0.3202,0.2751,5.63M,6.41%,MIOTA
7-Jul-17,0.2822,0.3529,0.3565,0.27,13.11M,-20.03%,MIOTA
6-Jul-17,0.3529,0.381,0.3851,0.3033,12.17M,-7.38%,MIOTA
5-Jul-17,0.381,0.3938,0.3987,0.3681,2.49M,-3.25%,MIOTA
4-Jul-17,0.3938,0.376,0.4098,0.3702,3.17M,4.73%,MIOTA
3-Jul-17,0.376,0.3769,0.385,0.35,4.07M,-0.24%,MIOTA
2-Jul-17,0.3769,0.3811,0.39,0.36,2.49M,-1.10%,MIOTA
1-Jul-17,0.3811,0.398,0.4129,0.3701,1.84M,-4.25%,MIOTA
30-Jun-17,0.398,0.411,0.449,0.393,2.77M,-3.16%,MIOTA
29-Jun-17,0.411,0.373,0.4599,0.3619,4.28M,10.19%,MIOTA
28-Jun-17,0.373,0.394,0.4,0.3511,3.71M,-5.33%,MIOTA
27-Jun-17,0.394,0.408,0.42,0.3483,3.56M,-3.43%,MIOTA
26-Jun-17,0.408,0.4653,0.4659,0.3401,7.79M,-12.31%,MIOTA
25-Jun-17,0.4653,0.5053,0.5214,0.4401,3.87M,-7.92%,MIOTA
24-Jun-17,0.5053,0.4828,0.6289,0.4767,9.72M,4.66%,MIOTA
23-Jun-17,0.4828,0.4373,0.4828,0.433,2.24M,10.40%,MIOTA
22-Jun-17,0.4373,0.425,0.4499,0.4114,1.19M,2.89%,MIOTA
21-Jun-17,0.425,0.4405,0.4624,0.415,3.80M,-3.52%,MIOTA
20-Jun-17,0.4405,0.4254,0.4472,0.411,3.56M,3.55%,MIOTA
19-Jun-17,0.4254,0.4056,0.435,0.395,2.08M,4.88%,MIOTA
18-Jun-17,0.4056,0.428,0.4502,0.385,1.93M,-5.23%,MIOTA
17-Jun-17,0.428,0.4082,0.4512,0.4,1.56M,4.85%,MIOTA
16-Jun-17,0.4082,0.3467,0.599,0.3053,5.06M,17.74%,MIOTA
15-Jun-17,0.3467,0.5202,0.5447,0.2912,7.70M,-33.35%,MIOTA
14-Jun-17,0.5202,0.587,0.6101,0.4795,8.57M,-11.38%,MIOTA
