﻿Date,Price,Open,High,Low,Vol.,Change %,Coin
25-Dec-19,450.17,453.73,459.7,432.32,0.79K,-0.78%,MKR
24-Dec-19,453.73,456.29,463.03,440.98,0.45K,-0.56%,MKR
23-Dec-19,456.29,505.44,508.75,444.53,0.21K,-9.08%,MKR
22-Dec-19,501.89,486.66,504.35,469.02,0.08K,3.13%,MKR
21-Dec-19,486.66,483.14,505.64,469.09,0.09K,0.73%,MKR
20-Dec-19,483.14,470.26,495.83,453.09,0.13K,2.74%,MKR
19-Dec-19,470.26,469.77,479.79,444.11,0.22K,0.10%,MKR
18-Dec-19,469.77,412.54,469.77,400.17,0.52K,13.87%,MKR
17-Dec-19,412.54,460.92,466.98,405.83,0.43K,-10.50%,MKR
16-Dec-19,460.92,494.25,504.68,448.52,0.56K,-6.74%,MKR
15-Dec-19,494.25,510.1,510.1,485.64,0.36K,-3.11%,MKR
14-Dec-19,510.1,508.89,521.43,504.1,0.10K,0.24%,MKR
13-Dec-19,508.89,494.62,515.47,494.42,0.05K,2.89%,MKR
12-Dec-19,494.62,490.44,504.85,484.76,0.02K,0.85%,MKR
11-Dec-19,490.44,505,507.7,482.47,0.14K,-2.88%,MKR
10-Dec-19,505,492.99,513.35,492.65,0.04K,2.44%,MKR
9-Dec-19,492.99,509.84,513.17,492.72,0.09K,-3.31%,MKR
8-Dec-19,509.84,491.5,510.24,490.73,0.04K,3.73%,MKR
7-Dec-19,491.5,506.86,524.5,491.48,0.09K,-3.03%,MKR
6-Dec-19,506.86,503.72,519.36,493.52,0.06K,0.62%,MKR
5-Dec-19,503.72,492.86,528.27,464.01,0.44K,2.20%,MKR
4-Dec-19,492.86,540.73,574.21,483.66,0.46K,-8.85%,MKR
3-Dec-19,540.73,566.9,567.97,530.59,0.04K,-4.62%,MKR
2-Dec-19,566.9,511.54,567.91,511.12,0.14K,10.82%,MKR
1-Dec-19,511.54,537.45,537.76,501.25,0.05K,-4.82%,MKR
30-Nov-19,537.45,544.39,561.53,528.47,0.03K,-1.27%,MKR
29-Nov-19,544.39,536.32,575.27,530.01,0.05K,1.51%,MKR
28-Nov-19,536.32,556.08,577.99,536.32,0.01K,-3.55%,MKR
27-Nov-19,556.08,534.5,576.61,516.14,0.07K,4.04%,MKR
26-Nov-19,534.5,529.08,544.39,508.15,0.05K,1.02%,MKR
25-Nov-19,529.08,461.11,537.02,427.89,0.20K,14.74%,MKR
24-Nov-19,461.11,551.57,554.63,461.11,0.11K,-16.40%,MKR
23-Nov-19,551.57,513.35,574.77,504.42,0.12K,7.45%,MKR
22-Nov-19,513.35,525.53,546.74,439.56,0.37K,-2.32%,MKR
21-Nov-19,525.53,583.05,586.91,524.44,0.20K,-9.87%,MKR
20-Nov-19,583.05,597.21,603.14,569.33,0.19K,-2.37%,MKR
19-Nov-19,597.21,647.77,647.77,578.85,0.04K,-7.81%,MKR
18-Nov-19,647.77,658.24,665.33,636.02,0.08K,-1.59%,MKR
17-Nov-19,658.24,623.8,658.24,618.7,0.10K,5.52%,MKR
16-Nov-19,623.8,609.42,631.7,603.94,0.11K,2.36%,MKR
15-Nov-19,609.42,649.7,651.16,572.75,0.37K,-6.20%,MKR
14-Nov-19,649.7,657,657,637.3,0.09K,-1.11%,MKR
13-Nov-19,657,655,657,649.99,0.21K,0.30%,MKR
12-Nov-19,655,647.52,660.88,640.93,0.53K,1.16%,MKR
11-Nov-19,647.52,675.3,691,640.21,0.10K,-4.11%,MKR
10-Nov-19,675.3,656.56,675.3,640.66,0.01K,2.85%,MKR
9-Nov-19,656.56,665.09,674.66,648.47,0.15K,-1.28%,MKR
8-Nov-19,665.09,656.5,683.37,633.23,0.16K,1.31%,MKR
7-Nov-19,656.5,585.75,656.54,579.66,0.18K,12.08%,MKR
6-Nov-19,585.75,555.63,597.53,549.11,0.05K,5.42%,MKR
5-Nov-19,555.63,546.95,566.72,536.77,0.09K,1.59%,MKR
4-Nov-19,546.95,523.31,550.9,521.88,0.05K,4.52%,MKR
3-Nov-19,523.31,528.92,533.1,519.86,0.05K,-1.06%,MKR
2-Nov-19,528.92,527.5,532.8,520.6,0.03K,0.27%,MKR
1-Nov-19,527.5,538.47,551.01,517.18,0.11K,-2.04%,MKR
31-Oct-19,538.47,513.8,556.1,500.31,0.05K,4.80%,MKR
30-Oct-19,513.8,532.3,543.6,505.9,0.04K,-3.48%,MKR
29-Oct-19,532.3,513.7,542.9,510.2,0.07K,3.62%,MKR
28-Oct-19,513.7,519.23,535.73,503.01,0.09K,-1.06%,MKR
27-Oct-19,519.23,502.98,530.14,485.29,0.02K,3.23%,MKR
26-Oct-19,502.98,512.94,573.43,482.18,0.32K,-1.94%,MKR
25-Oct-19,512.94,461.1,528.51,461.1,0.07K,11.24%,MKR
24-Oct-19,461.1,451.87,468.15,451.02,0.15K,2.04%,MKR
23-Oct-19,451.87,484.4,492.3,443.9,0.06K,-6.72%,MKR
22-Oct-19,484.4,492.73,499.67,483,0.01K,-1.69%,MKR
21-Oct-19,492.73,497.94,544.87,488.02,0.04K,-1.05%,MKR
20-Oct-19,497.94,492.9,558.87,484.9,0.02K,1.02%,MKR
19-Oct-19,492.9,483.22,501.2,477.23,0.02K,2.00%,MKR
18-Oct-19,483.22,488.92,500.76,469.84,0.45K,-1.17%,MKR
17-Oct-19,488.92,487.2,491.16,474,0.12K,0.37%,MKR
16-Oct-19,487.1,496.35,499.93,484.7,0.35K,-1.86%,MKR
15-Oct-19,496.35,509.89,511.74,491.18,0.17K,-2.66%,MKR
14-Oct-19,509.89,507.73,516.94,499.01,0.15K,0.43%,MKR
13-Oct-19,507.73,505.27,510.56,505.18,0.14K,0.49%,MKR
12-Oct-19,505.27,510.93,519.77,500.21,0.06K,-1.11%,MKR
11-Oct-19,510.93,544.97,564.16,510.89,0.09K,-6.24%,MKR
10-Oct-19,544.97,535.99,547.94,522.08,0.15K,1.67%,MKR
9-Oct-19,535.99,455.6,541.01,455.6,0.15K,17.64%,MKR
8-Oct-19,455.6,456.2,462.84,452.75,0.08K,-0.13%,MKR
7-Oct-19,456.2,425.21,456.2,425.21,0.05K,7.29%,MKR
6-Oct-19,425.21,442.15,444.8,425.21,0.15K,-3.83%,MKR
5-Oct-19,442.15,447.05,447.05,437.72,0.03K,-1.10%,MKR
4-Oct-19,447.05,454.7,463.83,437.47,0.09K,-1.68%,MKR
3-Oct-19,454.7,448,454.7,432.58,0.04K,1.50%,MKR
2-Oct-19,448,446.42,464,434.4,0.22K,0.35%,MKR
1-Oct-19,446.42,441.73,462.55,440.63,0.44K,1.06%,MKR
30-Sep-19,441.73,428.82,465.19,413.39,0.03K,3.01%,MKR
29-Sep-19,428.82,438.7,475.99,426.71,0.01K,-2.25%,MKR
28-Sep-19,438.7,454.04,477.73,438.7,0.03K,-3.38%,MKR
27-Sep-19,454.04,436.36,471.65,436.36,0.01K,4.05%,MKR
26-Sep-19,436.36,447.11,474.73,415.13,0.04K,-2.40%,MKR
25-Sep-19,447.11,449.79,461.5,433.69,0.02K,-0.59%,MKR
24-Sep-19,449.79,512.34,516.6,405.98,0.03K,-12.21%,MKR
23-Sep-19,512.34,525.1,554.4,504.29,0.08K,-2.43%,MKR
22-Sep-19,525.1,548.49,572.99,525.1,0.02K,-4.26%,MKR
21-Sep-19,548.49,546.03,582.01,534.17,0.03K,0.45%,MKR
20-Sep-19,546.03,547.97,597.7,534.71,0.05K,-0.35%,MKR
19-Sep-19,547.97,524.78,548.05,512.25,0.04K,4.42%,MKR
18-Sep-19,524.78,523.08,540.53,523.08,0.15K,0.33%,MKR
17-Sep-19,523.08,467.78,530.04,444.16,0.16K,11.82%,MKR
16-Sep-19,467.78,480.1,480.82,463.68,0.01K,-2.57%,MKR
15-Sep-19,480.1,475.1,480.1,464.2,0.02K,1.05%,MKR
14-Sep-19,475.1,464.49,475.1,460.92,0.02K,2.28%,MKR
13-Sep-19,464.49,465.1,465.6,463.36,0.01K,-0.13%,MKR
12-Sep-19,465.1,464.01,477.6,455.1,0.02K,0.24%,MKR
11-Sep-19,464.01,473.41,500.33,464.01,0.01K,-1.99%,MKR
10-Sep-19,473.41,481.94,492.66,473.41,0.01K,-1.77%,MKR
9-Sep-19,481.94,450.53,481.96,449.01,0.02K,6.97%,MKR
8-Sep-19,450.53,442.87,466.4,430.26,0.05K,1.73%,MKR
7-Sep-19,442.87,410.98,442.87,410.98,0.01K,7.76%,MKR
6-Sep-19,410.98,461.45,490.59,406.28,0.13K,-10.94%,MKR
5-Sep-19,461.45,477.23,492.17,460.39,0.00K,-3.31%,MKR
4-Sep-19,477.23,476.1,482.8,468.3,-,0.24%,MKR
3-Sep-19,476.1,465.9,487.8,465.9,0.01K,2.19%,MKR
2-Sep-19,465.9,457.8,495.8,451.7,0.01K,1.77%,MKR
1-Sep-19,457.8,476.99,492.16,457.8,0.00K,-4.02%,MKR
31-Aug-19,476.99,482.48,483,468.16,0.00K,-1.14%,MKR
30-Aug-19,482.48,465.66,510.9,454.66,0.00K,3.61%,MKR
29-Aug-19,465.66,483.81,508.24,463.5,0.01K,-3.75%,MKR
28-Aug-19,483.81,532.73,532.73,477.65,0.04K,-9.18%,MKR
27-Aug-19,532.73,517.13,536.75,504.75,0.03K,3.02%,MKR
26-Aug-19,517.13,496.32,526.51,496.32,0.05K,4.19%,MKR
25-Aug-19,496.32,502.94,506.59,494.26,0.02K,-1.32%,MKR
24-Aug-19,502.94,506.23,508.68,490.14,0.05K,-0.65%,MKR
23-Aug-19,506.23,507.6,508.19,489.42,0.03K,-0.27%,MKR
22-Aug-19,507.6,489.58,510.87,482.31,0.00K,3.68%,MKR
21-Aug-19,489.58,513.68,514,479.12,0.01K,-4.69%,MKR
20-Aug-19,513.66,510.93,514,502,0.05K,0.54%,MKR
19-Aug-19,510.93,504.75,516.28,497.22,0.02K,1.22%,MKR
18-Aug-19,504.75,512.81,519.6,500.3,0.08K,-1.57%,MKR
17-Aug-19,512.81,514.47,520.59,502.54,0.00K,-0.32%,MKR
16-Aug-19,514.47,486.18,524.74,465.54,0.04K,5.82%,MKR
15-Aug-19,486.18,462.79,486.18,433.06,0.04K,5.05%,MKR
14-Aug-19,462.79,470.45,482.37,449.98,0.02K,-1.63%,MKR
13-Aug-19,470.45,477.71,493.03,465.64,0.02K,-1.52%,MKR
12-Aug-19,477.71,502.93,510.82,476.92,0.02K,-5.01%,MKR
11-Aug-19,502.93,483.74,516.25,482.93,0.01K,3.97%,MKR
10-Aug-19,483.74,504.72,516.12,483.63,0.07K,-4.16%,MKR
9-Aug-19,504.72,539.58,596.78,497,0.08K,-6.46%,MKR
8-Aug-19,539.58,551.64,552.57,527.95,0.25K,-2.19%,MKR
7-Aug-19,551.64,546.65,568.09,545.64,0.00K,0.91%,MKR
6-Aug-19,546.65,582.08,602.33,545.18,0.05K,-6.09%,MKR
5-Aug-19,582.08,583.14,608.69,580.46,0.05K,-0.18%,MKR
4-Aug-19,583.14,588.79,592.14,574.12,0.03K,-0.96%,MKR
3-Aug-19,588.79,597.13,607.42,586.67,0.02K,-1.40%,MKR
2-Aug-19,597.13,600.64,605.53,596.14,0.04K,-0.58%,MKR
1-Aug-19,600.64,598,601.9,581.98,0.05K,0.44%,MKR
31-Jul-19,598,599,629.68,575.6,0.10K,-0.11%,MKR
30-Jul-19,598.64,582.23,621.08,557.46,0.03K,2.82%,MKR
29-Jul-19,582.23,586.57,613.36,560.46,0.10K,-0.74%,MKR
28-Jul-19,586.57,566.75,593.58,566.75,0.01K,3.50%,MKR
27-Jul-19,566.75,614.19,629.46,541.84,0.73K,-7.72%,MKR
26-Jul-19,614.19,588.42,614.88,584.72,0.03K,4.38%,MKR
25-Jul-19,588.42,570.89,604.3,570.09,0.00K,2.59%,MKR
24-Jul-19,573.59,583.11,583.11,555.32,0.03K,-1.63%,MKR
23-Jul-19,583.11,555.96,598.53,555.96,0.06K,4.88%,MKR
22-Jul-19,555.96,558.4,596.64,540.45,0.05K,-0.44%,MKR
21-Jul-19,558.4,570.55,578.09,540.39,0.02K,-2.13%,MKR
20-Jul-19,570.55,558.42,583.72,555.6,0.02K,2.17%,MKR
19-Jul-19,558.42,569.09,569.11,547.31,0.01K,-1.88%,MKR
18-Jul-19,569.09,531.16,569.09,507.6,0.01K,7.14%,MKR
17-Jul-19,531.16,487.39,531.58,468.6,0.11K,8.98%,MKR
16-Jul-19,487.39,587.58,594.72,486.47,0.07K,-17.05%,MKR
15-Jul-19,587.58,596.37,596.43,539.18,0.04K,-1.47%,MKR
14-Jul-19,596.37,657.75,659.81,595.62,0.14K,-9.33%,MKR
13-Jul-19,657.75,670.62,673.72,635.32,0.01K,-1.92%,MKR
12-Jul-19,670.62,665.2,696.66,663.27,0.00K,0.81%,MKR
11-Jul-19,665.2,693.18,693.18,642.27,0.02K,-4.04%,MKR
10-Jul-19,693.18,743.6,757.74,673.44,0.02K,-6.78%,MKR
9-Jul-19,743.6,705.03,764.25,703.47,0.19K,5.47%,MKR
8-Jul-19,705.03,692.2,714.51,688.74,0.01K,1.85%,MKR
7-Jul-19,692.2,678.6,697.92,668.24,0.02K,2.01%,MKR
6-Jul-19,678.6,655.56,698.72,655.56,0.01K,3.51%,MKR
5-Jul-19,655.56,661.87,693.54,654.28,0.01K,-0.95%,MKR
4-Jul-19,661.87,651.52,705.3,649.85,0.02K,1.59%,MKR
3-Jul-19,651.52,649.31,671.16,623.13,0.11K,0.34%,MKR
2-Jul-19,649.31,605.79,650.96,570.66,0.06K,7.18%,MKR
1-Jul-19,605.79,623.44,647.74,567.93,0.06K,-2.83%,MKR
30-Jun-19,623.44,695.81,698.36,619.6,0.04K,-10.40%,MKR
29-Jun-19,695.81,712.81,715.14,667.16,0.01K,-2.39%,MKR
28-Jun-19,712.81,664.45,717.46,658.53,0.03K,7.28%,MKR
27-Jun-19,664.45,755.24,760.92,603.84,0.09K,-12.02%,MKR
26-Jun-19,755.24,758.38,795.3,723.01,0.67K,-0.41%,MKR
25-Jun-19,758.38,722.35,758.38,700.53,0.02K,4.99%,MKR
24-Jun-19,722.35,728.89,759.26,705.9,0.03K,-0.90%,MKR
23-Jun-19,728.89,757.97,770.69,728.89,0.03K,-3.84%,MKR
22-Jun-19,757.97,739.03,788.24,738.51,0.04K,2.56%,MKR
21-Jun-19,739.03,712.18,741.36,705.71,0.02K,3.77%,MKR
20-Jun-19,712.18,714.03,714.14,703.37,0.02K,-0.26%,MKR
19-Jun-19,714.03,723.55,728.93,703.47,0.01K,-1.32%,MKR
18-Jun-19,723.55,737.87,753.74,699.11,0.07K,-1.94%,MKR
17-Jun-19,737.87,733.53,750.51,732.59,0.01K,0.59%,MKR
16-Jun-19,733.53,715.83,738.68,715.43,0.01K,2.47%,MKR
15-Jun-19,715.83,732.51,743.56,706.49,0.01K,-2.28%,MKR
14-Jun-19,732.51,728.33,732.51,712.23,0.01K,0.57%,MKR
13-Jun-19,728.33,732.31,735.76,716.46,0.05K,-0.54%,MKR
12-Jun-19,732.31,700.16,752.84,698.15,0.09K,4.59%,MKR
11-Jun-19,700.16,715.31,715.72,680.09,0.22K,-2.12%,MKR
10-Jun-19,715.31,722.55,743.03,673.59,0.65K,-1.00%,MKR
9-Jun-19,722.55,759.39,768.33,721.83,0.01K,-4.85%,MKR
8-Jun-19,759.39,763.71,766.88,747.07,0.02K,-0.56%,MKR
7-Jun-19,763.71,731.96,776.06,725.63,0.03K,4.34%,MKR
6-Jun-19,731.96,682.07,731.96,681.48,0.08K,7.31%,MKR
5-Jun-19,682.07,644.66,706.59,644.24,0.01K,5.80%,MKR
4-Jun-19,644.66,676.43,721.48,632.41,0.03K,-4.70%,MKR
3-Jun-19,676.43,732.78,738.36,676.43,0.09K,-7.69%,MKR
2-Jun-19,732.78,725.54,745.1,716.99,0.00K,1.00%,MKR
1-Jun-19,725.54,726.01,737.95,721.65,0.02K,-0.06%,MKR
31-May-19,726.01,717.52,758.22,698.19,0.03K,1.18%,MKR
30-May-19,717.52,749.72,802.71,690.46,0.25K,-4.30%,MKR
29-May-19,749.72,758.33,761.51,729.57,1.50K,-1.13%,MKR
28-May-19,758.33,753.79,758.88,721.83,0.03K,0.60%,MKR
27-May-19,753.79,727.97,761.32,704.36,0.61K,3.55%,MKR
26-May-19,727.97,722.3,740.63,692.17,0.69K,0.79%,MKR
25-May-19,722.3,690.95,722.3,685.63,0.23K,4.54%,MKR
24-May-19,690.95,648.19,697.2,647.37,0.02K,6.60%,MKR
23-May-19,648.19,640.07,658.75,616.48,0.01K,1.27%,MKR
22-May-19,640.07,664.38,674.53,584.44,0.08K,-3.66%,MKR
21-May-19,664.38,661.39,681.77,649.56,0.02K,0.45%,MKR
20-May-19,661.39,682.01,682.01,635.36,0.03K,-3.02%,MKR
19-May-19,682.01,630.93,691.43,618.06,0.05K,8.10%,MKR
18-May-19,630.93,623.96,646.31,623.96,0.01K,1.12%,MKR
17-May-19,623.96,666.11,675.21,599.74,0.05K,-6.33%,MKR
16-May-19,666.11,692.36,732.29,658.01,0.21K,-3.79%,MKR
15-May-19,692.36,628.68,725.32,627.87,0.76K,10.13%,MKR
14-May-19,628.68,578.96,628.86,578.96,0.35K,8.59%,MKR
13-May-19,578.96,553.91,609.4,552.25,0.52K,4.52%,MKR
12-May-19,553.91,594.42,594.58,547.67,0.16K,-6.82%,MKR
11-May-19,594.42,528.41,613.01,528.41,0.09K,12.49%,MKR
10-May-19,528.41,518.09,530.79,506.33,0.05K,1.99%,MKR
9-May-19,518.09,528.2,533.75,504.63,0.05K,-1.91%,MKR
8-May-19,528.2,579.39,579.39,516.49,0.05K,-8.84%,MKR
7-May-19,579.39,543.33,590.42,538.77,0.21K,6.64%,MKR
6-May-19,543.33,523.81,574.09,512.02,0.06K,3.73%,MKR
5-May-19,523.81,550.2,553.69,510.75,0.20K,-4.80%,MKR
4-May-19,550.2,546.8,550.23,525.08,0.13K,0.62%,MKR
3-May-19,546.8,544.1,560.09,520.44,0.43K,0.50%,MKR
2-May-19,544.1,523.6,544.54,523.17,0.07K,3.92%,MKR
1-May-19,523.6,530.15,537.52,489.71,0.08K,-1.24%,MKR
30-Apr-19,530.15,532.58,543.43,518.06,0.14K,-0.46%,MKR
29-Apr-19,532.58,549.12,582.61,526.29,0.03K,-3.01%,MKR
28-Apr-19,549.12,529.69,561.84,528.05,0.05K,3.67%,MKR
27-Apr-19,529.69,500.51,584.69,495.39,0.25K,5.83%,MKR
26-Apr-19,500.51,509.01,518.58,474.86,0.25K,-1.67%,MKR
25-Apr-19,509.01,566.16,571.56,508.86,0.26K,-10.09%,MKR
24-Apr-19,566.16,593.68,599.39,557.02,0.22K,-4.63%,MKR
23-Apr-19,593.68,598.28,621,588.43,0.06K,-0.77%,MKR
22-Apr-19,598.28,601.22,613.68,576.74,0.08K,-0.49%,MKR
21-Apr-19,601.22,612.93,616.09,597.75,0.09K,-1.91%,MKR
20-Apr-19,612.93,617.79,625.7,598.88,0.13K,-0.79%,MKR
19-Apr-19,617.79,637.89,637.96,601.28,0.18K,-3.15%,MKR
18-Apr-19,637.89,633.32,651,631.2,0.34K,0.72%,MKR
17-Apr-19,633.32,627.8,636.44,601.38,0.07K,0.88%,MKR
16-Apr-19,627.8,632.95,658.89,626.14,0.01K,-0.81%,MKR
15-Apr-19,632.95,652.35,676.81,622.45,0.01K,-2.97%,MKR
14-Apr-19,652.35,615.67,652.89,606.92,0.04K,5.96%,MKR
13-Apr-19,615.67,637.16,645.82,610.64,0.09K,-3.37%,MKR
12-Apr-19,637.16,634.27,642.65,611.2,0.05K,0.45%,MKR
11-Apr-19,634.27,704.8,705.78,605.3,0.35K,-10.01%,MKR
10-Apr-19,704.8,719.32,722.36,694.15,0.20K,-2.02%,MKR
9-Apr-19,719.32,709.36,721.28,697.01,0.75K,1.40%,MKR
8-Apr-19,709.36,763.34,793.6,671.21,0.62K,-7.07%,MKR
7-Apr-19,763.34,773.71,787.03,736.56,0.05K,-1.34%,MKR
6-Apr-19,773.71,799.75,799.82,772.01,0.02K,-3.26%,MKR
5-Apr-19,799.75,730.68,806.02,730,0.10K,9.45%,MKR
4-Apr-19,730.68,740.08,750.22,715.72,0.08K,-1.27%,MKR
3-Apr-19,740.08,787.36,792.74,721.07,14.13K,-6.00%,MKR
2-Apr-19,787.36,710.36,791.05,710.35,6.64K,10.84%,MKR
1-Apr-19,710.36,712,712.29,705.06,4.27K,-0.23%,MKR
31-Mar-19,712,706.3,712.01,705.02,0.85K,0.81%,MKR
30-Mar-19,706.3,704.29,768.11,704.29,5.14K,0.29%,MKR
29-Mar-19,704.29,692.83,704.39,658.36,2.56K,1.65%,MKR
28-Mar-19,692.83,692.89,707.92,686.25,5.30K,-0.01%,MKR
27-Mar-19,692.89,692.73,709.05,690.11,1.89K,0.02%,MKR
26-Mar-19,692.73,695.99,706.92,672.86,2.19K,-0.47%,MKR
25-Mar-19,695.99,729.16,738.74,695.99,0.02K,-4.55%,MKR
24-Mar-19,729.16,731.6,732.23,724.58,0.06K,-0.33%,MKR
23-Mar-19,731.6,727.27,733.99,705.34,0.37K,0.59%,MKR
22-Mar-19,727.27,705.01,727.32,704.86,3.07K,3.16%,MKR
21-Mar-19,705.01,687.58,788.86,679.54,9.53K,2.53%,MKR
20-Mar-19,687.58,705.76,705.93,685.33,0.16K,-2.58%,MKR
19-Mar-19,705.76,686.47,708.77,675.28,0.30K,2.81%,MKR
18-Mar-19,686.47,713.48,713.5,686.07,0.50K,-3.79%,MKR
17-Mar-19,713.48,737.62,737.66,685.81,1.31K,-3.27%,MKR
16-Mar-19,737.62,670.79,738.68,670.39,1.33K,9.96%,MKR
15-Mar-19,670.79,649.55,677.73,629.34,1.14K,3.27%,MKR
14-Mar-19,649.55,623.8,695.96,623.35,0.24K,4.13%,MKR
13-Mar-19,623.8,663.7,687.91,623.59,2.21K,-6.01%,MKR
12-Mar-19,663.7,652.04,663.73,648.07,0.16K,1.79%,MKR
11-Mar-19,652.04,645.68,652.05,645.6,0.62K,0.99%,MKR
10-Mar-19,645.68,645.41,649.35,635.04,0.47K,0.04%,MKR
9-Mar-19,645.41,649.82,657.89,645.13,2.05K,-0.68%,MKR
8-Mar-19,649.82,673.77,676.96,649.76,3.66K,-3.55%,MKR
7-Mar-19,673.77,662.54,698.79,661.38,2.46K,1.69%,MKR
6-Mar-19,662.54,675.76,698.19,662.54,2.03K,-1.96%,MKR
5-Mar-19,675.76,614.8,676.15,611.85,1.22K,9.91%,MKR
4-Mar-19,614.8,669.6,669.6,596.47,0.65K,-8.18%,MKR
3-Mar-19,669.6,667.99,682.58,667.84,0.52K,0.24%,MKR
2-Mar-19,667.99,664,677.06,663.99,0.27K,0.60%,MKR
1-Mar-19,664,670.19,689.82,537.47,1.80K,-0.92%,MKR
28-Feb-19,670.19,465.34,686.92,465.2,10.43K,44.02%,MKR
27-Feb-19,465.34,689.71,689.71,465.11,15.44K,-32.53%,MKR
26-Feb-19,689.71,673.09,691.92,660.93,1.23K,2.47%,MKR
25-Feb-19,673.09,651.07,691.39,649.31,0.10K,3.38%,MKR
24-Feb-19,651.07,754.45,775.79,651.07,0.29K,-13.70%,MKR
23-Feb-19,754.45,673.36,754.45,673.3,0.26K,12.04%,MKR
22-Feb-19,673.36,654.47,675.02,640.53,0.14K,2.89%,MKR
21-Feb-19,654.47,669.2,671.24,644.75,0.20K,-2.20%,MKR
20-Feb-19,669.2,642.61,670.69,634.13,0.14K,4.14%,MKR
19-Feb-19,642.61,576.97,642.61,551.32,0.60K,11.38%,MKR
18-Feb-19,576.97,553.59,604.81,553.59,0.43K,4.22%,MKR
17-Feb-19,553.59,515.73,554.63,506.26,0.12K,7.37%,MKR
16-Feb-19,515.59,502.85,573.19,500.03,0.91K,2.53%,MKR
15-Feb-19,502.85,524.8,566.15,498.44,1.24K,-4.18%,MKR
14-Feb-19,524.8,563.38,692.62,524.8,0.20K,-6.85%,MKR
13-Feb-19,563.38,505.49,563.38,498.66,0.71K,11.45%,MKR
12-Feb-19,505.49,498.13,505.66,478.14,0.06K,1.48%,MKR
11-Feb-19,498.13,468.19,500.38,461.98,0.01K,6.39%,MKR
10-Feb-19,468.19,441.38,468.19,441.38,0.01K,6.07%,MKR
9-Feb-19,441.38,451.4,453.36,441.38,0.00K,-2.22%,MKR
8-Feb-19,451.4,392.85,451.4,392.11,0.04K,14.90%,MKR
7-Feb-19,392.85,402.59,405.14,392.85,0.01K,-2.42%,MKR
6-Feb-19,402.59,400.25,403.34,392.43,0.00K,0.58%,MKR
5-Feb-19,400.25,396.9,404.54,396,0.03K,0.84%,MKR
4-Feb-19,396.9,375.06,396.9,375.06,0.08K,5.82%,MKR
3-Feb-19,375.06,378,378.08,362.48,0.01K,-0.78%,MKR
2-Feb-19,378,374.88,378,367.29,0.08K,0.83%,MKR
1-Feb-19,374.88,366.7,384.98,364.05,0.46K,2.23%,MKR
31-Jan-19,366.7,392.02,406.21,356.81,1.95K,-6.46%,MKR
30-Jan-19,392.02,388.58,400.1,360.36,0.73K,0.88%,MKR
29-Jan-19,388.58,390.81,394.46,380.37,0.01K,-0.57%,MKR
28-Jan-19,390.81,430.03,430.03,381.39,0.08K,-9.12%,MKR
27-Jan-19,430.03,446.5,470,427.37,2.62K,-3.69%,MKR
26-Jan-19,446.5,465.1,469.74,436.5,75.23K,-4.00%,MKR
25-Jan-19,465.1,468.03,499.99,458.01,41.27K,-0.63%,MKR
24-Jan-19,468.03,454,474.8,450.23,8.24K,3.09%,MKR
23-Jan-19,454,456.34,462.84,442.76,28.20K,-0.51%,MKR
22-Jan-19,456.34,422.66,456.34,422.66,1.75K,7.97%,MKR
21-Jan-19,422.66,457.71,457.71,419.49,11.35K,-7.66%,MKR
20-Jan-19,457.71,487.28,487.28,450.95,0.01K,-6.07%,MKR
19-Jan-19,487.28,452.17,487.28,452.17,0.01K,7.76%,MKR
18-Jan-19,452.17,465.97,475.42,452.17,0.01K,-2.96%,MKR
17-Jan-19,465.97,451.89,465.97,449.99,0.00K,3.11%,MKR
16-Jan-19,451.89,434.27,457.21,434.23,0.00K,4.06%,MKR
15-Jan-19,434.27,433.21,482.44,433.21,0.03K,0.24%,MKR
14-Jan-19,433.21,417.33,435.39,417.33,0.01K,3.81%,MKR
13-Jan-19,417.33,435.35,435.39,417.33,0.01K,-4.14%,MKR
12-Jan-19,435.35,431.71,444.18,422.07,0.02K,0.84%,MKR
11-Jan-19,431.71,442.18,442.85,419.01,0.02K,-2.37%,MKR
10-Jan-19,442.18,486.8,493.35,439.47,0.02K,-9.17%,MKR
9-Jan-19,486.8,476.25,501.27,450.01,-,2.22%,MKR
8-Jan-19,476.25,490.7,490.86,475.96,0.02K,-2.94%,MKR
7-Jan-19,490.7,533.85,538.84,490.11,0.00K,-8.08%,MKR
6-Jan-19,533.85,515.82,538.84,489.84,0.01K,3.50%,MKR
5-Jan-19,515.82,510.33,523.76,491.76,0.02K,1.08%,MKR
4-Jan-19,510.33,496.34,516.22,484.83,0.00K,2.82%,MKR
3-Jan-19,496.34,477.61,518.97,477.61,-,3.92%,MKR
2-Jan-19,477.61,492.28,492.28,477.61,-,-7.97%,MKR
30-Dec-18,519,519,519,519,-,0.00%,MKR
29-Dec-18,519,421.96,519,421.96,0.00K,23.00%,MKR
28-Dec-18,421.96,421.96,421.96,421.96,-,0.00%,MKR
27-Dec-18,421.96,421.96,421.96,421.96,-,0.00%,MKR
26-Dec-18,421.96,458.36,458.36,421.96,-,-7.94%,MKR
25-Dec-18,458.36,458.36,458.36,458.36,-,0.00%,MKR
24-Dec-18,458.36,430.24,486,430.24,-,6.54%,MKR
23-Dec-18,430.24,405.86,430.24,405.86,-,6.01%,MKR
22-Dec-18,405.86,405.86,405.86,405.86,-,0.00%,MKR
21-Dec-18,405.86,464.51,464.51,405.86,0.00K,-12.63%,MKR
20-Dec-18,464.51,404.41,464.51,404.41,-,14.86%,MKR
19-Dec-18,404.41,409.03,435.43,404.41,0.04K,-1.13%,MKR
18-Dec-18,409.03,394.85,419,372.63,0.02K,3.59%,MKR
17-Dec-18,394.85,359.26,394.85,291.53,0.00K,9.91%,MKR
16-Dec-18,359.26,373.12,373.12,298.6,-,-3.71%,MKR
15-Dec-18,373.12,330,373.12,330,0.00K,13.07%,MKR
14-Dec-18,330,314.67,401,314.67,0.00K,4.87%,MKR
13-Dec-18,314.67,314.67,314.67,314.67,-,0.00%,MKR
12-Dec-18,314.67,314.67,314.67,314.67,-,3.17%,MKR
11-Dec-18,305.01,312.37,314.65,305,0.00K,-2.36%,MKR
10-Dec-18,312.37,316.1,316.1,310.6,0.01K,-1.18%,MKR
9-Dec-18,316.1,327.16,327.16,316.1,-,-3.38%,MKR
8-Dec-18,327.16,325.22,327.16,325.22,-,0.60%,MKR
7-Dec-18,325.22,356.25,356.25,305.01,-,-8.71%,MKR
6-Dec-18,356.25,352.65,356.25,352.65,0.02K,1.02%,MKR
5-Dec-18,352.65,418.26,418.26,352.65,0.02K,-15.69%,MKR
4-Dec-18,418.26,387.01,418.26,387.01,0.02K,8.07%,MKR
3-Dec-18,387.01,467.88,467.88,387.01,0.02K,-17.28%,MKR
2-Dec-18,467.88,469.3,469.3,467.88,-,-0.30%,MKR
1-Dec-18,469.3,469.3,469.3,469.3,-,21.40%,MKR
30-Nov-18,386.56,386.56,386.56,386.56,-,0.00%,MKR
29-Nov-18,386.56,363.86,386.56,363.86,0.00K,6.24%,MKR
28-Nov-18,363.86,316.01,365,316.01,0.00K,15.14%,MKR
27-Nov-18,316.01,312.99,369.37,312.99,0.00K,0.96%,MKR
26-Nov-18,312.99,313,323.17,312.99,-,0.00%,MKR
25-Nov-18,313,351.84,352,300,0.00K,-11.04%,MKR
24-Nov-18,351.84,380.46,497.87,351.84,0.01K,-7.52%,MKR
23-Nov-18,380.46,426.9,426.9,380.46,0.00K,-10.88%,MKR
22-Nov-18,426.9,437.98,437.98,422.52,0.00K,-2.53%,MKR
21-Nov-18,437.98,341.77,437.98,341.77,0.00K,28.15%,MKR
20-Nov-18,341.77,415,464.64,341.77,0.01K,-17.65%,MKR
19-Nov-18,415,552.18,553.67,415,0.01K,-24.84%,MKR
18-Nov-18,552.18,641.01,641.01,551.47,0.01K,-13.86%,MKR
17-Nov-18,641.01,554.37,799.39,554.37,0.02K,15.63%,MKR
16-Nov-18,554.37,606.6,606.6,554.37,0.00K,-8.61%,MKR
15-Nov-18,606.6,600,606.6,596.93,0.00K,1.10%,MKR
14-Nov-18,600,680,725.2,600,-,-11.76%,MKR
13-Nov-18,680,675,680,675,0.00K,0.74%,MKR
12-Nov-18,675,650.86,680.22,650.86,0.00K,3.71%,MKR
11-Nov-18,650.86,657.95,733.18,650.86,-,1.23%,MKR
10-Nov-18,642.95,642.95,642.95,642.95,-,0.00%,MKR
9-Nov-18,642.95,642.87,669.01,642.87,-,0.01%,MKR
8-Nov-18,642.87,668.96,668.96,642.87,0.00K,-3.90%,MKR
7-Nov-18,668.96,694.96,694.96,600.02,0.00K,-3.74%,MKR
6-Nov-18,694.96,620.43,750,620.43,-,12.01%,MKR
5-Nov-18,620.43,700.82,700.82,620.43,0.00K,-11.47%,MKR
4-Nov-18,700.82,609.22,801.98,609.22,0.00K,14.70%,MKR
3-Nov-18,611.01,611.01,611.01,611.01,-,0.00%,MKR
2-Nov-18,611.01,611.01,611.01,611.01,-,-5.12%,MKR
31-Oct-18,644,644,644,644,-,0.00%,MKR
30-Oct-18,644,644.61,644.61,644,-,-0.09%,MKR
29-Oct-18,644.61,601.32,644.61,601.32,-,-2.41%,MKR
26-Oct-18,660.5,660.5,660.5,660.5,-,0.00%,MKR
25-Oct-18,660.5,683.98,683.98,660,-,-3.43%,MKR
24-Oct-18,683.98,675,690,665.04,0.00K,1.33%,MKR
23-Oct-18,675,681.32,700,675,-,-0.93%,MKR
22-Oct-18,681.32,681.5,681.5,679.96,0.00K,-0.03%,MKR
21-Oct-18,681.5,631.35,681.5,631.35,0.00K,7.94%,MKR
20-Oct-18,631.35,665.15,665.15,631.35,-,-5.08%,MKR
19-Oct-18,665.15,673.91,709.98,565.95,0.00K,-1.30%,MKR
18-Oct-18,673.91,661.32,673.91,653.92,-,1.90%,MKR
17-Oct-18,661.32,696.36,708.58,638.52,0.00K,-5.03%,MKR
16-Oct-18,696.36,696.51,698.41,696.36,0.00K,-0.02%,MKR
15-Oct-18,696.51,636.24,800,636.24,0.00K,9.47%,MKR
14-Oct-18,636.24,636.2,733.72,636.2,-,0.01%,MKR
13-Oct-18,636.2,736.84,736.84,630.64,-,-13.66%,MKR
12-Oct-18,736.84,621.17,736.84,621.17,-,18.62%,MKR
11-Oct-18,621.17,652.01,652.01,602.4,0.02K,-4.73%,MKR
10-Oct-18,652.01,727.75,830.64,650.85,0.01K,-10.41%,MKR
9-Oct-18,727.75,756.51,820.2,713.1,0.01K,-3.80%,MKR
8-Oct-18,756.51,599.5,886.17,561.87,0.02K,26.19%,MKR
7-Oct-18,599.5,640.22,640.22,599.5,-,-6.36%,MKR
6-Oct-18,640.22,585.3,647.27,585.3,0.01K,9.38%,MKR
5-Oct-18,585.3,505.18,586.96,505.18,0.02K,15.86%,MKR
4-Oct-18,505.18,551.48,558.83,463.87,0.01K,-8.40%,MKR
3-Oct-18,551.48,557.19,557.19,450.03,-,-1.02%,MKR
2-Oct-18,557.19,500,557.19,480.79,-,11.44%,MKR
1-Oct-18,500,557.18,557.18,450.03,-,-10.26%,MKR
30-Sep-18,557.18,478.1,557.18,478.1,-,16.54%,MKR
29-Sep-18,478.1,477.72,478.2,477.72,0.00K,10.20%,MKR
28-Sep-18,433.85,433.85,433.85,433.85,-,0.00%,MKR
27-Sep-18,433.85,457.19,457.19,433.85,0.00K,-5.68%,MKR
24-Sep-18,460,460,460,460,-,0.00%,MKR
23-Sep-18,460,412.28,460,412.28,-,11.57%,MKR
22-Sep-18,412.28,440.72,446.46,412.28,0.00K,-6.45%,MKR
21-Sep-18,440.72,403.25,440.72,403.25,-,9.29%,MKR
20-Sep-18,403.25,410.74,410.74,395.77,-,-1.82%,MKR
19-Sep-18,410.74,423.37,440.24,404.46,0.00K,-2.98%,MKR
18-Sep-18,423.37,375.06,423.37,375.01,0.00K,0.14%,MKR
17-Sep-18,422.78,422.78,422.78,422.78,-,0.00%,MKR
16-Sep-18,422.78,422.1,424.11,390.24,-,0.16%,MKR
15-Sep-18,422.1,406.8,428.95,403.67,0.00K,3.76%,MKR
14-Sep-18,406.8,334.11,410.72,334.11,0.00K,21.76%,MKR
13-Sep-18,334.11,302.95,337.94,302.95,0.00K,10.29%,MKR
12-Sep-18,302.95,333.93,334.44,288.53,0.01K,-9.28%,MKR
11-Sep-18,333.93,339.96,339.96,323.91,0.00K,-1.77%,MKR
10-Sep-18,339.96,349.97,349.97,331.79,-,-2.86%,MKR
9-Sep-18,349.97,350,350,333.49,0.01K,-0.01%,MKR
8-Sep-18,350,381.09,392.87,350,0.00K,-8.16%,MKR
7-Sep-18,381.09,396.01,398.83,380,0.01K,-3.77%,MKR
6-Sep-18,396.01,421.16,421.16,393.9,0.00K,-5.97%,MKR
5-Sep-18,421.16,483.57,488.02,421.16,0.00K,-12.91%,MKR
4-Sep-18,483.57,501.81,501.81,483.57,0.00K,-3.63%,MKR
3-Sep-18,501.81,498.87,503.03,488.01,0.00K,0.59%,MKR
2-Sep-18,498.87,477.95,499.92,477.95,0.01K,4.38%,MKR
1-Sep-18,477.95,432.87,477.95,432.87,0.00K,10.41%,MKR
31-Aug-18,432.87,432.87,432.87,432.87,-,-3.41%,MKR
30-Aug-18,448.13,448.13,448.13,448.13,-,0.00%,MKR
29-Aug-18,448.13,444.79,451,444.79,0.00K,0.75%,MKR
28-Aug-18,444.79,426.5,444.8,426.5,0.00K,4.29%,MKR
27-Aug-18,426.5,426.47,426.5,426.47,-,0.01%,MKR
26-Aug-18,426.47,438.04,438.04,426.47,-,-2.64%,MKR
25-Aug-18,438.04,436.94,438.04,428.26,0.00K,0.25%,MKR
24-Aug-18,436.94,415.59,436.94,415.59,0.00K,5.14%,MKR
23-Aug-18,415.59,441.67,441.67,402.6,-,-5.90%,MKR
22-Aug-18,441.67,447.4,447.4,425.03,-,0.70%,MKR
20-Aug-18,438.6,438.6,438.6,438.6,-,0.00%,MKR
19-Aug-18,438.6,439.58,452.19,438.6,-,-0.22%,MKR
18-Aug-18,439.58,446.3,446.3,439.58,-,-1.51%,MKR
17-Aug-18,446.3,425,446.3,425,-,11.06%,MKR
15-Aug-18,401.87,401.87,401.87,401.87,-,0.00%,MKR
14-Aug-18,401.87,425,425,375.84,0.01K,-5.44%,MKR
13-Aug-18,425,489.34,489.34,425,-,-13.15%,MKR
12-Aug-18,489.34,467.18,489.34,467.18,0.01K,4.74%,MKR
11-Aug-18,467.18,477.23,488.32,450,0.01K,-2.11%,MKR
10-Aug-18,477.23,515.73,627.02,477.23,-,-7.47%,MKR
9-Aug-18,515.73,515.73,515.73,515.21,-,0.00%,MKR
8-Aug-18,515.73,522.47,522.47,500.4,0.01K,-1.29%,MKR
7-Aug-18,522.47,540,546.91,522.47,-,-3.25%,MKR
6-Aug-18,540,540,556.39,540,-,0.00%,MKR
5-Aug-18,540,563.91,563.91,540,0.00K,-4.24%,MKR
4-Aug-18,563.91,560.43,563.91,540,-,0.62%,MKR
3-Aug-18,560.43,560.43,560.43,557.06,0.01K,0.00%,MKR
2-Aug-18,560.43,580,580,554.8,0.01K,-3.37%,MKR
1-Aug-18,580,600,600,580,0.00K,-3.33%,MKR
31-Jul-18,600,663.05,663.05,600,-,-9.51%,MKR
30-Jul-18,663.05,637.9,663.05,637.9,0.00K,3.94%,MKR
29-Jul-18,637.9,641.78,641.78,637.9,0.00K,-2.05%,MKR
28-Jul-18,651.22,651.22,651.22,651.22,-,0.00%,MKR
27-Jul-18,651.22,649.9,651.22,632.76,0.00K,0.20%,MKR
26-Jul-18,649.9,642.63,653.26,631.25,0.00K,1.13%,MKR
25-Jul-18,642.63,622.55,642.64,622.55,0.00K,3.23%,MKR
24-Jul-18,622.55,600.01,622.55,600.01,-,3.76%,MKR
23-Jul-18,600.01,600.01,600.01,600.01,-,0.61%,MKR
22-Jul-18,596.35,596.35,596.35,596.35,-,0.00%,MKR
21-Jul-18,596.35,609.61,609.61,589.45,0.00K,-2.18%,MKR
20-Jul-18,609.61,622,625,609.61,-,-1.99%,MKR
19-Jul-18,622,670.79,670.79,622,-,-7.27%,MKR
18-Jul-18,670.79,655.99,670.79,655.99,0.00K,2.26%,MKR
17-Jul-18,655.99,601.88,655.99,600,0.00K,8.99%,MKR
16-Jul-18,601.88,559.5,601.88,559.5,-,7.57%,MKR
15-Jul-18,559.5,565.26,565.26,559.5,-,-1.02%,MKR
14-Jul-18,565.26,567.62,569.86,551,-,-0.42%,MKR
13-Jul-18,567.62,550.48,567.62,550.48,-,3.11%,MKR
12-Jul-18,550.48,550.48,572.48,550.48,-,0.00%,MKR
11-Jul-18,550.48,563,563,550.48,0.00K,-2.22%,MKR
10-Jul-18,563,597.19,597.19,561,0.00K,-5.73%,MKR
9-Jul-18,597.19,580,597.19,580,-,2.96%,MKR
8-Jul-18,580,556.84,580,556.84,0.00K,4.16%,MKR
7-Jul-18,556.84,562.4,562.4,544,-,-0.99%,MKR
6-Jul-18,562.4,549.74,562.4,549.74,-,2.30%,MKR
5-Jul-18,549.74,550.93,566.73,539.76,0.01K,-0.22%,MKR
4-Jul-18,550.93,548.18,557.95,542.02,0.01K,0.50%,MKR
3-Jul-18,548.18,533.46,553.1,533.46,0.00K,2.76%,MKR
2-Jul-18,533.46,537.65,542.71,519.4,0.02K,-0.78%,MKR
1-Jul-18,537.65,533.03,548.08,519.36,0.01K,0.87%,MKR
30-Jun-18,533.03,510.67,533.03,510.67,0.01K,4.82%,MKR
29-Jun-18,508.54,480,508.54,480,0.01K,5.95%,MKR
28-Jun-18,480,479.61,480,479.61,0.00K,0.08%,MKR
27-Jun-18,479.61,495,495,479.61,0.00K,-3.11%,MKR
26-Jun-18,495,511.67,526.38,495,0.00K,-3.26%,MKR
25-Jun-18,511.67,516.59,521.28,500.2,0.00K,-0.95%,MKR
24-Jun-18,516.59,521.85,548.71,494.79,0.01K,-1.01%,MKR
23-Jun-18,521.85,537.09,537.1,521.85,0.00K,-0.60%,MKR
22-Jun-18,525,560.5,560.5,525,0.00K,-6.33%,MKR
21-Jun-18,560.5,562.75,569.87,560.5,-,-0.40%,MKR
20-Jun-18,562.75,554.31,568.83,548.74,-,1.52%,MKR
19-Jun-18,554.31,525,570.79,525,-,5.58%,MKR
18-Jun-18,525,526.13,526.13,525,0.00K,-3.88%,MKR
17-Jun-18,546.17,548.62,548.62,546.17,0.00K,-3.74%,MKR
16-Jun-18,567.39,567.27,577.99,550,0.00K,0.02%,MKR
15-Jun-18,567.27,615.6,615.6,567.27,0.01K,-6.70%,MKR
14-Jun-18,608,599.47,616.48,567.27,0.02K,-1.35%,MKR
13-Jun-18,616.31,660.35,661.01,604.81,0.00K,-3.75%,MKR
12-Jun-18,640.35,683.34,683.34,0,0.00K,-6.29%,MKR
11-Jun-18,683.34,666.88,708.79,666.88,-,2.47%,MKR
10-Jun-18,666.88,792.13,792.13,666.88,0.00K,-17.19%,MKR
9-Jun-18,805.31,784.67,815.55,0,-,2.63%,MKR
8-Jun-18,784.67,809.39,809.39,784.67,-,-3.47%,MKR
7-Jun-18,812.91,804.94,812.91,804.94,-,0.99%,MKR
6-Jun-18,804.94,790.26,817.84,0,0.00K,1.86%,MKR
5-Jun-18,790.26,790.42,790.42,789.47,0.00K,0.50%,MKR
4-Jun-18,786.3,787.4,787.4,784.88,-,-1.32%,MKR
3-Jun-18,796.81,768.44,796.81,768.44,0.01K,3.69%,MKR
2-Jun-18,768.44,771.47,795.88,763.92,0.01K,-0.30%,MKR
1-Jun-18,770.78,771.91,771.91,0,0.00K,-0.15%,MKR
31-May-18,771.91,746.85,771.91,746.85,0.00K,3.36%,MKR
30-May-18,746.85,755.2,755.2,740.38,0.03K,1.04%,MKR
29-May-18,739.14,729.36,752.05,726.35,0.01K,1.34%,MKR
28-May-18,729.36,747.58,747.58,729.36,0.01K,-2.44%,MKR
27-May-18,747.58,752.5,781.75,747.58,0.01K,-4.06%,MKR
26-May-18,779.2,767.69,793.84,767.69,0.00K,1.50%,MKR
25-May-18,767.69,792.88,856.29,761.33,0.00K,-3.18%,MKR
24-May-18,792.88,738.55,794.62,738.55,0.01K,7.36%,MKR
23-May-18,738.55,908,"1,157.41",732.64,0.02K,-18.66%,MKR
22-May-18,908.01,921.76,921.76,908,0.02K,-1.49%,MKR
21-May-18,921.76,944.81,944.81,920.41,0.01K,-2.44%,MKR
20-May-18,944.81,897.9,944.81,882.25,0.00K,5.22%,MKR
19-May-18,897.9,905.18,910.15,875.91,0.00K,-0.80%,MKR
18-May-18,905.18,848.56,905.19,848.56,0.00K,5.12%,MKR
17-May-18,861.08,872.61,892.85,861.01,0.00K,-1.32%,MKR
16-May-18,872.61,949.96,949.96,872.61,0.01K,-8.14%,MKR
15-May-18,949.96,939.62,969.82,928.08,0.00K,-1.98%,MKR
14-May-18,969.16,986.24,986.24,939.63,0.00K,-1.73%,MKR
13-May-18,986.24,915.09,986.24,915.09,-,7.78%,MKR
12-May-18,915.09,968.13,968.13,882.92,0.01K,-5.48%,MKR
11-May-18,968.13,"1,085.00","1,085.00",968.13,0.01K,-10.77%,MKR
10-May-18,"1,085.00","1,025.04","1,127.85","1,018.13",0.03K,5.85%,MKR
9-May-18,"1,025.04","1,006.14","1,041.05",978.95,0.01K,1.88%,MKR
8-May-18,"1,006.14","1,054.49","1,054.49",995.51,0.01K,-0.78%,MKR
7-May-18,"1,014.00","1,039.88","1,051.15",973.27,0.01K,-2.49%,MKR
6-May-18,"1,039.88","1,138.99","1,138.99","1,033.01",0.00K,-8.70%,MKR
5-May-18,"1,138.99","1,139.07","1,217.31","1,138.99",0.01K,-0.01%,MKR
4-May-18,"1,139.07","1,125.00","1,157.97","1,125.00",0.00K,1.25%,MKR
3-May-18,"1,125.00","1,062.86","1,125.00","1,062.86",0.01K,5.85%,MKR
2-May-18,"1,062.86","1,037.18","1,065.99","1,037.18",0.00K,2.48%,MKR
1-May-18,"1,037.18","1,033.90","1,037.18",988.56,0.00K,0.32%,MKR
30-Apr-18,"1,033.90","1,081.56","1,084.74","1,033.90",0.00K,-4.41%,MKR
29-Apr-18,"1,081.56","1,072.37","1,107.87","1,028.40",0.00K,0.86%,MKR
28-Apr-18,"1,072.37","1,013.80","1,072.37","1,013.80",0.00K,5.78%,MKR
27-Apr-18,"1,013.80","1,020.66","1,062.01","1,013.80",0.00K,-0.67%,MKR
26-Apr-18,"1,020.66",897.5,"1,125.47",897.5,0.01K,13.72%,MKR
25-Apr-18,897.5,"1,030.00","1,031.18",897.5,0.04K,-12.86%,MKR
24-Apr-18,"1,030.00",949.24,"1,030.00",949.24,0.01K,8.51%,MKR
23-Apr-18,949.24,920,949.39,905.29,0.01K,3.18%,MKR
22-Apr-18,920,885.89,938.55,885.89,0.00K,3.85%,MKR
21-Apr-18,885.89,888,906.7,828.14,0.00K,-0.24%,MKR
20-Apr-18,888,830.01,888,798.95,0.00K,6.99%,MKR
19-Apr-18,830.01,776.07,852.46,776.07,0.00K,6.95%,MKR
18-Apr-18,776.07,772.23,776.07,735.62,0.01K,0.50%,MKR
17-Apr-18,772.23,745.77,772.23,745.77,0.01K,3.55%,MKR
16-Apr-18,745.77,756.98,762.81,726.53,0.01K,-1.48%,MKR
15-Apr-18,756.98,712,775.01,712,0.00K,6.32%,MKR
14-Apr-18,712,685.19,745,685.19,0.00K,3.91%,MKR
13-Apr-18,685.19,642.39,712.95,639.33,0.00K,6.66%,MKR
12-Apr-18,642.39,577.11,642.39,577.11,-,11.31%,MKR
11-Apr-18,577.11,543.73,591.84,543.73,0.00K,6.14%,MKR
10-Apr-18,543.73,517.32,560.55,517.32,0.01K,5.11%,MKR
9-Apr-18,517.32,517.29,546.07,517.29,0.00K,0.01%,MKR
8-Apr-18,517.29,517.3,517.3,517.29,-,0.00%,MKR
7-Apr-18,517.3,500.45,517.3,500.45,-,3.37%,MKR
6-Apr-18,500.45,485,"1,066.37",482.69,-,3.19%,MKR
5-Apr-18,485,509.28,509.28,479.28,0.00K,-4.77%,MKR
4-Apr-18,509.28,511.03,521.27,509.28,-,-0.34%,MKR
3-Apr-18,511.03,500.05,511.03,500.05,-,2.20%,MKR
2-Apr-18,500.05,487.24,502.11,484.47,-,2.63%,MKR
1-Apr-18,487.24,519.94,519.94,487.24,-,-6.29%,MKR
31-Mar-18,519.94,497.67,537.69,497.67,0.00K,4.47%,MKR
30-Mar-18,497.67,545.25,545.25,480.44,0.00K,-8.73%,MKR
29-Mar-18,545.25,595.39,595.39,535.65,-,-8.42%,MKR
28-Mar-18,595.39,603.71,603.71,595.39,-,-1.38%,MKR
27-Mar-18,603.71,638.36,638.36,603.71,0.00K,-5.43%,MKR
26-Mar-18,638.36,"1,066.37","1,066.37",623,0.00K,-40.14%,MKR
25-Mar-18,"1,066.37",713.17,"1,066.37",713.17,0.00K,49.53%,MKR
24-Mar-18,713.17,679.52,713.17,679.52,0.00K,4.95%,MKR
23-Mar-18,679.52,669.93,680.2,645.16,-,1.43%,MKR
22-Mar-18,669.93,661.59,682.74,603.51,-,1.26%,MKR
21-Mar-18,661.59,690,764.84,637.63,-,-4.12%,MKR
20-Mar-18,690,686.81,690,571.37,0.00K,0.46%,MKR
19-Mar-18,686.81,648.17,695.14,422.93,0.01K,5.96%,MKR
18-Mar-18,648.17,667.97,667.97,499.87,0.00K,-2.96%,MKR
17-Mar-18,667.97,723.21,723.21,648.16,-,-7.64%,MKR
16-Mar-18,723.21,744.11,744.11,701.64,0.00K,-2.81%,MKR
15-Mar-18,744.11,784.99,784.99,728.22,-,-5.21%,MKR
14-Mar-18,784.99,785.08,808.13,784.99,0.00K,-0.01%,MKR
13-Mar-18,785.08,816.1,819.23,785.08,0.00K,-3.80%,MKR
12-Mar-18,816.1,821.46,845,798.75,0.00K,-0.65%,MKR
11-Mar-18,821.46,818.81,821.46,794.8,0.00K,0.32%,MKR
10-Mar-18,818.81,822.87,854.68,818.81,0.00K,-0.49%,MKR
9-Mar-18,822.87,875,875,695.67,0.00K,-5.96%,MKR
8-Mar-18,875,875,875,875,-,0.00%,MKR
7-Mar-18,875,974.98,974.98,875,0.00K,-10.25%,MKR
6-Mar-18,974.98,"1,066.37","1,066.37",950,0.00K,-8.57%,MKR
5-Mar-18,"1,066.37",921.04,"1,066.37",921.04,-,15.78%,MKR
4-Mar-18,921.04,"1,035.54","1,035.54",921.04,0.00K,-11.06%,MKR
3-Mar-18,"1,035.54","1,045.55","1,045.55","1,003.08",0.00K,-0.96%,MKR
2-Mar-18,"1,045.55","1,026.84","1,045.55","1,023.78",-,1.82%,MKR
1-Mar-18,"1,026.84","1,066.37","1,066.37","1,026.84",0.01K,-3.71%,MKR
28-Feb-18,"1,066.37","1,025.95","1,120.00","1,022.67",0.01K,3.94%,MKR
27-Feb-18,"1,025.95","1,025.91","1,025.95",905.93,-,0.00%,MKR
26-Feb-18,"1,025.91",989.41,"1,025.96",898.8,-,3.69%,MKR
25-Feb-18,989.41,941.2,989.41,941.2,-,5.12%,MKR
24-Feb-18,941.2,"1,005.27","1,019.00",941.19,-,-6.37%,MKR
23-Feb-18,"1,005.27",929.73,"1,005.27",929.73,-,8.12%,MKR
22-Feb-18,929.73,997.02,"1,051.53",895.74,0.01K,-6.75%,MKR
21-Feb-18,997.02,"1,060.98","1,063.30",950.7,0.01K,-6.03%,MKR
20-Feb-18,"1,060.98","1,120.01","1,152.70","1,060.98",-,-5.27%,MKR
19-Feb-18,"1,120.01","1,090.27","1,142.24","1,072.96",0.00K,2.73%,MKR
18-Feb-18,"1,090.27","1,129.37","1,138.77","1,061.06",0.02K,-3.46%,MKR
17-Feb-18,"1,129.37","1,147.46","1,194.67","1,129.37",-,-1.58%,MKR
16-Feb-18,"1,147.46","1,159.16","1,159.16","1,147.46",0.00K,-1.01%,MKR
15-Feb-18,"1,159.16","1,090.63","1,177.64","1,090.63",0.00K,6.28%,MKR
14-Feb-18,"1,090.63",0,"1,090.63",0,0.00K,0.00%,MKR
13-Feb-18,0,"1,049.53","1,070.93",0,-,-100.00%,MKR
12-Feb-18,"1,049.53","1,008.89","1,049.53",992.85,0.00K,4.03%,MKR
11-Feb-18,"1,008.89",0,"1,044.21",0,0.00K,0.00%,MKR
10-Feb-18,0,"1,083.54","1,105.53",0,-,-100.00%,MKR
9-Feb-18,"1,083.54","1,034.34","1,091.00",973.64,0.01K,4.76%,MKR
8-Feb-18,"1,034.34",924.31,"1,034.34",898.29,0.00K,11.90%,MKR
7-Feb-18,924.31,935,"1,088.00",852.39,0.01K,-1.14%,MKR
6-Feb-18,935,804.99,935,600,0.01K,16.15%,MKR
5-Feb-18,804.99,"1,047.74","1,054.98",804.99,0.01K,-23.17%,MKR
4-Feb-18,"1,047.74","1,188.89","1,193.77","1,015.44",0.00K,-11.87%,MKR
3-Feb-18,"1,188.89","1,151.61","1,248.38","1,070.35",0.00K,3.24%,MKR
2-Feb-18,"1,151.61","1,250.88","1,276.46","1,074.27",0.09K,-7.94%,MKR
1-Feb-18,"1,250.88","1,288.28","1,395.00","1,250.88",0.01K,-2.90%,MKR
31-Jan-18,"1,288.28","1,339.35","1,339.35","1,230.21",0.00K,-3.81%,MKR
30-Jan-18,"1,339.35","1,416.76","1,416.76","1,286.85",0.01K,-5.46%,MKR
29-Jan-18,"1,416.76","1,533.62","1,533.63","1,416.76",0.00K,-7.62%,MKR
28-Jan-18,"1,533.62","1,400.01","1,599.93","1,400.01",0.05K,9.54%,MKR
27-Jan-18,"1,400.01","1,488.54","1,488.54","1,354.75",0.01K,-5.95%,MKR
26-Jan-18,"1,488.54","1,445.00","1,501.03","1,417.91",0.01K,3.01%,MKR
25-Jan-18,"1,445.00","1,555.62","1,601.35","1,428.76",0.01K,-7.11%,MKR
24-Jan-18,"1,555.62","1,529.70","1,555.62","1,489.05",0.00K,1.69%,MKR
23-Jan-18,"1,529.70","1,518.06","1,542.11","1,424.10",0.01K,0.77%,MKR
22-Jan-18,"1,518.06","1,583.05","1,678.37","1,430.00",0.02K,-4.11%,MKR
21-Jan-18,"1,583.05","1,707.09","1,730.00","1,496.70",0.03K,-7.27%,MKR
20-Jan-18,"1,707.09","1,458.98","1,731.09","1,402.07",0.02K,17.01%,MKR
19-Jan-18,"1,458.98","1,374.15","1,785.22","1,330.75",0.03K,6.17%,MKR
18-Jan-18,"1,374.15","1,082.00","1,500.00","1,026.00",0.03K,27.00%,MKR
17-Jan-18,"1,082.00","1,067.65","1,138.50",791.33,0.02K,1.34%,MKR
16-Jan-18,"1,067.65","1,123.99","1,551.96",958,0.05K,-5.01%,MKR
