﻿Date,Price,Open,High,Low,Vol.,Change %,Coin
25-Dec-19,1.4006,1.4298,1.4334,1.3766,932.80K,-2.04%,XTZ
24-Dec-19,1.4298,1.4838,1.4843,1.4246,392.34K,-4.02%,XTZ
23-Dec-19,1.4896,1.4408,1.5437,1.4341,914.87K,3.41%,XTZ
22-Dec-19,1.4406,1.4562,1.4921,1.4224,642.61K,-1.07%,XTZ
21-Dec-19,1.4562,1.5818,1.5818,1.4517,1.09M,-7.94%,XTZ
20-Dec-19,1.5818,1.4903,1.5818,1.4728,1.27M,6.14%,XTZ
19-Dec-19,1.4903,1.545,1.5719,1.4494,1.18M,-3.98%,XTZ
18-Dec-19,1.5522,1.5283,1.6008,1.4002,2.31M,1.47%,XTZ
17-Dec-19,1.5296,1.6561,1.7365,1.5123,2.82M,-7.64%,XTZ
16-Dec-19,1.6561,1.6437,1.6787,1.5741,1.19M,0.76%,XTZ
15-Dec-19,1.6437,1.6258,1.6784,1.5658,1.54M,1.21%,XTZ
14-Dec-19,1.624,1.7314,1.7314,1.5947,1.75M,-6.19%,XTZ
13-Dec-19,1.7312,1.727,1.7972,1.643,2.88M,-0.29%,XTZ
12-Dec-19,1.7362,1.5188,1.7483,1.4847,3.40M,14.31%,XTZ
11-Dec-19,1.5188,1.4632,1.5612,1.4362,1.82M,3.80%,XTZ
10-Dec-19,1.4632,1.532,1.532,1.384,2.17M,-4.49%,XTZ
9-Dec-19,1.532,1.569,1.6075,1.5152,2.02M,-2.92%,XTZ
8-Dec-19,1.5781,1.4165,1.5927,1.4158,3.19M,10.92%,XTZ
7-Dec-19,1.4228,1.3689,1.4528,1.3571,1.64M,3.94%,XTZ
6-Dec-19,1.3689,1.2852,1.4009,1.2693,1.14M,6.52%,XTZ
5-Dec-19,1.2852,1.2431,1.2912,1.2344,438.52K,3.41%,XTZ
4-Dec-19,1.2428,1.2879,1.332,1.2417,1.04M,-3.50%,XTZ
3-Dec-19,1.2879,1.2389,1.3054,1.2073,862.64K,3.90%,XTZ
2-Dec-19,1.2395,1.2574,1.2576,1.2018,684.47K,-1.43%,XTZ
1-Dec-19,1.2574,1.3268,1.329,1.2512,563.52K,-5.23%,XTZ
30-Nov-19,1.3268,1.307,1.3496,1.3003,614.78K,1.51%,XTZ
29-Nov-19,1.307,1.2757,1.3395,1.2698,702.34K,2.41%,XTZ
28-Nov-19,1.2763,1.24,1.3432,1.2081,1.03M,2.02%,XTZ
27-Nov-19,1.251,1.2307,1.2622,1.1433,1.28M,1.65%,XTZ
26-Nov-19,1.2307,1.2347,1.2774,1.2128,1.30M,-0.33%,XTZ
25-Nov-19,1.2347,1.3136,1.3158,1.1947,2.09M,-5.97%,XTZ
24-Nov-19,1.3132,1.3777,1.4022,1.2875,1.63M,-4.75%,XTZ
23-Nov-19,1.3787,1.2163,1.4174,1.2144,4.06M,13.35%,XTZ
22-Nov-19,1.2163,1.2142,1.277,1.0778,2.18M,0.17%,XTZ
21-Nov-19,1.2142,1.2068,1.2845,1.1803,2.19M,0.61%,XTZ
20-Nov-19,1.2068,1.2125,1.2386,1.162,1.06M,-0.46%,XTZ
19-Nov-19,1.2125,1.2173,1.2338,1.1466,989.06K,-0.40%,XTZ
18-Nov-19,1.2173,1.1546,1.2492,1.1513,1.27M,5.46%,XTZ
17-Nov-19,1.1543,1.1561,1.1685,1.1467,273.42K,-0.16%,XTZ
16-Nov-19,1.1561,1.1683,1.172,1.1494,501.04K,-1.05%,XTZ
15-Nov-19,1.1683,1.2184,1.2593,1.1315,1.16M,-4.11%,XTZ
14-Nov-19,1.2184,1.1276,1.2904,1.0952,1.65M,8.06%,XTZ
13-Nov-19,1.1276,1.1677,1.1677,1.1125,696.71K,-3.45%,XTZ
12-Nov-19,1.1679,1.1729,1.1978,1.148,449.62K,-0.43%,XTZ
11-Nov-19,1.1729,1.2212,1.2433,1.1697,641.20K,-3.98%,XTZ
10-Nov-19,1.2215,1.2561,1.2573,1.1844,996.44K,-2.79%,XTZ
9-Nov-19,1.2565,1.1627,1.266,1.1468,1.29M,8.05%,XTZ
8-Nov-19,1.1629,1.2045,1.2834,1.1207,4.22M,-3.55%,XTZ
7-Nov-19,1.2058,1.0125,1.34,1.0111,9.69M,19.09%,XTZ
6-Nov-19,1.0125,0.9229,1.0434,0.9019,1.49M,9.75%,XTZ
5-Nov-19,0.9225,0.8882,0.9281,0.8771,830.80K,3.87%,XTZ
4-Nov-19,0.8882,0.8645,0.9046,0.8618,709.74K,2.74%,XTZ
3-Nov-19,0.8645,0.8607,0.8665,0.8503,257.75K,0.45%,XTZ
2-Nov-19,0.8607,0.8738,0.8809,0.8586,359.08K,-1.51%,XTZ
1-Nov-19,0.8738,0.8832,0.8874,0.86,447.11K,-1.06%,XTZ
31-Oct-19,0.8832,0.8958,0.9221,0.8663,798.52K,-0.83%,XTZ
30-Oct-19,0.8906,0.8619,0.9341,0.8292,1.91M,3.50%,XTZ
29-Oct-19,0.8605,0.8545,0.8718,0.8385,452.21K,0.68%,XTZ
28-Oct-19,0.8547,0.8617,0.8935,0.8528,650.62K,-0.81%,XTZ
27-Oct-19,0.8616,0.8316,0.8748,0.8091,724.05K,3.61%,XTZ
26-Oct-19,0.8316,0.8378,0.9138,0.8162,911.83K,-0.74%,XTZ
25-Oct-19,0.8378,0.7524,0.8388,0.7521,562.52K,10.94%,XTZ
24-Oct-19,0.7552,0.7598,0.7707,0.7492,457.10K,-0.59%,XTZ
23-Oct-19,0.7597,0.8343,0.8343,0.7499,936.16K,-8.95%,XTZ
22-Oct-19,0.8343,0.8664,0.8724,0.8143,416.10K,-3.70%,XTZ
21-Oct-19,0.8664,0.8753,0.8842,0.8633,115.36K,-1.02%,XTZ
20-Oct-19,0.8753,0.8621,0.8822,0.8547,150.50K,1.54%,XTZ
19-Oct-19,0.8621,0.8754,0.8843,0.8553,187.67K,-1.52%,XTZ
18-Oct-19,0.8754,0.8917,0.8945,0.8667,250.82K,-1.83%,XTZ
17-Oct-19,0.8917,0.8714,0.8949,0.8657,188.58K,2.33%,XTZ
16-Oct-19,0.8713,0.9045,0.9077,0.8562,482.42K,-3.66%,XTZ
15-Oct-19,0.9045,0.937,0.9387,0.9021,198.08K,-3.48%,XTZ
14-Oct-19,0.9371,0.9037,0.9377,0.8988,207.83K,3.69%,XTZ
13-Oct-19,0.9037,0.8913,0.9395,0.8855,334.46K,1.39%,XTZ
12-Oct-19,0.8913,0.9047,0.91,0.8913,90.04K,-1.39%,XTZ
11-Oct-19,0.9039,0.9143,0.9209,0.8791,486.52K,-1.15%,XTZ
10-Oct-19,0.9144,0.9428,0.9455,0.9143,302.09K,-3.03%,XTZ
9-Oct-19,0.9429,0.8968,0.9592,0.8901,420.63K,5.20%,XTZ
8-Oct-19,0.8963,0.897,0.9115,0.8906,154.31K,-0.35%,XTZ
7-Oct-19,0.8995,0.8667,0.9236,0.8556,611.21K,3.83%,XTZ
6-Oct-19,0.8663,0.9094,0.9109,0.8623,354.61K,-4.74%,XTZ
5-Oct-19,0.9093,0.9189,0.9304,0.9011,267.15K,-1.04%,XTZ
4-Oct-19,0.9189,0.9333,0.9337,0.8961,355.70K,-1.54%,XTZ
3-Oct-19,0.9333,0.9447,0.9609,0.9129,321.61K,-1.23%,XTZ
2-Oct-19,0.9449,0.9488,0.9488,0.8852,573.59K,-0.41%,XTZ
1-Oct-19,0.9488,0.8973,0.9922,0.8949,526.81K,5.74%,XTZ
30-Sep-19,0.8973,0.8789,0.9191,0.8443,575.51K,1.86%,XTZ
29-Sep-19,0.8809,0.8914,0.902,0.8555,461.66K,-1.15%,XTZ
28-Sep-19,0.8912,0.8878,0.9085,0.8609,258.21K,0.37%,XTZ
27-Sep-19,0.8878,0.8484,0.8952,0.8131,466.30K,4.75%,XTZ
26-Sep-19,0.8476,0.8477,0.9058,0.8134,927.19K,-0.05%,XTZ
25-Sep-19,0.848,0.8827,0.905,0.8101,1.23M,-3.92%,XTZ
24-Sep-19,0.8826,1.0511,1.0917,0.8198,2.98M,-16.03%,XTZ
23-Sep-19,1.0511,1.0512,1.1478,1.0187,3.32M,-0.01%,XTZ
22-Sep-19,1.0512,1.0687,1.071,1.0487,396.35K,-1.60%,XTZ
21-Sep-19,1.0682,1.0586,1.0738,1.0566,251.01K,0.91%,XTZ
20-Sep-19,1.0586,1.0995,1.1155,1.0492,382.02K,-3.61%,XTZ
19-Sep-19,1.0982,1.0881,1.1207,1.0316,528.10K,1.05%,XTZ
18-Sep-19,1.0868,1.1022,1.1487,1.0866,693.68K,-1.40%,XTZ
17-Sep-19,1.1022,1,1.1156,0.9906,1.13M,10.23%,XTZ
16-Sep-19,1,1.0014,1.0098,0.9775,246.09K,-0.15%,XTZ
15-Sep-19,1.0014,0.9977,1.0191,0.9844,279.38K,0.27%,XTZ
14-Sep-19,0.9988,0.9722,1.0157,0.9554,255.26K,2.42%,XTZ
13-Sep-19,0.9752,1.0132,1.0161,0.9533,355.95K,-3.70%,XTZ
12-Sep-19,1.0127,1.0003,1.0201,0.9869,246.17K,1.18%,XTZ
11-Sep-19,1.0009,1.0182,1.0304,0.9899,342.53K,-1.74%,XTZ
10-Sep-19,1.0187,1.0414,1.0477,1.011,743.01K,-2.18%,XTZ
9-Sep-19,1.0414,1.0643,1.1062,1.028,554.50K,-2.11%,XTZ
8-Sep-19,1.0638,1.0215,1.0686,1.02,639.08K,4.15%,XTZ
7-Sep-19,1.0215,0.9947,1.0374,0.9716,503.73K,2.69%,XTZ
6-Sep-19,0.9947,1.0119,1.0285,0.9903,514.76K,-1.74%,XTZ
5-Sep-19,1.0123,1.0317,1.0373,1.0019,456.53K,-1.88%,XTZ
4-Sep-19,1.0317,1.0364,1.0476,1.0142,387.46K,-0.45%,XTZ
3-Sep-19,1.0364,1.0582,1.0675,1.0183,670.72K,-2.06%,XTZ
2-Sep-19,1.0582,1.0276,1.0801,1.0239,667.30K,2.97%,XTZ
1-Sep-19,1.0276,1.0381,1.0536,1.0115,397.66K,-1.01%,XTZ
31-Aug-19,1.0381,1.0655,1.0864,1.0032,584.49K,-2.58%,XTZ
30-Aug-19,1.0655,0.9953,1.0687,0.9923,693.75K,7.05%,XTZ
29-Aug-19,0.9953,1.0514,1.0567,0.9914,1.23M,-5.34%,XTZ
28-Aug-19,1.0514,1.128,1.1293,1.028,1.02M,-6.76%,XTZ
27-Aug-19,1.1277,1.1628,1.1726,1.116,695.12K,-3.36%,XTZ
26-Aug-19,1.1669,1.1317,1.1883,1.1298,578.01K,3.11%,XTZ
25-Aug-19,1.1317,1.1479,1.1622,1.1169,364.19K,-1.39%,XTZ
24-Aug-19,1.1476,1.1691,1.1717,1.1156,471.61K,-1.84%,XTZ
23-Aug-19,1.1692,1.138,1.2013,1.1326,565.21K,2.82%,XTZ
22-Aug-19,1.1371,1.1247,1.1561,1.0996,568.89K,1.10%,XTZ
21-Aug-19,1.1247,1.1616,1.1635,1.1007,665.52K,-3.18%,XTZ
20-Aug-19,1.1616,1.2169,1.2177,1.1562,402.51K,-4.54%,XTZ
19-Aug-19,1.2169,1.2015,1.2397,1.1942,359.55K,1.29%,XTZ
18-Aug-19,1.2015,1.1896,1.241,1.1778,570.70K,1.24%,XTZ
17-Aug-19,1.1867,1.2169,1.2193,1.1693,629.51K,-2.48%,XTZ
16-Aug-19,1.217,1.2226,1.2319,1.1359,1.04M,-0.44%,XTZ
15-Aug-19,1.2223,1.154,1.2565,1.0388,1.86M,6.36%,XTZ
14-Aug-19,1.1492,1.2554,1.2856,1.1476,1.25M,-8.64%,XTZ
13-Aug-19,1.2579,1.3673,1.3771,1.2578,896.95K,-8.01%,XTZ
12-Aug-19,1.3673,1.3868,1.3911,1.3603,489.53K,-1.25%,XTZ
11-Aug-19,1.3846,1.3938,1.4133,1.3713,359.94K,-0.66%,XTZ
10-Aug-19,1.3938,1.4325,1.4371,1.3599,729.41K,-2.75%,XTZ
9-Aug-19,1.4332,1.5523,1.5523,1.3742,2.85M,-8.23%,XTZ
8-Aug-19,1.5617,1.3512,1.5784,1.3422,3.72M,15.58%,XTZ
7-Aug-19,1.3512,1.4873,1.4877,1.3427,1.35M,-8.69%,XTZ
6-Aug-19,1.4798,1.455,1.6467,1.3704,2.92M,1.70%,XTZ
5-Aug-19,1.455,1.4311,1.4968,1.3355,1.79M,1.68%,XTZ
4-Aug-19,1.4311,1.4286,1.4907,1.3948,1.11M,0.17%,XTZ
3-Aug-19,1.4286,1.4312,1.4631,1.3692,883.01K,-0.18%,XTZ
2-Aug-19,1.4312,1.3977,1.479,1.3495,1.62M,2.44%,XTZ
1-Aug-19,1.3971,1.2602,1.4472,1.2397,2.06M,10.83%,XTZ
31-Jul-19,1.2606,1.2187,1.2951,1.207,1.88M,3.43%,XTZ
30-Jul-19,1.2187,1.0108,1.2675,0.9992,2.83M,20.55%,XTZ
29-Jul-19,1.011,1.014,1.0459,1.0047,365.50K,-0.30%,XTZ
28-Jul-19,1.014,1.0213,1.0306,0.9768,501.74K,-0.71%,XTZ
27-Jul-19,1.0213,1.0334,1.0594,0.9955,653.61K,-1.29%,XTZ
26-Jul-19,1.0347,1.0313,1.0391,1.0042,649.96K,0.24%,XTZ
25-Jul-19,1.0322,1.0073,1.0608,1.0073,584.44K,2.47%,XTZ
24-Jul-19,1.0074,1.0656,1.1229,0.9762,1.75M,-5.36%,XTZ
23-Jul-19,1.0644,1.1157,1.1158,1.0019,1.05M,-4.59%,XTZ
22-Jul-19,1.1157,1.0772,1.1504,1.0752,1.17M,3.40%,XTZ
21-Jul-19,1.079,1.0351,1.1532,0.9607,1.72M,4.09%,XTZ
20-Jul-19,1.0365,0.9743,1.0544,0.9711,496.64K,6.39%,XTZ
19-Jul-19,0.9743,0.9738,0.9825,0.9246,362.70K,0.05%,XTZ
18-Jul-19,0.9738,0.9224,0.99,0.911,815.39K,5.58%,XTZ
17-Jul-19,0.9224,0.8645,0.9479,0.8278,997.12K,6.70%,XTZ
16-Jul-19,0.8645,0.9703,0.9709,0.8356,1.51M,-10.91%,XTZ
15-Jul-19,0.9703,0.9354,1.0094,0.8848,1.35M,3.73%,XTZ
14-Jul-19,0.9354,0.9951,1.0168,0.9286,597.64K,-5.95%,XTZ
13-Jul-19,0.9946,1.0669,1.0865,0.9497,920.38K,-6.91%,XTZ
12-Jul-19,1.0685,1.0087,1.0798,0.9916,1.10M,5.97%,XTZ
11-Jul-19,1.0083,1.1746,1.1871,1.0026,1.51M,-14.32%,XTZ
10-Jul-19,1.1768,1.2157,1.249,1.1498,1.35M,-3.20%,XTZ
9-Jul-19,1.2157,1.2231,1.2465,1.1446,893.87K,-0.79%,XTZ
8-Jul-19,1.2254,1.1967,1.2297,1.1646,665.99K,2.40%,XTZ
7-Jul-19,1.1967,1.2233,1.229,1.1439,990.07K,-2.28%,XTZ
6-Jul-19,1.2246,1.2839,1.287,1.1943,914.88K,-4.62%,XTZ
5-Jul-19,1.2839,1.2037,1.284,1.1925,1.22M,6.66%,XTZ
4-Jul-19,1.2037,1.2298,1.2989,1.1306,2.57M,-2.12%,XTZ
3-Jul-19,1.2298,1.0103,1.2926,1.0074,4.10M,21.72%,XTZ
2-Jul-19,1.0103,0.9217,1.0854,0.8581,1.83M,9.62%,XTZ
1-Jul-19,0.9217,0.9329,0.9648,0.8578,1.72M,-1.20%,XTZ
30-Jun-19,0.9329,1.034,1.0517,0.9074,1.59M,-9.80%,XTZ
29-Jun-19,1.0343,1.0164,1.0392,0.9471,1.65M,2.26%,XTZ
28-Jun-19,1.0115,0.9736,1.0827,0.9736,1.63M,3.88%,XTZ
27-Jun-19,0.9736,1.0846,1.1124,0.9272,2.87M,-10.23%,XTZ
26-Jun-19,1.0846,1.1126,1.1701,1.05,2.94M,-1.76%,XTZ
25-Jun-19,1.104,1.1641,1.1758,1.0632,1.96M,-5.16%,XTZ
24-Jun-19,1.1641,1.1917,1.1963,1.1308,1.09M,-2.32%,XTZ
23-Jun-19,1.1917,1.2247,1.2617,1.1902,893.17K,-2.69%,XTZ
22-Jun-19,1.2247,1.1706,1.2546,1.1385,2.54M,4.73%,XTZ
21-Jun-19,1.1694,1.1302,1.2212,1.109,1.67M,3.47%,XTZ
20-Jun-19,1.1302,1.2006,1.204,1.0638,2.65M,-5.86%,XTZ
19-Jun-19,1.2006,1.227,1.2549,1.1701,1.41M,-2.15%,XTZ
18-Jun-19,1.227,1.327,1.3508,1.2141,1.80M,-7.54%,XTZ
17-Jun-19,1.327,1.295,1.3471,1.2747,1.54M,2.46%,XTZ
16-Jun-19,1.2951,1.2375,1.3005,1.2305,1.22M,4.66%,XTZ
15-Jun-19,1.2375,1.2221,1.253,1.2034,881.87K,1.26%,XTZ
14-Jun-19,1.2221,1.2721,1.2797,1.1914,1.24M,-3.93%,XTZ
13-Jun-19,1.2721,1.2639,1.2999,1.2304,1.06M,0.65%,XTZ
12-Jun-19,1.2639,1.2776,1.2791,1.2153,951.29K,-1.08%,XTZ
11-Jun-19,1.2776,1.2913,1.2945,1.2156,792.17K,-1.06%,XTZ
10-Jun-19,1.2913,1.2217,1.3095,1.1994,974.08K,5.70%,XTZ
9-Jun-19,1.2216,1.2657,1.2754,1.1844,692.40K,-3.48%,XTZ
8-Jun-19,1.2657,1.3114,1.3155,1.2272,739.24K,-3.48%,XTZ
7-Jun-19,1.3114,1.3218,1.4159,1.2849,1.19M,-0.79%,XTZ
6-Jun-19,1.3218,1.189,1.378,1.1503,1.92M,11.17%,XTZ
5-Jun-19,1.189,1.2132,1.2426,1.1325,2.24M,-2.00%,XTZ
4-Jun-19,1.2132,1.3716,1.3751,1.135,2.66M,-11.55%,XTZ
3-Jun-19,1.3716,1.4967,1.4968,1.3636,855.01K,-8.36%,XTZ
2-Jun-19,1.4967,1.4625,1.5445,1.4541,688.57K,2.34%,XTZ
1-Jun-19,1.4625,1.5019,1.5053,1.4554,863.63K,-2.54%,XTZ
31-May-19,1.5007,1.4834,1.516,1.4153,1.33M,1.17%,XTZ
30-May-19,1.4834,1.5852,1.684,1.4267,2.22M,-6.09%,XTZ
29-May-19,1.5796,1.5817,1.5994,1.5595,1.40M,-0.13%,XTZ
28-May-19,1.5817,1.634,1.6388,1.5761,977.98K,-3.20%,XTZ
27-May-19,1.634,1.6527,1.6739,1.6094,787.57K,-1.13%,XTZ
26-May-19,1.6527,1.5596,1.6746,1.4946,821.26K,5.97%,XTZ
25-May-19,1.5596,1.5416,1.5978,1.5353,492.03K,-0.21%,XTZ
24-May-19,1.563,1.6117,1.6346,1.5477,709.16K,-3.02%,XTZ
23-May-19,1.6117,1.5476,1.6259,1.4584,1.16M,4.15%,XTZ
22-May-19,1.5476,1.6491,1.6491,1.5414,941.73K,-6.16%,XTZ
21-May-19,1.6491,1.6238,1.6698,1.6051,705.01K,0.51%,XTZ
20-May-19,1.6408,1.8234,1.8234,1.614,969.52K,-10.01%,XTZ
19-May-19,1.8234,1.6342,1.8332,1.6186,877.41K,11.41%,XTZ
18-May-19,1.6366,1.6656,1.7363,1.619,790.17K,-1.83%,XTZ
17-May-19,1.6672,1.7106,1.7642,1.5322,2.53M,-2.54%,XTZ
16-May-19,1.7107,1.7875,1.8459,1.6188,2.69M,-4.30%,XTZ
15-May-19,1.7875,1.4809,1.7884,1.4626,2.64M,20.70%,XTZ
14-May-19,1.4809,1.3221,1.4838,1.2951,1.68M,12.02%,XTZ
13-May-19,1.3221,1.2272,1.3797,1.2238,1.97M,7.73%,XTZ
12-May-19,1.2272,1.2665,1.3199,1.1924,1.43M,-3.02%,XTZ
11-May-19,1.2654,1.1131,1.3253,1.1103,2.17M,13.69%,XTZ
10-May-19,1.1131,1.1134,1.1726,1.0898,1.01M,0.45%,XTZ
9-May-19,1.1081,1.1707,1.1983,1.0873,1.28M,-5.35%,XTZ
8-May-19,1.1707,1.2087,1.2187,1.149,1.18M,-3.15%,XTZ
7-May-19,1.2088,1.2482,1.2975,1.2038,958.85K,-2.57%,XTZ
6-May-19,1.2408,1.163,1.2711,1.1437,952.97K,6.69%,XTZ
5-May-19,1.163,1.2122,1.2204,1.1577,546.05K,-4.06%,XTZ
4-May-19,1.2122,1.303,1.3235,1.147,1.21M,-6.97%,XTZ
3-May-19,1.303,1.286,1.317,1.2801,1.14M,1.32%,XTZ
2-May-19,1.286,1.1898,1.3144,1.189,987.47K,8.12%,XTZ
1-May-19,1.1894,1.2114,1.2326,1.1875,527.99K,-1.81%,XTZ
30-Apr-19,1.2114,1.1384,1.2255,1.1306,1.18M,6.41%,XTZ
29-Apr-19,1.1384,1.1851,1.2111,1.1061,1.31M,-3.94%,XTZ
28-Apr-19,1.1851,1.2182,1.2548,1.1688,1.30M,-2.77%,XTZ
27-Apr-19,1.2188,1.1739,1.2566,1.1738,1.56M,5.68%,XTZ
26-Apr-19,1.1534,1.1197,1.1536,1.0326,3.19M,3.00%,XTZ
25-Apr-19,1.1197,1.2162,1.2649,1.1165,2.20M,-8.38%,XTZ
24-Apr-19,1.2221,1.4373,1.4373,1.2039,2.92M,-14.97%,XTZ
23-Apr-19,1.4373,1.3427,1.4709,1.3318,1.74M,7.05%,XTZ
22-Apr-19,1.3427,1.3206,1.3489,1.2933,1.01M,1.66%,XTZ
21-Apr-19,1.3208,1.3387,1.3582,1.2844,952.34K,-1.44%,XTZ
20-Apr-19,1.3402,1.3624,1.3813,1.3022,1.32M,-1.63%,XTZ
19-Apr-19,1.3624,1.3769,1.3976,1.2759,2.14M,-1.00%,XTZ
18-Apr-19,1.3761,1.2612,1.3784,1.2497,3.26M,9.25%,XTZ
17-Apr-19,1.2597,1.145,1.2603,1.1376,1.89M,10.02%,XTZ
16-Apr-19,1.145,1.0687,1.1684,1.041,1.24M,7.13%,XTZ
15-Apr-19,1.0688,1.1367,1.1929,1.0404,2.36M,-5.96%,XTZ
14-Apr-19,1.1366,0.9725,1.1394,0.9545,2.32M,16.87%,XTZ
13-Apr-19,0.9725,0.9699,0.979,0.9493,453.45K,0.26%,XTZ
12-Apr-19,0.9699,0.9304,0.9725,0.9025,466.26K,4.25%,XTZ
11-Apr-19,0.9304,1.0234,1.0234,0.9212,1.11M,-9.01%,XTZ
10-Apr-19,1.0226,0.9427,1.0232,0.9345,844.99K,8.46%,XTZ
9-Apr-19,0.9429,0.9092,1.001,0.8777,1.39M,3.49%,XTZ
8-Apr-19,0.9111,0.9709,0.9976,0.8985,1.32M,-6.16%,XTZ
7-Apr-19,0.9709,0.9609,0.9944,0.9594,560.65K,1.05%,XTZ
6-Apr-19,0.9609,1.0176,1.0176,0.9601,1.36M,-5.57%,XTZ
5-Apr-19,1.0176,0.8737,1.0259,0.8711,1.33M,18.02%,XTZ
4-Apr-19,0.8622,0.9433,0.9984,0.8465,2.26M,-8.59%,XTZ
3-Apr-19,0.9433,1.0197,1.0306,0.9124,2.78M,-7.55%,XTZ
2-Apr-19,1.0203,0.9905,1.0253,0.9442,2.55M,3.19%,XTZ
1-Apr-19,0.9887,1.0517,1.0578,0.9739,1.61M,-6.06%,XTZ
31-Mar-19,1.0525,0.9398,1.0857,0.9362,2.80M,12.00%,XTZ
30-Mar-19,0.9398,0.8972,0.94,0.876,1.10M,4.87%,XTZ
29-Mar-19,0.8961,0.7802,0.9399,0.7721,2.72M,14.66%,XTZ
28-Mar-19,0.7816,0.7156,0.7964,0.7111,1.95M,9.03%,XTZ
27-Mar-19,0.7168,0.6596,0.7198,0.6583,806.33K,8.68%,XTZ
26-Mar-19,0.6596,0.6823,0.683,0.6506,585.81K,-3.32%,XTZ
25-Mar-19,0.6822,0.6682,0.7319,0.6584,1.24M,2.07%,XTZ
24-Mar-19,0.6684,0.7205,0.729,0.6614,651.07K,-7.24%,XTZ
23-Mar-19,0.7205,0.7456,0.757,0.6826,800.52K,-3.36%,XTZ
22-Mar-19,0.7456,0.8247,0.8272,0.7157,2.13M,-9.60%,XTZ
21-Mar-19,0.8247,0.6533,0.835,0.6213,3.95M,26.23%,XTZ
20-Mar-19,0.6533,0.5839,0.6603,0.5099,5.12M,11.89%,XTZ
19-Mar-19,0.5839,0.4904,0.589,0.4827,5.70M,19.08%,XTZ
18-Mar-19,0.4904,0.489,0.4932,0.4807,3.91M,0.27%,XTZ
17-Mar-19,0.489,0.4976,0.4993,0.4802,3.72M,-1.72%,XTZ
16-Mar-19,0.4976,0.4456,0.5039,0.4452,5.24M,11.66%,XTZ
15-Mar-19,0.4457,0.4443,0.448,0.442,4.18M,0.31%,XTZ
14-Mar-19,0.4443,0.448,0.4493,0.4338,3.99M,-0.82%,XTZ
13-Mar-19,0.448,0.4557,0.4609,0.4414,3.80M,-1.69%,XTZ
12-Mar-19,0.4557,0.4497,0.4595,0.4322,3.36M,1.34%,XTZ
11-Mar-19,0.4497,0.4514,0.4722,0.4456,4.58M,-0.36%,XTZ
10-Mar-19,0.4513,0.4145,0.4635,0.4139,5.44M,8.86%,XTZ
9-Mar-19,0.4145,0.4089,0.4154,0.4043,4.24M,1.53%,XTZ
8-Mar-19,0.4083,0.4106,0.4157,0.4074,3.95M,-0.57%,XTZ
7-Mar-19,0.4106,0.4147,0.4161,0.4092,4.30M,-0.99%,XTZ
6-Mar-19,0.4147,0.4023,0.4201,0.4015,4.27M,2.97%,XTZ
5-Mar-19,0.4027,0.4015,0.4041,0.399,3.69M,0.30%,XTZ
4-Mar-19,0.4015,0.4003,0.412,0.3951,4.40M,0.30%,XTZ
3-Mar-19,0.4003,0.4012,0.4019,0.3987,4.72M,-0.21%,XTZ
2-Mar-19,0.4012,0.4089,0.41,0.4002,3.66M,-1.86%,XTZ
1-Mar-19,0.4088,0.4048,0.4174,0.4036,5.03M,0.99%,XTZ
28-Feb-19,0.4048,0.4086,0.4098,0.4024,2.81M,-0.92%,XTZ
27-Feb-19,0.4085,0.4026,0.4109,0.4019,7.92M,1.48%,XTZ
26-Feb-19,0.4026,0.4257,0.4279,0.3982,6.03M,-5.39%,XTZ
25-Feb-19,0.4255,0.4214,0.4299,0.4192,3.56M,1.03%,XTZ
24-Feb-19,0.4212,0.4405,0.457,0.421,3.14M,-4.42%,XTZ
23-Feb-19,0.4407,0.4429,0.4434,0.4384,4.31M,-0.49%,XTZ
22-Feb-19,0.4428,0.4372,0.4465,0.4365,3.33M,1.34%,XTZ
21-Feb-19,0.437,0.4631,0.4636,0.4337,2.04M,-5.64%,XTZ
20-Feb-19,0.4631,0.4488,0.4663,0.4394,1.59M,3.18%,XTZ
19-Feb-19,0.4488,0.4524,0.4555,0.4405,2.61M,-0.81%,XTZ
18-Feb-19,0.4525,0.4341,0.4544,0.4333,2.24M,4.22%,XTZ
17-Feb-19,0.4341,0.4299,0.4394,0.4273,1.52M,0.98%,XTZ
16-Feb-19,0.4299,0.4462,0.4585,0.4249,1.87M,-3.64%,XTZ
15-Feb-19,0.4462,0.4073,0.447,0.4066,2.50M,9.54%,XTZ
14-Feb-19,0.4073,0.3922,0.4087,0.3917,2.72M,3.85%,XTZ
13-Feb-19,0.3922,0.3849,0.3928,0.3841,1.86M,1.81%,XTZ
12-Feb-19,0.3853,0.3815,0.3861,0.3797,3.88M,0.98%,XTZ
11-Feb-19,0.3815,0.3753,0.3834,0.3747,3.66M,1.66%,XTZ
10-Feb-19,0.3753,0.3791,0.3796,0.3729,3.95M,-0.99%,XTZ
9-Feb-19,0.3791,0.3852,0.3965,0.3783,1.77M,-1.59%,XTZ
8-Feb-19,0.3852,0.3628,0.3861,0.356,4.95M,6.19%,XTZ
7-Feb-19,0.3628,0.3677,0.3756,0.3605,571.43K,-1.31%,XTZ
6-Feb-19,0.3676,0.3716,0.3724,0.3662,12.47M,-1.08%,XTZ
5-Feb-19,0.3716,0.3699,0.3727,0.3676,4.26M,0.46%,XTZ
4-Feb-19,0.3699,0.3731,0.3743,0.3679,23.93M,-0.86%,XTZ
3-Feb-19,0.3731,0.3799,0.3804,0.3726,6.74M,-1.79%,XTZ
2-Feb-19,0.3799,0.38,0.3809,0.3757,3.59M,-0.03%,XTZ
1-Feb-19,0.38,0.3725,0.381,0.3716,9.10M,2.03%,XTZ
31-Jan-19,0.3724,0.3754,0.3766,0.3697,4.84M,-0.76%,XTZ
30-Jan-19,0.3753,0.3708,0.3766,0.3694,5.46M,1.22%,XTZ
29-Jan-19,0.3708,0.3818,0.3825,0.3638,4.46M,-2.63%,XTZ
28-Jan-19,0.3808,0.3993,0.3999,0.3784,5.11M,-4.63%,XTZ
27-Jan-19,0.3993,0.4094,0.4094,0.3971,3.01M,-2.43%,XTZ
26-Jan-19,0.4092,0.4103,0.4152,0.4083,1.98M,-0.25%,XTZ
25-Jan-19,0.4102,0.4136,0.4173,0.4088,2.10M,-0.81%,XTZ
24-Jan-19,0.4136,0.4136,0.415,0.4093,1.75M,-0.22%,XTZ
23-Jan-19,0.4145,0.417,0.4181,0.4062,1.39M,-0.61%,XTZ
22-Jan-19,0.417,0.416,0.4191,0.4079,1.18M,0.23%,XTZ
21-Jan-19,0.4161,0.4209,0.4281,0.4146,1.93M,-1.14%,XTZ
20-Jan-19,0.4209,0.4191,0.4292,0.4141,825.47K,0.41%,XTZ
19-Jan-19,0.4191,0.4208,0.4257,0.4136,743.09K,-0.39%,XTZ
18-Jan-19,0.4208,0.4151,0.4235,0.4142,580.69K,1.15%,XTZ
17-Jan-19,0.416,0.417,0.4217,0.4124,684.41K,-0.23%,XTZ
16-Jan-19,0.417,0.3978,0.429,0.396,730.44K,4.80%,XTZ
15-Jan-19,0.3979,0.413,0.4152,0.3911,734.37K,-3.89%,XTZ
14-Jan-19,0.414,0.3848,0.425,0.3847,630.13K,7.57%,XTZ
13-Jan-19,0.3848,0.4161,0.4207,0.3789,832.92K,-7.52%,XTZ
12-Jan-19,0.4161,0.4427,0.4448,0.4108,786.36K,-6.01%,XTZ
11-Jan-19,0.4427,0.4453,0.4605,0.4382,717.01K,-0.55%,XTZ
10-Jan-19,0.4452,0.498,0.4982,0.4381,848.40K,-10.48%,XTZ
9-Jan-19,0.4973,0.4776,0.5026,0.4696,899.75K,4.13%,XTZ
8-Jan-19,0.4776,0.4714,0.4925,0.4645,878.16K,1.31%,XTZ
7-Jan-19,0.4714,0.4808,0.496,0.4673,953.06K,-1.95%,XTZ
6-Jan-19,0.4808,0.4688,0.4819,0.4593,652.29K,2.56%,XTZ
5-Jan-19,0.4688,0.4604,0.4723,0.4562,442.23K,1.55%,XTZ
4-Jan-19,0.4616,0.4619,0.4739,0.4514,650.97K,-0.06%,XTZ
3-Jan-19,0.4619,0.4766,0.4766,0.4607,599.25K,-3.07%,XTZ
2-Jan-19,0.4766,0.4613,0.4809,0.4492,1.04M,3.47%,XTZ
1-Jan-19,0.4606,0.4584,0.4739,0.4499,721.45K,0.85%,XTZ
31-Dec-18,0.4567,0.4888,0.4924,0.4542,889.27K,-6.71%,XTZ
30-Dec-18,0.4895,0.4993,0.5009,0.47,608.58K,-1.86%,XTZ
29-Dec-18,0.4988,0.4871,0.5109,0.4841,830.52K,2.41%,XTZ
28-Dec-18,0.4871,0.4574,0.4928,0.4454,1.18M,6.45%,XTZ
27-Dec-18,0.4575,0.5053,0.5092,0.4546,1.19M,-9.68%,XTZ
26-Dec-18,0.5066,0.4704,0.5134,0.4617,1.00M,7.42%,XTZ
25-Dec-18,0.4716,0.5316,0.5324,0.4612,1.35M,-11.28%,XTZ
24-Dec-18,0.5316,0.5121,0.5649,0.5101,1.70M,3.82%,XTZ
23-Dec-18,0.5121,0.4652,0.5216,0.4643,1.58M,10.07%,XTZ
22-Dec-18,0.4652,0.4711,0.4742,0.4558,1.50M,-1.26%,XTZ
21-Dec-18,0.4711,0.4688,0.4871,0.4617,2.13M,0.47%,XTZ
20-Dec-18,0.4689,0.4441,0.4788,0.4367,2.29M,5.59%,XTZ
19-Dec-18,0.4441,0.4328,0.4786,0.4232,2.32M,2.60%,XTZ
18-Dec-18,0.4328,0.4202,0.4367,0.415,1.72M,3.01%,XTZ
17-Dec-18,0.4202,0.3944,0.4297,0.3892,1.66M,6.53%,XTZ
16-Dec-18,0.3944,0.3882,0.4017,0.3867,1.53M,1.61%,XTZ
15-Dec-18,0.3882,0.3757,0.39,0.3737,1.52M,3.31%,XTZ
14-Dec-18,0.3757,0.3744,0.5063,0.3707,1.60M,0.34%,XTZ
13-Dec-18,0.3744,0.4122,0.4355,0.3741,2.90M,-9.14%,XTZ
12-Dec-18,0.4121,0.3636,0.4169,0.3636,3.12M,12.71%,XTZ
11-Dec-18,0.3656,0.3619,0.3689,0.3576,1.78M,1.36%,XTZ
10-Dec-18,0.3607,0.398,0.4013,0.3219,2.23M,-9.37%,XTZ
9-Dec-18,0.398,0.3885,0.4193,0.3857,803.98K,2.45%,XTZ
8-Dec-18,0.3885,0.3787,0.3998,0.3607,569.79K,2.59%,XTZ
7-Dec-18,0.3787,0.344,0.3788,0.3089,732.30K,10.09%,XTZ
6-Dec-18,0.344,0.3916,0.3934,0.32,2.09M,-12.16%,XTZ
5-Dec-18,0.3916,0.434,0.4356,0.38,967.06K,-9.77%,XTZ
4-Dec-18,0.434,0.4389,0.4582,0.4147,1.05M,-1.12%,XTZ
3-Dec-18,0.4389,0.4916,0.4929,0.43,700.30K,-10.72%,XTZ
2-Dec-18,0.4916,0.511,0.5153,0.483,507.57K,-3.80%,XTZ
1-Dec-18,0.511,0.4991,0.5224,0.4801,733.01K,2.38%,XTZ
30-Nov-18,0.4991,0.566,0.569,0.4835,765.51K,-11.82%,XTZ
29-Nov-18,0.566,0.5756,0.585,0.5,1.40M,-1.67%,XTZ
28-Nov-18,0.5756,0.5731,0.6,0.56,1.40M,0.44%,XTZ
27-Nov-18,0.5731,0.5808,0.588,0.545,209.22K,-1.33%,XTZ
26-Nov-18,0.5808,0.598,0.629,0.5512,397.89K,-2.88%,XTZ
25-Nov-18,0.598,0.581,0.6109,0.4883,742.86K,2.93%,XTZ
24-Nov-18,0.581,0.6442,0.6784,0.5626,231.87K,-9.81%,XTZ
23-Nov-18,0.6442,0.6955,0.71,0.6302,522.87K,-7.38%,XTZ
22-Nov-18,0.6955,0.7395,0.778,0.6955,112.77K,-5.95%,XTZ
21-Nov-18,0.7395,0.731,0.75,0.6646,526.94K,1.16%,XTZ
20-Nov-18,0.731,0.8435,0.91,0.7023,789.35K,-13.34%,XTZ
19-Nov-18,0.8435,1.1015,1.1084,0.826,595.68K,-23.42%,XTZ
18-Nov-18,1.1015,1.1138,1.1267,1.0541,80.57K,-1.10%,XTZ
17-Nov-18,1.1138,1.1322,1.1377,1.1,94.88K,-1.63%,XTZ
16-Nov-18,1.1322,1.1374,1.1639,1.119,161.63K,-0.46%,XTZ
15-Nov-18,1.1374,1.147,1.1615,1.0895,459.95K,-0.84%,XTZ
14-Nov-18,1.147,1.2821,1.3068,1.1109,301.04K,-10.54%,XTZ
13-Nov-18,1.2821,1.2765,1.2993,1.245,188.13K,0.44%,XTZ
12-Nov-18,1.2765,1.315,1.3182,1.262,278.77K,-2.93%,XTZ
11-Nov-18,1.315,1.31,1.3351,1.3043,40.51K,0.38%,XTZ
10-Nov-18,1.31,1.3046,1.3239,1.2897,40.03K,0.41%,XTZ
9-Nov-18,1.3046,1.324,1.3371,1.2847,176.30K,-1.47%,XTZ
8-Nov-18,1.324,1.3318,1.3399,1.315,160.98K,-0.59%,XTZ
7-Nov-18,1.3318,1.3416,1.3648,1.3225,160.57K,-0.73%,XTZ
6-Nov-18,1.3416,1.334,1.3485,1.3192,145.31K,0.57%,XTZ
5-Nov-18,1.334,1.3499,1.3669,1.3116,201.11K,-1.18%,XTZ
4-Nov-18,1.3499,1.3267,1.3741,1.3067,87.94K,1.75%,XTZ
3-Nov-18,1.3267,1.3029,1.3267,1.291,37.55K,1.83%,XTZ
2-Nov-18,1.3029,1.32,1.3493,1.2952,71.56K,-1.30%,XTZ
1-Nov-18,1.32,1.2972,1.3289,1.293,120.79K,1.76%,XTZ
31-Oct-18,1.2972,1.2851,1.3,1.2639,129.64K,0.94%,XTZ
30-Oct-18,1.2851,1.2878,1.326,1.2838,133.41K,-0.21%,XTZ
29-Oct-18,1.2878,1.3546,1.3651,1.2773,315.12K,-4.93%,XTZ
28-Oct-18,1.3546,1.3545,1.3709,1.3401,49.32K,0.01%,XTZ
27-Oct-18,1.3545,1.3837,1.3851,1.3466,67.98K,-2.11%,XTZ
26-Oct-18,1.3837,1.3676,1.39,1.3501,135.93K,1.18%,XTZ
25-Oct-18,1.3676,1.3694,1.3705,1.35,97.23K,-0.13%,XTZ
24-Oct-18,1.3694,1.3946,1.396,1.3581,84.13K,-1.81%,XTZ
23-Oct-18,1.3946,1.4348,1.4593,1.358,264.52K,-2.80%,XTZ
22-Oct-18,1.4348,1.363,1.4437,1.3529,189.99K,5.27%,XTZ
21-Oct-18,1.363,1.3388,1.3846,1.32,95.44K,1.81%,XTZ
20-Oct-18,1.3388,1.3237,1.3452,1.3031,109.63K,1.14%,XTZ
19-Oct-18,1.3237,1.3501,1.3623,1.307,206.85K,-1.96%,XTZ
18-Oct-18,1.3501,1.4282,1.4399,1.3478,300.96K,-5.47%,XTZ
17-Oct-18,1.4282,1.5037,1.5044,1.3993,506.28K,-5.02%,XTZ
16-Oct-18,1.5037,1.3905,1.512,1.3561,1.19M,8.14%,XTZ
15-Oct-18,1.3905,1.233,1.396,1.2207,945.81K,12.77%,XTZ
14-Oct-18,1.233,1.2507,1.2602,1.202,181.55K,-1.42%,XTZ
13-Oct-18,1.2507,1.2471,1.2658,1.228,115.17K,0.29%,XTZ
12-Oct-18,1.2471,1.234,1.2626,1.2099,297.41K,1.06%,XTZ
11-Oct-18,1.234,1.3812,1.3812,1.2321,506.32K,-10.66%,XTZ
10-Oct-18,1.3812,1.4062,1.4443,1.325,534.32K,-1.78%,XTZ
9-Oct-18,1.4062,1.35,1.4486,1.3428,628.01K,4.16%,XTZ
8-Oct-18,1.35,1.3242,1.3649,1.3075,393.97K,1.95%,XTZ
7-Oct-18,1.3242,1.3443,1.3485,1.2995,175.56K,-1.50%,XTZ
6-Oct-18,1.3443,1.3284,1.38,1.3,370.55K,1.20%,XTZ
5-Oct-18,1.3284,1.3055,1.3382,1.3055,197.61K,1.75%,XTZ
4-Oct-18,1.3055,1.3073,1.3758,1.3003,281.11K,-0.14%,XTZ
3-Oct-18,1.3073,1.335,1.36,1.2986,430.50K,-2.07%,XTZ
2-Oct-18,1.335,1.3536,1.3778,1.3299,430.65K,-1.37%,XTZ
1-Oct-18,1.3536,1.4338,1.4558,1.34,543.92K,-5.59%,XTZ
30-Sep-18,1.4338,1.4316,1.4948,1.4161,582.66K,0.15%,XTZ
29-Sep-18,1.4316,1.4195,1.4754,1.3825,321.64K,0.85%,XTZ
28-Sep-18,1.4195,1.4382,1.5,1.4081,479.32K,-1.18%,XTZ
27-Sep-18,1.4365,1.4436,1.472,1.38,543.13K,-0.49%,XTZ
26-Sep-18,1.4436,1.465,1.5275,1.4426,310.76K,-1.46%,XTZ
25-Sep-18,1.465,1.56,1.56,1.44,392.78K,-6.09%,XTZ
24-Sep-18,1.56,1.6552,1.6694,1.5203,397.66K,-5.75%,XTZ
23-Sep-18,1.6552,1.6691,1.7267,1.6,226.22K,-0.83%,XTZ
22-Sep-18,1.6691,1.68,1.693,1.6133,195.26K,-0.65%,XTZ
21-Sep-18,1.68,1.6851,1.8,1.6306,734.63K,-0.30%,XTZ
20-Sep-18,1.6851,1.5389,1.69,1.4915,501.14K,9.50%,XTZ
19-Sep-18,1.5389,1.4845,1.58,1.4585,712.23K,3.66%,XTZ
18-Sep-18,1.4845,1.4939,1.5399,1.41,587.05K,-0.63%,XTZ
17-Sep-18,1.4939,1.67,1.72,1.3811,1.51M,-10.54%,XTZ
16-Sep-18,1.67,1.622,1.6774,1.5333,642.87K,2.96%,XTZ
15-Sep-18,1.622,1.57,1.77,1.5259,1.49M,3.31%,XTZ
14-Sep-18,1.57,1.3256,1.6997,1.2648,1.28M,18.44%,XTZ
13-Sep-18,1.3256,1.2401,1.35,1.2399,337.83K,6.89%,XTZ
12-Sep-18,1.2401,1.2901,1.2992,1.18,481.92K,-3.88%,XTZ
11-Sep-18,1.2901,1.4155,1.4583,1.236,1.23M,-8.86%,XTZ
10-Sep-18,1.4155,1.19,1.5389,1.1788,1.03M,18.95%,XTZ
9-Sep-18,1.19,1.1473,1.2517,1.12,148.62K,3.72%,XTZ
8-Sep-18,1.1473,1.2,1.2464,1.1231,318.13K,-4.39%,XTZ
7-Sep-18,1.2,1.2333,1.2686,1.1946,197.06K,-2.70%,XTZ
6-Sep-18,1.2333,1.294,1.294,1.2,312.03K,-4.69%,XTZ
5-Sep-18,1.294,1.4388,1.47,1.294,570.45K,-10.06%,XTZ
4-Sep-18,1.4388,1.4205,1.4552,1.4068,225.21K,1.29%,XTZ
3-Sep-18,1.4205,1.3957,1.425,1.376,203.77K,1.78%,XTZ
2-Sep-18,1.3957,1.4115,1.44,1.384,327.11K,-1.12%,XTZ
1-Sep-18,1.4115,1.357,1.4356,1.3366,341.88K,4.02%,XTZ
31-Aug-18,1.357,1.3524,1.37,1.3301,166.85K,0.34%,XTZ
30-Aug-18,1.3524,1.3686,1.3838,1.32,140.25K,-1.18%,XTZ
29-Aug-18,1.3686,1.3793,1.393,1.3509,175.16K,-0.78%,XTZ
28-Aug-18,1.3793,1.3474,1.3999,1.3299,327.12K,2.37%,XTZ
27-Aug-18,1.3474,1.3222,1.36,1.3035,125.45K,1.91%,XTZ
26-Aug-18,1.3222,1.3615,1.373,1.29,114.59K,-2.89%,XTZ
25-Aug-18,1.3615,1.3142,1.3619,1.2992,174.44K,3.60%,XTZ
24-Aug-18,1.3142,1.3369,1.3369,1.29,269.22K,-1.70%,XTZ
23-Aug-18,1.3369,1.2835,1.35,1.2603,193.53K,4.16%,XTZ
22-Aug-18,1.2835,1.357,1.427,1.2718,360.04K,-5.42%,XTZ
21-Aug-18,1.357,1.4247,1.4269,1.2606,759.96K,-4.75%,XTZ
20-Aug-18,1.4247,1.374,1.6838,1.3586,1.15M,3.69%,XTZ
19-Aug-18,1.374,1.333,1.399,1.3246,196.65K,3.08%,XTZ
18-Aug-18,1.333,1.3769,1.4115,1.2943,536.38K,-3.19%,XTZ
17-Aug-18,1.3769,1.2874,1.3769,1.2874,299.01K,6.95%,XTZ
16-Aug-18,1.2874,1.2988,1.3311,1.2468,465.92K,-0.88%,XTZ
15-Aug-18,1.2988,1.21,1.399,1.21,465.87K,7.34%,XTZ
14-Aug-18,1.21,1.295,1.295,1.1604,605.70K,-6.56%,XTZ
13-Aug-18,1.295,1.45,1.474,1.2,614.58K,-10.69%,XTZ
12-Aug-18,1.45,1.509,1.5899,1.45,287.59K,-3.91%,XTZ
11-Aug-18,1.509,1.5236,1.5603,1.3697,410.12K,-0.96%,XTZ
10-Aug-18,1.5236,1.6599,1.6599,1.4655,488.24K,-8.21%,XTZ
9-Aug-18,1.6599,1.55,1.6674,1.5334,156.36K,7.09%,XTZ
8-Aug-18,1.55,1.69,1.71,1.5,451.54K,-8.28%,XTZ
7-Aug-18,1.69,1.7895,1.8879,1.6763,211.13K,-5.56%,XTZ
6-Aug-18,1.7895,1.8499,1.912,1.761,189.77K,-3.27%,XTZ
5-Aug-18,1.8499,1.864,1.9215,1.8453,181.89K,-0.76%,XTZ
4-Aug-18,1.864,1.8263,1.915,1.75,508.63K,2.06%,XTZ
3-Aug-18,1.8263,1.6502,1.9235,1.5363,627.68K,10.67%,XTZ
2-Aug-18,1.6502,1.8144,1.8449,1.6347,442.83K,-8.95%,XTZ
1-Aug-18,1.8125,1.8955,1.917,1.72,291.36K,-4.38%,XTZ
31-Jul-18,1.8955,2.0648,2.0692,1.789,390.12K,-8.55%,XTZ
30-Jul-18,2.0728,2.07,2.104,1.969,256.15K,0.14%,XTZ
29-Jul-18,2.07,2.0731,2.102,2.0202,123.46K,-0.15%,XTZ
28-Jul-18,2.0731,2.0833,2.12,2.025,161.45K,-0.49%,XTZ
27-Jul-18,2.0833,2.0474,2.1384,2.0122,197.74K,1.75%,XTZ
26-Jul-18,2.0474,2.1104,2.2,2.03,263.93K,-2.99%,XTZ
25-Jul-18,2.1104,2.1708,2.1999,1.98,455.73K,-2.78%,XTZ
24-Jul-18,2.1708,2.225,2.2999,2.1,399.02K,-2.44%,XTZ
23-Jul-18,2.225,2.1397,2.284,2.1337,265.75K,3.99%,XTZ
22-Jul-18,2.1397,2.1968,2.245,2.1396,153.87K,-1.85%,XTZ
21-Jul-18,2.1801,2.045,2.2,1.9847,219.08K,6.61%,XTZ
20-Jul-18,2.045,2.2775,2.2925,2.02,643.92K,-10.21%,XTZ
19-Jul-18,2.2775,2.3289,2.3487,2.2465,394.48K,-2.21%,XTZ
18-Jul-18,2.3289,2.4075,2.4998,2.25,655.69K,-3.26%,XTZ
17-Jul-18,2.4075,2.2875,2.42,2.2,741.04K,5.25%,XTZ
16-Jul-18,2.2875,2.183,2.325,2.1413,640.88K,4.79%,XTZ
15-Jul-18,2.183,1.9644,2.244,1.9235,671.53K,11.13%,XTZ
14-Jul-18,1.9644,1.9622,1.9954,1.9098,428.06K,0.11%,XTZ
13-Jul-18,1.9622,1.9052,2.07,1.9,646.92K,2.99%,XTZ
12-Jul-18,1.9052,2.0933,2.22,1.8523,999.32K,-8.88%,XTZ
11-Jul-18,2.0909,2.2196,2.3208,2.0301,1.37M,-5.80%,XTZ
10-Jul-18,2.2196,2.2326,2.36,2.14,1.51M,-0.58%,XTZ
9-Jul-18,2.2326,2.317,2.32,2.0345,1.64M,-3.64%,XTZ
8-Jul-18,2.317,1.8,2.49,1.8,3.09M,28.72%,XTZ
7-Jul-18,1.8,1.7522,1.8769,1.641,1.54M,2.73%,XTZ
6-Jul-18,1.7522,1.4199,1.81,1.0999,4.79M,23.40%,XTZ
5-Jul-18,1.4199,1.8765,1.97,1.3888,2.93M,-24.33%,XTZ
4-Jul-18,1.8765,1.9987,2.09,1.87,1.63M,-6.11%,XTZ
3-Jul-18,1.9987,3.01,3.2,1.831,4.61M,-33.60%,XTZ
2-Jul-18,3.01,4.1049,4.3823,2,563.49K,-24.10%,XTZ
1-Jul-18,3.9659,3.8306,4.1631,3.7524,1.89K,3.53%,XTZ
30-Jun-18,3.8306,4.1995,4.383,3.8242,5.62K,-4.23%,XTZ
29-Jun-18,4,3.7795,4,3.5051,1.59K,5.83%,XTZ
28-Jun-18,3.7795,3.72,3.7795,3.6343,2.76K,1.60%,XTZ
27-Jun-18,3.72,3.502,3.72,3.42,2.43K,6.23%,XTZ
26-Jun-18,3.502,3.6011,3.7743,3.5,2.51K,-2.75%,XTZ
25-Jun-18,3.6011,3.3236,3.9477,3.201,2.73K,8.69%,XTZ
24-Jun-18,3.3131,3.6999,3.7,3.2,7.64K,-11.23%,XTZ
23-Jun-18,3.7321,3.98,3.98,3.6032,5.03K,-6.52%,XTZ
22-Jun-18,3.9925,4.2777,4.4189,3.6042,2.31K,-6.67%,XTZ
21-Jun-18,4.2777,4.35,4.855,4.2585,3.93K,-1.66%,XTZ
20-Jun-18,4.35,4.1836,4.35,4.1235,1.88K,1.09%,XTZ
19-Jun-18,4.3033,4.14,4.3401,4.0293,1.85K,3.94%,XTZ
18-Jun-18,4.14,3.828,4.2993,3.828,1.27K,8.15%,XTZ
17-Jun-18,3.828,4.1829,4.1829,3.828,0.24K,-3.56%,XTZ
16-Jun-18,3.9695,3.6,4.3304,3.6,2.61K,-0.76%,XTZ
15-Jun-18,4.0001,4.018,4.1874,3.912,0.58K,-0.45%,XTZ
14-Jun-18,4.018,3.8959,4.3398,3.8,4.14K,3.34%,XTZ
13-Jun-18,3.888,4.281,4.5123,3.8,5.96K,-9.18%,XTZ
12-Jun-18,4.281,4.5,4.8932,4.2757,3.20K,-4.87%,XTZ
11-Jun-18,4.5,4.622,4.9241,4.2,5.46K,-2.64%,XTZ
10-Jun-18,4.622,5.1505,5.493,4.62,8.68K,-10.26%,XTZ
9-Jun-18,5.1505,5.2773,5.5,5.0372,6.43K,-2.40%,XTZ
8-Jun-18,5.2773,5.0368,5.2773,5.0368,7.59K,4.67%,XTZ
7-Jun-18,5.0419,5.1622,5.1622,4.9922,8.65K,-2.33%,XTZ
6-Jun-18,5.1622,5.3545,5.3545,5,0.87K,-3.59%,XTZ
5-Jun-18,5.3545,5.03,5.3545,5,6.63K,7.05%,XTZ
4-Jun-18,5.002,5.2534,5.4552,5,14.60K,-4.79%,XTZ
3-Jun-18,5.2534,5.7951,5.9429,5.1924,4.11K,-9.35%,XTZ
2-Jun-18,5.7951,5.2743,5.943,5.15,8.19K,9.79%,XTZ
1-Jun-18,5.2783,5.0079,5.32,5.0079,1.81K,5.40%,XTZ
31-May-18,5.0079,5.384,5.384,4.9984,6.60K,-6.99%,XTZ
30-May-18,5.384,4.8027,5.3999,4.7368,10.73K,17.99%,XTZ
29-May-18,4.563,4.4376,4.9,4.2777,1.84K,2.83%,XTZ
28-May-18,4.4376,4.388,4.5,4.278,2.21K,1.13%,XTZ
27-May-18,4.388,4.7436,5.49,4.2001,27.56K,-4.28%,XTZ
26-May-18,4.584,4.5392,4.9999,4.3057,3.12K,3.01%,XTZ
25-May-18,4.4499,4,4.6,4,2.54K,11.25%,XTZ
24-May-18,4,4.054,4.48,4,0.32K,-1.33%,XTZ
23-May-18,4.054,4.4,4.6141,3.8642,2.94K,-7.86%,XTZ
22-May-18,4.4,4.8614,4.8614,4.278,4.76K,-9.49%,XTZ
21-May-18,4.8614,5.058,5.2936,4.6318,2.57K,-3.89%,XTZ
20-May-18,5.058,4.88,5.3037,4.86,3.80K,3.65%,XTZ
19-May-18,4.88,4.6244,5.1941,4.6244,1.67K,5.53%,XTZ
18-May-18,4.6244,4.8383,4.8775,4.5,1.34K,-4.72%,XTZ
17-May-18,4.8534,4.6901,4.952,4.6399,8.16K,4.96%,XTZ
16-May-18,4.624,4.7301,5.4444,4.399,7.89K,-2.24%,XTZ
15-May-18,4.7301,5.2099,5.99,4.722,17.11K,-9.21%,XTZ
14-May-18,5.2099,4.4307,5.236,3.995,13.49K,17.59%,XTZ
13-May-18,4.4307,3.9061,4.8,3.7391,6.49K,13.43%,XTZ
12-May-18,3.9061,3.8462,4.0359,3.55,3.61K,1.56%,XTZ
11-May-18,3.8462,3.997,4.0903,3.77,7.02K,-3.77%,XTZ
10-May-18,3.997,3.931,4.122,3.81,6.39K,1.68%,XTZ
9-May-18,3.931,3.969,4.1219,3.8501,3.09K,-0.96%,XTZ
8-May-18,3.969,4,4.1603,3.957,5.47K,1.51%,XTZ
7-May-18,3.91,4.1603,4.1603,3.803,2.24K,-6.02%,XTZ
6-May-18,4.1603,4.2624,4.5,3.72,10.02K,-2.40%,XTZ
5-May-18,4.2624,3.9,4.2624,3.7082,4.96K,9.29%,XTZ
4-May-18,3.9,3.9365,4.1492,3.65,8.50K,-0.93%,XTZ
3-May-18,3.9365,3.845,4.08,3.6528,6.65K,2.38%,XTZ
2-May-18,3.845,3.5762,3.845,3.54,4.89K,7.52%,XTZ
1-May-18,3.5762,3.6166,3.9086,3.519,3.12K,-1.12%,XTZ
30-Apr-18,3.6166,3.94,4.334,3.56,11.26K,-8.21%,XTZ
29-Apr-18,3.94,3.6,4.199,3.6,16.40K,9.44%,XTZ
28-Apr-18,3.6,3.5645,3.79,3.3566,5.50K,1.00%,XTZ
27-Apr-18,3.5645,3.6,3.832,3.5645,4.20K,-0.99%,XTZ
26-Apr-18,3.6,3.8,3.8,3.2711,1.56K,-5.26%,XTZ
25-Apr-18,3.8,4.19,4.19,3.2366,13.14K,-9.31%,XTZ
24-Apr-18,4.19,3.589,4.19,3.4,15.92K,16.75%,XTZ
23-Apr-18,3.589,3.2175,3.66,3.1076,10.19K,11.55%,XTZ
22-Apr-18,3.2175,3.0685,3.219,3.0155,8.63K,4.86%,XTZ
21-Apr-18,3.0685,3.1186,3.253,3.0141,15.06K,-1.61%,XTZ
20-Apr-18,3.1186,3.12,3.2752,2.88,20.75K,-0.04%,XTZ
19-Apr-18,3.12,3.133,3.219,3.0269,12.47K,-0.41%,XTZ
18-Apr-18,3.133,3.0353,3.134,3.0079,4.91K,-0.33%,XTZ
17-Apr-18,3.1434,3.2651,3.2651,3.0075,3.42K,-3.73%,XTZ
16-Apr-18,3.2651,3.15,3.2651,2.8731,3.08K,3.65%,XTZ
15-Apr-18,3.15,2.9593,3.15,2.8232,7.77K,6.44%,XTZ
14-Apr-18,2.9593,3,3.034,2.8353,2.62K,-1.36%,XTZ
13-Apr-18,3,3.13,3.288,3,7.25K,-4.15%,XTZ
12-Apr-18,3.13,2.7787,3.13,2.726,9.66K,12.64%,XTZ
11-Apr-18,2.7787,2.8063,2.9577,2.71,5.00K,-0.98%,XTZ
10-Apr-18,2.8063,2.9218,2.9218,2.6681,0.64K,-3.95%,XTZ
9-Apr-18,2.9218,2.693,2.9375,2.661,4.08K,8.50%,XTZ
8-Apr-18,2.693,2.747,2.9205,2.6417,4.41K,-1.97%,XTZ
7-Apr-18,2.747,2.7827,2.783,2.6417,3.47K,-1.28%,XTZ
6-Apr-18,2.7827,2.7986,2.7986,2.6267,1.62K,-0.57%,XTZ
5-Apr-18,2.7986,2.75,2.8198,2.542,13.57K,1.77%,XTZ
4-Apr-18,2.75,2.999,2.999,2.623,4.50K,-8.30%,XTZ
3-Apr-18,2.999,2.74,2.999,2.7357,2.02K,9.45%,XTZ
2-Apr-18,2.74,2.7788,2.9066,2.74,8.22K,-1.40%,XTZ
1-Apr-18,2.7788,2.9,3.358,2.557,16.57K,-4.18%,XTZ
31-Mar-18,2.9,3.1276,3.1276,2.8115,6.95K,-7.28%,XTZ
30-Mar-18,3.1276,2.8398,3.39,2.8,5.62K,10.13%,XTZ
29-Mar-18,2.8398,3.2981,3.413,2.8398,7.31K,-13.90%,XTZ
28-Mar-18,3.2981,3.3716,3.4836,3.0203,4.71K,-2.18%,XTZ
27-Mar-18,3.3716,3.9078,3.9078,2.96,2.41K,-13.72%,XTZ
26-Mar-18,3.9078,4.032,4.032,3.3,2.56K,-3.08%,XTZ
25-Mar-18,4.032,3.8942,4.496,3.5536,3.86K,3.54%,XTZ
24-Mar-18,3.8942,3.5385,3.8942,3.3272,3.37K,10.05%,XTZ
23-Mar-18,3.5385,3.0999,3.5385,3.01,4.33K,14.15%,XTZ
22-Mar-18,3.0999,3.472,3.472,3.0694,2.00K,-10.72%,XTZ
21-Mar-18,3.472,3.48,3.5,2.9589,8.51K,-0.23%,XTZ
20-Mar-18,3.48,3.2091,3.48,2.9004,1.72K,8.44%,XTZ
19-Mar-18,3.2091,2.7828,3.3,2.624,7.24K,15.32%,XTZ
18-Mar-18,2.7828,2.8,3.076,2.542,6.86K,-0.61%,XTZ
17-Mar-18,2.8,3.055,3.0804,2.8,2.80K,-8.35%,XTZ
16-Mar-18,3.055,3.2581,3.2581,3.046,1.21K,-6.23%,XTZ
15-Mar-18,3.2581,3.12,3.4999,2.8645,3.70K,4.43%,XTZ
14-Mar-18,3.12,3.247,3.5198,3.0769,5.30K,-3.91%,XTZ
13-Mar-18,3.247,3.4688,3.5523,3.228,1.22K,-6.39%,XTZ
12-Mar-18,3.4688,3.4208,3.8227,3.2481,4.49K,1.40%,XTZ
11-Mar-18,3.4208,3,3.4208,2.8846,1.82K,14.03%,XTZ
10-Mar-18,3,3.116,3.6246,3,11.98K,-3.72%,XTZ
9-Mar-18,3.116,3.1798,3.1798,2.7769,9.05K,-2.01%,XTZ
8-Mar-18,3.1798,3.5092,3.9,2.9,6.63K,-9.39%,XTZ
7-Mar-18,3.5092,3.708,3.8273,3.4,13.59K,-5.36%,XTZ
6-Mar-18,3.708,4.1235,4.1434,3.7054,15.32K,-10.08%,XTZ
5-Mar-18,4.1235,4.35,4.506,4.1235,7.82K,-5.21%,XTZ
4-Mar-18,4.35,4.4644,4.6291,4.24,5.13K,-2.56%,XTZ
3-Mar-18,4.4644,4.4379,4.629,4.203,7.15K,0.60%,XTZ
2-Mar-18,4.4379,4.2865,4.5911,4.2438,7.22K,3.53%,XTZ
1-Mar-18,4.2865,4.22,4.69,4.2,7.54K,1.58%,XTZ
28-Feb-18,4.22,4.3406,4.7068,4.0019,15.45K,-2.78%,XTZ
27-Feb-18,4.3406,3.9231,4.4839,3.7082,22.82K,10.64%,XTZ
26-Feb-18,3.9231,4.5648,5,3.2,29.76K,-14.06%,XTZ
25-Feb-18,4.5648,5.0424,5.1,4.4147,11.18K,-9.47%,XTZ
24-Feb-18,5.0424,4.6743,5.0528,4.37,16.32K,7.87%,XTZ
23-Feb-18,4.6743,3.9341,4.812,3.479,15.83K,18.81%,XTZ
22-Feb-18,3.9341,3.504,4.8408,3.05,19.48K,12.27%,XTZ
21-Feb-18,3.504,3.9567,4.0934,3.504,16.64K,-11.44%,XTZ
20-Feb-18,3.9567,3.31,4.6804,3.3,55.54K,19.54%,XTZ
19-Feb-18,3.31,2.81,3.8,2.6998,30.13K,17.79%,XTZ
18-Feb-18,2.81,2.7355,2.815,2.6,13.54K,2.72%,XTZ
17-Feb-18,2.7355,2.63,2.749,2.5681,18.77K,4.01%,XTZ
16-Feb-18,2.63,2.6422,2.719,2.5237,14.86K,-0.46%,XTZ
15-Feb-18,2.6422,2.705,2.7187,2.6299,39.19K,-2.32%,XTZ
14-Feb-18,2.705,3.3334,3.3334,2.5,104.42K,-18.85%,XTZ
13-Feb-18,3.3334,3.698,3.698,2.458,29.15K,-9.86%,XTZ
12-Feb-18,3.698,3.1266,3.9763,3.1266,3.46K,18.28%,XTZ
11-Feb-18,3.1266,3.31,3.31,3.0908,1.34K,-5.54%,XTZ
10-Feb-18,3.31,3.4314,3.6711,3.2808,4.08K,-3.54%,XTZ
9-Feb-18,3.4314,3.0574,3.6869,2.9148,5.90K,12.23%,XTZ
8-Feb-18,3.0574,2.5619,3.2971,2.5465,2.08K,19.34%,XTZ
7-Feb-18,2.5619,2.5,3.18,2.198,5.25K,2.48%,XTZ
6-Feb-18,2.5,3.1669,3.1669,2.0152,3.28K,-21.06%,XTZ
5-Feb-18,3.1669,2.8876,3.1669,2.5,2.77K,9.67%,XTZ
4-Feb-18,2.8876,3.3077,4.0124,2.8876,3.33K,-12.70%,XTZ
3-Feb-18,3.3077,3.08,3.3532,2.71,5.57K,7.39%,XTZ
2-Feb-18,3.08,3.3045,3.8948,2.6339,12.20K,-6.79%,XTZ
